[2014-Mar-14 11:34:54] : New Mission arrived.. MSN 3 [Target: COL 1] has been created. 
[2014-Mar-14 11:34:54] : MPL sends [MSN 3] to COM 3.
[2014-Mar-14 11:34:55] : COM 3 receives [MSN 3] from MPL. 
[2014-Mar-14 11:34:55] : COM 3 forwards [MSN 3] to ANT 3. 
[2014-Mar-14 11:34:56] : [MSN 3] gets relayed to ANT 3. 
[2014-Mar-14 11:34:56] : ANT 3 has LOS to [REL 2, REL 3, COL 5, COL 6]
[2014-Mar-14 11:34:56] : ANT 3 : Target[COL 1] 
[2014-Mar-14 11:34:56] :   Distance from REL 2 -- 2 
[2014-Mar-14 11:34:56] :   Distance from REL 3 -- 3 
[2014-Mar-14 11:34:56] : ANT 3 has no LOS to target COL 1.. ANT 3 forwards [MSN 3] to REL 2. 
[2014-Mar-14 11:34:57] : [MSN 3] gets relayed to REL 2. 
[2014-Mar-14 11:34:57] : REL 2 has LOS to [ANT 1, ANT 2, ANT 3, ANT 4, REL 1, REL 3, COL 4, COL 5, COL 6]
[2014-Mar-14 11:34:57] : REL 2 : Target[COL 1] 
[2014-Mar-14 11:34:57] :   Distance from REL 1 -- 1 
[2014-Mar-14 11:34:57] :   Distance from REL 3 -- 3 
[2014-Mar-14 11:34:57] : REL 2 has no LOS to target COL 1.. REL 2 forwards [MSN 3] to REL 1. 
[2014-Mar-14 11:35:00] : [MSN 3] gets relayed to REL 1. 
[2014-Mar-14 11:35:00] : REL 1 has LOS to [ANT 1, ANT 2, REL 2, REL 4, COL 1, COL 2, COL 3]
[2014-Mar-14 11:35:00] : REL 1 has LOS to target COL 1.. REL 1 forwards [MSN 3] to COL 1. 
[2014-Mar-14 11:35:02] : COL 1 receives [MSN 3]. 
[2014-Mar-14 11:35:03] : SGN 3 [Target: ANT 3, Duration: 8000] has been created. 
[2014-Mar-14 11:35:03] : COL 1 has LOS to [ANT 1, REL 1]
[2014-Mar-14 11:35:03] : COL 1 : Target[ANT 3] 
[2014-Mar-14 11:35:03] :   Distance from REL 1 -- 2 
[2014-Mar-14 11:35:03] : COL 1 has no LOS to target ANT 3.. COL 1 forwards [SGN 3] to REL 1. 
[2014-Mar-14 11:35:04] : COL 1 has LOS to [ANT 1, REL 1]
[2014-Mar-14 11:35:04] : COL 1 : Target[ANT 3] 
[2014-Mar-14 11:35:04] :   Distance from REL 1 -- 2 
[2014-Mar-14 11:35:04] : COL 1 has no LOS to target ANT 3.. COL 1 forwards [SGN 3] to REL 1. 
[2014-Mar-14 11:35:05] : COL 1 has LOS to [ANT 1, REL 1]
[2014-Mar-14 11:35:05] : COL 1 : Target[ANT 3] 
[2014-Mar-14 11:35:05] :   Distance from REL 1 -- 2 
[2014-Mar-14 11:35:05] : COL 1 has no LOS to target ANT 3.. COL 1 forwards [SGN 3] to REL 1. 
[2014-Mar-14 11:35:06] : COL 1 has LOS to [ANT 1, REL 1]
[2014-Mar-14 11:35:06] : COL 1 : Target[ANT 3] 
[2014-Mar-14 11:35:06] :   Distance from REL 1 -- 2 
[2014-Mar-14 11:35:06] : COL 1 has no LOS to target ANT 3.. COL 1 forwards [SGN 3] to REL 1. 
[2014-Mar-14 11:35:07] : COL 1 has LOS to [ANT 1, REL 1]
[2014-Mar-14 11:35:07] : COL 1 : Target[ANT 3] 
[2014-Mar-14 11:35:07] :   Distance from REL 1 -- 2 
[2014-Mar-14 11:35:07] : COL 1 has no LOS to target ANT 3.. COL 1 forwards [SGN 3] to REL 1. 
[2014-Mar-14 11:35:08] : [SGN 3] gets relayed to REL 1. 
[2014-Mar-14 11:35:08] : REL 1 has LOS to [ANT 1, ANT 2, REL 2, REL 4, COL 1, COL 2, COL 3]
[2014-Mar-14 11:35:08] : REL 1 : Target[ANT 3] 
[2014-Mar-14 11:35:08] :   Distance from REL 2 -- 1 
[2014-Mar-14 11:35:08] :   Distance from REL 4 -- 2 
[2014-Mar-14 11:35:08] : REL 1 has no LOS to target ANT 3.. REL 1 forwards [SGN 3] to REL 2. 
[2014-Mar-14 11:35:08] : [SGN 3] gets relayed to REL 2. 
[2014-Mar-14 11:35:08] : REL 2 has LOS to [ANT 1, ANT 2, ANT 3, ANT 4, REL 1, REL 3, COL 4, COL 5, COL 6]
[2014-Mar-14 11:35:08] : REL 2 has LOS to target ANT 3.. REL 2 forwards [SGN 3] to ANT 3. 
[2014-Mar-14 11:35:08] : ANT 3 receives [SGN 3]. 
[2014-Mar-14 11:35:08] : COL 1 has LOS to [ANT 1, REL 1]
[2014-Mar-14 11:35:08] : COL 1 : Target[ANT 3] 
[2014-Mar-14 11:35:08] :   Distance from REL 1 -- 2 
[2014-Mar-14 11:35:08] : COL 1 has no LOS to target ANT 3.. COL 1 forwards [SGN 3] to REL 1. 
[2014-Mar-14 11:35:09] : [SGN 3] gets relayed to REL 2. 
[2014-Mar-14 11:35:09] : REL 2 has LOS to [ANT 1, ANT 2, ANT 3, ANT 4, REL 1, REL 3, COL 4, COL 5, COL 6]
[2014-Mar-14 11:35:09] : REL 2 has LOS to target ANT 3.. REL 2 forwards [SGN 3] to ANT 3. 
[2014-Mar-14 11:35:09] : ANT 3 receives [SGN 3]. 
[2014-Mar-14 11:35:09] : ANT 3 receives [SGN 3]. 
[2014-Mar-14 11:35:09] : COL 1 has LOS to [[2014-Mar-14 11:35:10] : ANT 3 receives [SGN 3]. 
ANT 1, REL 1]
[2014-Mar-14 11:35:10] : COL 1 : Target[ANT 3] 
[2014-Mar-14 11:35:10] :   Distance from REL 1 -- 2 
[2014-Mar-14 11:35:10] : COL 1 has no LOS to target ANT 3.. COL 1 forwards [SGN 3] to REL 1. 
[2014-Mar-14 11:35:10] : [SGN 3] gets relayed to REL 2. 
[2014-Mar-14 11:35:10] : REL 2 has LOS to [ANT 1, ANT 2, ANT 3, ANT 4, REL 1, REL 3, COL 4, COL 5, COL 6]
[2014-Mar-14 11:35:10] : REL 2 has LOS to target ANT 3.. REL 2 forwards [SGN 3] to ANT 3. 
[2014-Mar-14 11:35:10] : ANT 3 receives [SGN 3]. 
[2014-Mar-14 11:35:11] : COL 1 has LOS to [[2014-Mar-14 11:35:11] : ANT 3 receives [SGN 3]. 
ANT 2, REL 4]
[2014-Mar-14 11:35:11] : COL 1 : Target[ANT 3] 
[2014-Mar-14 11:35:11] :   Distance from REL 4 -- 2 
[2014-Mar-14 11:35:11] : COL 1 has no LOS to target ANT 3.. COL 1 forwards [SGN 3] to REL 4. 
[2014-Mar-14 11:35:14] : [SGN 3] gets relayed to REL 4. 
[2014-Mar-14 11:35:14] : REL 4 has LOS to [ANT 5, ANT 6, REL 3, REL 1, COL 1, COL 2, COL 12]
[2014-Mar-14 11:35:14] : REL 4 : Target[ANT 3] 
[2014-Mar-14 11:35:14] :   Distance from REL 3 -- 1 
[2014-Mar-14 11:35:14] :   Distance from REL 1 -- 2 
[2014-Mar-14 11:35:14] : REL 4 has no LOS to target ANT 3.. REL 4 forwards [SGN 3] to REL 3. 
[2014-Mar-14 11:35:15] : [SGN 3] gets relayed to REL 4. 
[2014-Mar-14 11:35:15] : REL 4 has LOS to [ANT 5, ANT 6, REL 3, REL 1, COL 1, COL 2, COL 12]
[2014-Mar-14 11:35:15] : REL 4 : Target[ANT 3] 
[2014-Mar-14 11:35:15] :   Distance from REL 3 -- 1 
[2014-Mar-14 11:35:15] :   Distance from REL 1 -- 2 
[2014-Mar-14 11:35:15] : REL 4 has no LOS to target ANT 3.. REL 4 forwards [SGN 3] to REL 3. 
[2014-Mar-14 11:35:15] : [SGN 3] gets relayed to REL 3. 
[2014-Mar-14 11:35:15] : REL 3 has LOS to [ANT 3, ANT 4, ANT 5, ANT 6, REL 2, REL 4, COL 9, COL 10, COL 11]
[2014-Mar-14 11:35:15] : REL 3 has LOS to target ANT 3.. REL 3 forwards [SGN 3] to ANT 3. 
[2014-Mar-14 11:35:16] : ANT 3 receives [SGN 3]. 
[2014-Mar-14 11:35:16] : ANT 3 receives [SGN 3]. 
