[2014-Mar-14 11:49:45] : New Mission arrived.. MSN 3 [Target: COL 1] has been created. 
[2014-Mar-14 11:49:45] : MPL sends [MSN 3] to COM 3.
[2014-Mar-14 11:49:46] : COM 3 receives [MSN 3] from MPL. 
[2014-Mar-14 11:49:46] : COM 3 forwards [MSN 3] to ANT 3. 
[2014-Mar-14 11:49:47] : [MSN 3] gets relayed to ANT 3. 
[2014-Mar-14 11:49:47] : ANT 3 has LOS to [REL 2, REL 3, COL 5, COL 6]
[2014-Mar-14 11:49:47] : ANT 3 : Target[COL 1] 
[2014-Mar-14 11:49:47] :   Distance from REL 2 -- 2 
[2014-Mar-14 11:49:47] :   Distance from REL 3 -- 3 
[2014-Mar-14 11:49:47] : ANT 3 has no LOS to target COL 1.. ANT 3 forwards [MSN 3] to REL 2. 
[2014-Mar-14 11:49:48] : [MSN 3] gets relayed to REL 2. 
[2014-Mar-14 11:49:48] : REL 2 has LOS to [ANT 1, ANT 2, ANT 3, ANT 4, REL 1, REL 3, COL 4, COL 5, COL 6]
[2014-Mar-14 11:49:48] : REL 2 : Target[COL 1] 
[2014-Mar-14 11:49:48] :   Distance from REL 1 -- 1 
[2014-Mar-14 11:49:48] :   Distance from REL 3 -- 3 
[2014-Mar-14 11:49:48] : REL 2 has no LOS to target COL 1.. REL 2 forwards [MSN 3] to REL 1. 
[2014-Mar-14 11:49:49] : [MSN 3] gets relayed to REL 1. 
[2014-Mar-14 11:49:49] : REL 1 has LOS to [ANT 1, ANT 2, REL 2, REL 4, COL 1, COL 2, COL 3]
[2014-Mar-14 11:49:49] : REL 1 has LOS to target COL 1.. REL 1 forwards [MSN 3] to COL 1. 
[2014-Mar-14 11:49:50] : COL 1 receives [MSN 3]. 
[2014-Mar-14 11:49:51] : SGN 3 [Target: ANT 3, Duration: 8000] has been created. 
[2014-Mar-14 11:49:51] : COL 1 has LOS to [ANT 1, REL 1]
[2014-Mar-14 11:49:51] : COL 1 : Target[ANT 3] 
[2014-Mar-14 11:49:51] :   Distance from REL 1 -- 2 
[2014-Mar-14 11:49:51] : COL 1 has no LOS to target ANT 3.. COL 1 forwards [SGN 3] to REL 1. 
[2014-Mar-14 11:49:52] : COL 1 has LOS to [ANT 1, REL 1]
[2014-Mar-14 11:49:52] : COL 1 : Target[ANT 3] 
[2014-Mar-14 11:49:52] :   Distance from REL 1 -- 2 
[2014-Mar-14 11:49:52] : COL 1 has no LOS to target ANT 3.. COL 1 forwards [SGN 3] to REL 1. 
[2014-Mar-14 11:49:53] : [SGN 3] gets relayed to REL 1. 
[2014-Mar-14 11:49:53] : REL 1 has LOS to [ANT 1, ANT 2, REL 2, REL 4, COL 1, COL 2, COL 3]
[2014-Mar-14 11:49:53] : REL 1 : Target[ANT 3] 
[2014-Mar-14 11:49:53] :   Distance from REL 2 -- 1 
[2014-Mar-14 11:49:53] :   Distance from REL 4 -- 2 
[2014-Mar-14 11:49:53] : REL 1 has no LOS to target ANT 3.. REL 1 forwards [SGN 3] to REL 2. 
[2014-Mar-14 11:49:53] : COL 1 has LOS to [[2014-Mar-14 11:49:53] : [SGN 3] gets relayed to REL 2. 
ANT 1, REL 1]
[2014-Mar-14 11:49:53] : REL 2 has LOS to [ANT 1, ANT 2, ANT 3, ANT 4, REL 1, REL 3, COL 4, COL 5, COL 6]
[2014-Mar-14 11:49:54] : COL 1 : Target[ANT 3] 
[2014-Mar-14 11:49:54] :   Distance from REL 1 -- 2 
[2014-Mar-14 11:49:54] : COL 1 has no LOS to target ANT 3.. COL 1 forwards [SGN 3] to REL 1. 
[2014-Mar-14 11:49:54] : REL 2 has LOS to target ANT 3.. REL 2 forwards [SGN 3] to ANT 3. 
[2014-Mar-14 11:49:54] : ANT 3 receives [SGN 3]. 
[2014-Mar-14 11:49:55] : COL 1 has LOS to [[2014-Mar-14 11:49:55] : ANT 3 receives [SGN 3]. 
ANT 1, REL 1]
[2014-Mar-14 11:49:55] : ANT 3 receives [SGN 3]. 
[2014-Mar-14 11:49:55] : COL 1 : Target[ANT 3] 
[2014-Mar-14 11:49:55] :   Distance from REL 1 -- 2 
[2014-Mar-14 11:49:55] : COL 1 has no LOS to target ANT 3.. COL 1 forwards [SGN 3] to REL 1. 
[2014-Mar-14 11:49:56] : [SGN 3] gets relayed to REL 1. 
[2014-Mar-14 11:49:56] : REL 1 has LOS to [ANT 1, ANT 2, REL 2, REL 4, COL 1, COL 2, COL 3]
[2014-Mar-14 11:49:56] : REL 1 : Target[ANT 3] 
[2014-Mar-14 11:49:56] :   Distance from REL 2 -- 1 
[2014-Mar-14 11:49:56] :   Distance from REL 4 -- 2 
[2014-Mar-14 11:49:56] : REL 1 has no LOS to target ANT 3.. REL 1 forwards [SGN 3] to REL 2. 
[2014-Mar-14 11:49:57] : COL 1 has LOS to [ANT 1, REL 1]
[2014-Mar-14 11:49:57] : COL 1 : Target[ANT 3] 
[2014-Mar-14 11:49:57] : [SGN 3] gets relayed to REL 2. 
[2014-Mar-14 11:49:57] :   Distance from REL 1 -- 2 
[2014-Mar-14 11:49:57] : COL 1 has no LOS to target ANT 3.. COL 1 forwards [SGN 3] to REL 1. 
[2014-Mar-14 11:49:57] : REL 2 has LOS to [ANT 1, ANT 2, ANT 3, ANT 4, REL 1, REL 3, COL 4, COL 5, COL 6]
[2014-Mar-14 11:49:57] : REL 2 has LOS to target ANT 3.. REL 2 forwards [SGN 3] to ANT 3. 
[2014-Mar-14 11:49:58] : ANT 3 receives [SGN 3]. 
[2014-Mar-14 11:49:58] : ANT 3 receives [SGN 3]. 
[2014-Mar-14 11:49:58] : COL 1 has LOS to [ANT 1, REL 1]
[2014-Mar-14 11:49:58] : COL 1 : Target[ANT 3] 
[2014-Mar-14 11:49:58] :   Distance from REL 1 -- 2 
[2014-Mar-14 11:49:58] : COL 1 has no LOS to target ANT 3.. COL 1 forwards [SGN 3] to REL 1. 
[2014-Mar-14 11:49:59] : COL 1 has LOS to [ANT 1, REL 1]
[2014-Mar-14 11:49:59] : COL 1 : Target[ANT 3] 
[2014-Mar-14 11:49:59] :   Distance from REL 1 -- 2 
[2014-Mar-14 11:49:59] : COL 1 has no LOS to target ANT 3.. COL 1 forwards [SGN 3] to REL 1. 
[2014-Mar-14 11:50:00] : [SGN 3] gets relayed to REL 1. 
[2014-Mar-14 11:50:00] : REL 1 has LOS to [ANT 1, ANT 2, REL 2, REL 4, COL 1, COL 2, COL 3]
[2014-Mar-14 11:50:00] : COL 1 has LOS to [ANT 1, REL 1]
[2014-Mar-14 11:50:00] : REL 1 : Target[ANT 3] 
[2014-Mar-14 11:50:00] :   Distance from REL 2 -- 1 
[2014-Mar-14 11:50:00] :   Distance from REL 4 -- 2 
[2014-Mar-14 11:50:00] : REL 1 has no LOS to target ANT 3.. REL 1 forwards [SGN 3] to REL 2. 
[2014-Mar-14 11:50:00] : COL 1 : Target[ANT 3] 
[2014-Mar-14 11:50:00] : [SGN 3] gets relayed to REL 2. 
[2014-Mar-14 11:50:00] :   Distance from REL 1 -- 2 
[2014-Mar-14 11:50:00] : COL 1 has no LOS to target ANT 3.. COL 1 forwards [SGN 3] to REL 1. 
[2014-Mar-14 11:50:00] : REL 2 has LOS to [ANT 1, ANT 2, ANT 3, ANT 4, REL 1, REL 3, COL 4, COL 5, COL 6]
[2014-Mar-14 11:50:00] : REL 2 has LOS to target ANT 3.. REL 2 forwards [SGN 3] to ANT 3. 
[2014-Mar-14 11:50:01] : ANT 3 receives [SGN 3]. 
[2014-Mar-14 11:50:01] : ANT 3 receives [SGN 3]. 
[2014-Mar-14 11:50:01] : ANT 3 receives [SGN 3]. 
