[2014-Mar-14 11:49:48] : New Mission arrived.. MSN 4 [Target: COL 2] has been created. 
[2014-Mar-14 11:49:48] : MPL sends [MSN 4] to COM 1.
[2014-Mar-14 11:49:49] : COM 1 receives [MSN 4] from MPL. 
[2014-Mar-14 11:49:49] : COM 1 forwards [MSN 4] to ANT 6. 
[2014-Mar-14 11:49:50] : [MSN 4] gets relayed to ANT 6. 
[2014-Mar-14 11:49:50] : ANT 6 has LOS to [REL 3, REL 4, COL 11, COL 12]
[2014-Mar-14 11:49:50] : ANT 6 : Target[COL 2] 
[2014-Mar-14 11:49:50] :   Distance from REL 3 -- 3 
[2014-Mar-14 11:49:50] :   Distance from REL 4 -- 4 
[2014-Mar-14 11:49:50] : ANT 6 has no LOS to target COL 2.. ANT 6 forwards [MSN 4] to REL 3. 
[2014-Mar-14 11:49:51] : [MSN 4] gets relayed to REL 3. 
[2014-Mar-14 11:49:51] : REL 3 has LOS to [ANT 3, ANT 4, ANT 5, ANT 6, REL 2, REL 4, COL 7, COL 8, COL 9]
[2014-Mar-14 11:49:51] : REL 3 : Target[COL 2] 
[2014-Mar-14 11:49:51] :   Distance from REL 2 -- 2 
[2014-Mar-14 11:49:51] :   Distance from REL 4 -- 4 
[2014-Mar-14 11:49:51] : REL 3 has no LOS to target COL 2.. REL 3 forwards [MSN 4] to REL 2. 
[2014-Mar-14 11:49:52] : [MSN 4] gets relayed to REL 2. 
[2014-Mar-14 11:49:52] : REL 2 has LOS to [ANT 1, ANT 2, ANT 3, ANT 4, REL 1, REL 3, COL 4, COL 5, COL 6]
[2014-Mar-14 11:49:52] : REL 2 : Target[COL 2] 
[2014-Mar-14 11:49:52] :   Distance from REL 1 -- 1 
[2014-Mar-14 11:49:52] :   Distance from REL 3 -- 3 
[2014-Mar-14 11:49:52] : REL 2 has no LOS to target COL 2.. REL 2 forwards [MSN 4] to REL 1. 
[2014-Mar-14 11:49:53] : [MSN 4] gets relayed to REL 1. 
[2014-Mar-14 11:49:53] : REL 1 has LOS to [ANT 1, ANT 2, REL 2, REL 4, COL 1, COL 2, COL 3]
[2014-Mar-14 11:49:53] : REL 1 has LOS to target COL 2.. REL 1 forwards [MSN 4] to COL 2. 
[2014-Mar-14 11:49:56] : COL 2 receives [MSN 4]. 
[2014-Mar-14 11:49:57] : SGN 4 [Target: ANT 6, Duration: 10200] has been created. 
[2014-Mar-14 11:49:57] : COL 2 has LOS to [ANT 1, REL 1]
[2014-Mar-14 11:49:57] : COL 2 : Target[ANT 6] 
[2014-Mar-14 11:49:57] :   Distance from REL 1 -- 3 
[2014-Mar-14 11:49:57] : COL 2 has no LOS to target ANT 6.. COL 2 forwards [SGN 4] to REL 1. 
[2014-Mar-14 11:49:58] : COL 2 has LOS to [[2014-Mar-14 11:49:58] : [SGN 4] gets relayed to REL 1. 
ANT 1, REL 1]
[2014-Mar-14 11:49:58] : REL 1 has LOS to [ANT 1, ANT 2, REL 2, REL 4, COL 1, COL 2, COL 3]
[2014-Mar-14 11:49:58] : COL 2 : Target[ANT 6] 
[2014-Mar-14 11:49:58] :   Distance from REL 1 -- 3 
[2014-Mar-14 11:49:58] : COL 2 has no LOS to target ANT 6.. COL 2 forwards [SGN 4] to REL 1. 
[2014-Mar-14 11:49:58] : REL 1 : Target[ANT 6] 
[2014-Mar-14 11:49:58] :   Distance from REL 2 -- 3 
[2014-Mar-14 11:49:58] :   Distance from REL 4 -- 1 
[2014-Mar-14 11:49:58] : REL 1 has no LOS to target ANT 6.. REL 1 forwards [SGN 4] to REL 4. 
[2014-Mar-14 11:49:59] : COL 2 has LOS to [[2014-Mar-14 11:49:59] : [SGN 4] gets relayed to REL 4. 
ANT 1, REL 1]
[2014-Mar-14 11:49:59] : REL 4 has LOS to [ANT 5, ANT 6, REL 3, REL 1, COL 10, COL 11, COL 12]
[2014-Mar-14 11:49:59] : COL 2 : Target[ANT 6] 
[2014-Mar-14 11:49:59] :   Distance from REL 1 -- 3 
[2014-Mar-14 11:49:59] : COL 2 has no LOS to target ANT 6.. COL 2 forwards [SGN 4] to REL 1. 
[2014-Mar-14 11:49:59] : REL 4 has LOS to target ANT 6.. REL 4 forwards [SGN 4] to ANT 6. 
[2014-Mar-14 11:49:59] : [SGN 4] gets relayed to REL 1. 
[2014-Mar-14 11:49:59] : REL 1 has LOS to [ANT 1, ANT 2, REL 2, REL 4, COL 1, COL 2, COL 3]
[2014-Mar-14 11:49:59] : REL 1 : Target[ANT 6] 
[2014-Mar-14 11:49:59] :   Distance from REL 2 -- 3 
[2014-Mar-14 11:49:59] :   Distance from REL 4 -- 1 
[2014-Mar-14 11:49:59] : REL 1 has no LOS to target ANT 6.. REL 1 forwards [SGN 4] to REL 4. 
[2014-Mar-14 11:50:00] : COL 2 has LOS to [ANT 1, REL 1]
[2014-Mar-14 11:50:00] : COL 2 : Target[ANT 6] 
[2014-Mar-14 11:50:00] : [SGN 4] gets relayed to REL 4. 
[2014-Mar-14 11:50:00] :   Distance from REL 1 -- 3 
[2014-Mar-14 11:50:00] : COL 2 has no LOS to target ANT 6.. COL 2 forwards [SGN 4] to REL 1. 
[2014-Mar-14 11:50:00] : REL 4 has LOS to [ANT 5, ANT 6, REL 3, REL 1, COL 10, COL 11, COL 12]
[2014-Mar-14 11:50:00] : REL 4 has LOS to target ANT 6.. REL 4 forwards [SGN 4] to ANT 6. 
[2014-Mar-14 11:50:00] : ANT 6 receives [SGN 4]. 
[2014-Mar-14 11:50:01] : COL 2 has LOS to [[2014-Mar-14 11:50:01] : ANT 6 receives [SGN 4]. 
ANT 1, REL 1]
[2014-Mar-14 11:50:01] : COL 2 : Target[ANT 6] 
[2014-Mar-14 11:50:01] :   Distance from REL 1 -- 3 
[2014-Mar-14 11:50:01] : [SGN 4] gets relayed to REL 4. 
[2014-Mar-14 11:50:01] : COL 2 has no LOS to target ANT 6.. [2014-Mar-14 11:50:01] : ANT 6 receives [SGN 4]. 
COL 2 forwards [SGN 4] to REL 1. 
[2014-Mar-14 11:50:01] : REL 4 has LOS to [ANT 5, ANT 6, REL 3, REL 1, COL 10, COL 11, COL 12]
[2014-Mar-14 11:50:01] : REL 4 has LOS to target ANT 6.. REL 4 forwards [SGN 4] to ANT 6. 
[2014-Mar-14 11:50:02] : ANT 6 receives [SGN 4]. 
[2014-Mar-14 11:50:02] : COL 2 has LOS to [ANT 1, REL 1]
[2014-Mar-14 11:50:02] : COL 2 : Target[ANT 6] 
[2014-Mar-14 11:50:02] :   Distance from REL 1 -- 3 
[2014-Mar-14 11:50:02] : ANT 6 receives [SGN 4]. 
[2014-Mar-14 11:50:02] : COL 2 has no LOS to target ANT 6.. COL 2 forwards [SGN 4] to REL 1. 
[2014-Mar-14 11:50:03] : [SGN 4] gets relayed to REL 1. 
[2014-Mar-14 11:50:03] : REL 1 has LOS to [ANT 1, ANT 2, REL 2, REL 4, COL 3, COL 4, COL 5]
[2014-Mar-14 11:50:03] : REL 1 : Target[ANT 6] 
[2014-Mar-14 11:50:03] :   Distance from REL 2 -- 3 
[2014-Mar-14 11:50:03] :   Distance from REL 4 -- 1 
[2014-Mar-14 11:50:03] : REL 1 has no LOS to target ANT 6.. REL 1 forwards [SGN 4] to REL 4. 
[2014-Mar-14 11:50:03] : COL 2 has LOS to [ANT 2, REL 4]
[2014-Mar-14 11:50:03] : COL 2 : Target[ANT 6] 
[2014-Mar-14 11:50:03] :   Distance from REL 4 -- 1 
[2014-Mar-14 11:50:03] : COL 2 has no LOS to target ANT 6.. COL 2 forwards [SGN 4] to REL 4. 
[2014-Mar-14 11:50:04] : [SGN 4] gets relayed to REL 4. 
[2014-Mar-14 11:50:04] : REL 4 has LOS to [ANT 5, ANT 6, REL 3, REL 1, COL 1, COL 2, COL 12]
[2014-Mar-14 11:50:04] : REL 4 has LOS to target ANT 6.. REL 4 forwards [SGN 4] to ANT 6. 
[2014-Mar-14 11:50:04] : COL 2 has LOS to [[2014-Mar-14 11:50:04] : ANT 6 receives [SGN 4]. 
ANT 2, REL 4]
[2014-Mar-14 11:50:04] : COL 2 : Target[ANT 6] 
[2014-Mar-14 11:50:04] :   Distance from REL 4 -- 1 
[2014-Mar-14 11:50:04] : COL 2 has no LOS to target ANT 6.. COL 2 forwards [SGN 4] to REL 4. 
[2014-Mar-14 11:50:05] : COL 2 has LOS to [ANT 2, REL 4]
[2014-Mar-14 11:50:05] : COL 2 : Target[ANT 6] 
[2014-Mar-14 11:50:05] :   Distance from REL 4 -- 1 
[2014-Mar-14 11:50:05] : COL 2 has no LOS to target ANT 6.. COL 2 forwards [SGN 4] to REL 4. 
[2014-Mar-14 11:50:06] : [SGN 4] gets relayed to REL 4. 
[2014-Mar-14 11:50:06] : REL 4 has LOS to [ANT 5, ANT 6, REL 3, REL 1, COL 1, COL 2, COL 12]
[2014-Mar-14 11:50:06] : REL 4 has LOS to target ANT 6.. REL 4 forwards [SGN 4] to ANT 6. 
[2014-Mar-14 11:50:06] : ANT 6 receives [SGN 4]. 
[2014-Mar-14 11:50:06] : COL 2 has LOS to [[2014-Mar-14 11:50:06] : ANT 6 receives [SGN 4]. 
ANT 2, REL 4]
[2014-Mar-14 11:50:06] : COL 2 : Target[ANT 6] 
[2014-Mar-14 11:50:06] :   Distance from REL 4 -- 1 
[2014-Mar-14 11:50:06] : COL 2 has no LOS to target ANT 6.. COL 2 forwards [SGN 4] to REL 4. 
[2014-Mar-14 11:50:07] : COL 2 has LOS to [ANT 2, REL 4]
[2014-Mar-14 11:50:07] : COL 2 : Target[ANT 6] 
[2014-Mar-14 11:50:07] :   Distance from REL 4 -- 1 
[2014-Mar-14 11:50:07] : COL 2 has no LOS to target ANT 6.. COL 2 forwards [SGN 4] to REL 4. 
[2014-Mar-14 11:50:10] : [SGN 4] gets relayed to REL 4. 
[2014-Mar-14 11:50:10] : REL 4 has LOS to [ANT 5, ANT 6, REL 3, REL 1, COL 1, COL 2, COL 12]
[2014-Mar-14 11:50:10] : REL 4 has LOS to target ANT 6.. REL 4 forwards [SGN 4] to ANT 6. 
[2014-Mar-14 11:50:10] : ANT 6 receives [SGN 4]. 
[2014-Mar-14 11:50:10] : ANT 6 receives [SGN 4]. 
[2014-Mar-14 11:50:11] : ANT 6 receives [SGN 4]. 
