Preparing Dynamic Window Table.. DONE! 

MPL has started.. 
New Mission arrived.. MSN 1 [Target: COL 2, Duration: 4500] has been created. 
MPL sends [MSN 1] to COM 1.
New Mission arrived.. MSN 2 [Target: COL 3, Duration: 6700] has been created. 
MPL sends [MSN 2] to COM 2.
New Mission arrived.. MSN 3 [Target: COL 2, Duration: 4000] has been created. 
MPL sends [MSN 3] to COM 3.
COM 1 has started.. 
COM 2 has started.. 
COM 3 has started.. 
ANT 1 has started.. 
ANT 2 has started.. 
ANT 3 has started.. 
ANT 4 has started.. 
ANT 5 has started.. 
ANT 6 has started.. 
REL 1 has started.. 
REL 2 has started.. 
REL 3 has started.. 
REL 4 has started.. 
COL 1 has started.. 
COL 2 has started.. 
COL 3 has started.. 
COL 4 has started.. 
COL 5 has started.. 
COL 6 has started.. 
COL 7 has started.. 
COL 8 has started.. 
COL 9 has started.. 
COL 10 has started.. 
COL 11 has started.. 
COL 12 has started.. 
COM 1 receives [MSN 1] from MPL. 
)COM 2 receives [MSN 2] from MPL. 
)COM 1 forwards [MSN 1] to ANT 3. 
COM 3 receives [MSN 3] from MPL. 
)COM 2 forwards [MSN 2] to ANT 3. 
COM 3 forwards [MSN 3] to ANT 3. 
New Mission arrived.. MSN 4 [Target: COL 3, Duration: 5100] has been created. 
MPL sends [MSN 4] to COM 1.
ANT 3 receives [MSN 1] from COM 1. 
)ANT 3 has LOS to [REL 2, COL 5, COL 6]
ANT 3 has no LOS to target COL 2.. ANT 3 forwards [MSN 1] to REL 2. 
COM 1 receives [MSN 4] from MPL. 
)COM 1 forwards [MSN 4] to ANT 3. 
[MSN 1] gets relayed to REL 2. 
)ANT 3 receives [MSN 2] from COM 2. 
)REL 2 has LOS to [ANT 3 has LOS to [ANT 2, REL 2, ANT 3, COL 5, REL 1, COL 6REL 3, ]
COL 4, ANT 3 has no LOS to target COL 3.. COL 5, ANT 3 forwards [MSN 2] to REL 2. 
COL 6]
REL 2 has no LOS to target COL 2.. REL 2 forwards [MSN 1] to REL 3. 
New Mission arrived.. MSN 5 [Target: COL 2, Duration: 4900] has been created. 
MPL sends [MSN 5] to COM 2.
ANT 3 receives [MSN 3] from COM 3. 
)ANT 3 has LOS to [REL 2, COL 5, COL 6]
ANT 3 has no LOS to target COL 2.. [MSN 1] gets relayed to REL 3. 
)ANT 3 forwards [MSN 3] to REL 2. 
[MSN 2] gets relayed to REL 2. 
)REL 3 has LOS to [REL 2 has LOS to [ANT 4, ANT 2, ANT 5, ANT 3, REL 2, REL 1, REL 4, REL 3, COL 7, COL 4, COL 8, COL 5, COL 9COL 6]
]
REL 3 has no LOS to target COL 2.. REL 2 has no LOS to target COL 3.. REL 3 forwards [MSN 1] to REL 4. 
REL 2 forwards [MSN 2] to REL 3. 
COM 2 receives [MSN 5] from MPL. 
)COM 2 forwards [MSN 5] to ANT 2. 
ANT 3 receives [MSN 4] from COM 1. 
)ANT 3 has LOS to [REL 2, COL 5, COL 6]
ANT 3 has no LOS to target COL 3.. ANT 3 forwards [MSN 4] to REL 2. 
[MSN 1] gets relayed to REL 4. 
)[MSN 2] gets relayed to REL 3. 
)REL 4 has LOS to [[MSN 3] gets relayed to REL 2. 
)REL 3 has LOS to [ANT 6, REL 2 has LOS to [ANT 4, REL 3, ANT 2, ANT 5, REL 1, ANT 3, REL 2, COL 10, REL 1, REL 4, COL 11, REL 3, COL 7, COL 12COL 4, COL 8, ]
COL 5, COL 9REL 4 has no LOS to target COL 2.. COL 6]
REL 4 forwards [MSN 1] to REL 1. 
]
REL 3 has no LOS to target COL 3.. REL 2 has no LOS to target COL 2.. REL 3 forwards [MSN 2] to REL 4. 
REL 2 forwards [MSN 3] to REL 1. 
New Mission arrived.. MSN 6 [Target: COL 3, Duration: 3300] has been created. 
MPL sends [MSN 6] to COM 3.
ANT 2 receives [MSN 5] from COM 2. 
)ANT 2 has LOS to [REL 2, COL 3, COL 4]
ANT 2 has no LOS to target COL 2.. ANT 2 forwards [MSN 5] to REL 2. 
[MSN 1] gets relayed to REL 1. 
)REL 1 has LOS to [ANT 1, REL 2, REL 4, COL 1, COL 2, COL 3]
[MSN 2] gets relayed to REL 4. 
)REL 1 has LOS to target COL 2.. REL 4 has LOS to [[MSN 4] gets relayed to REL 2. 
)REL 1 forwards [MSN 1] to COL 2. 
ANT 6, REL 2 has LOS to [REL 3, ANT 2, REL 1, ANT 3, COL 10, REL 1, COL 11, REL 3, COL 12COL 4, ]
COL 5, REL 4 has no LOS to target COL 3.. COL 6REL 4 forwards [MSN 2] to REL 1. 
]
REL 2 has no LOS to target COL 3.. REL 2 forwards [MSN 4] to REL 1. 
COM 3 receives [MSN 6] from MPL. 
)COM 3 forwards [MSN 6] to ANT 2. 
COL 2 receives [MSN 1]. 
)[MSN 3] gets relayed to REL 1. 
)REL 1 has LOS to [ANT 1, REL 2, REL 4, COL 1, COL 2, COL 3]
REL 1 has LOS to target COL 2.. REL 1 forwards [MSN 3] to COL 2. 
[MSN 5] gets relayed to REL 2. 
)REL 2 has LOS to [ANT 2, ANT 3, REL 1, REL 3, COL 4, COL 5, COL 6]
REL 2 has no LOS to target COL 2.. REL 2 forwards [MSN 5] to REL 3. 
ANT 2 receives [MSN 6] from COM 3. 
)ANT 2 has LOS to [REL 2, COL 3, COL 4]
ANT 2 has LOS to target COL 3.. ANT 2 forwards [MSN 6] to COL 3. 
[MSN 2] gets relayed to REL 1. 
)COL 2 receives [MSN 3]. 
)REL 1 has LOS to [ANT 1, REL 2, REL 4, COL 1, COL 2, COL 3]
REL 1 has LOS to target COL 3.. REL 1 forwards [MSN 2] to COL 3. 
[MSN 5] gets relayed to REL 3. 
)REL 3 has LOS to [ANT 4, ANT 5, REL 2, REL 4, COL 7, COL 8, COL 9]
REL 3 has no LOS to target COL 2.. REL 3 forwards [MSN 5] to REL 2. 
COL 3 receives [MSN 6]. 
)New Mission arrived.. MSN 7 [Target: COL 2, Duration: 4000] has been created. 
MPL sends [MSN 7] to COM 1.
[MSN 4] gets relayed to REL 1. 
)REL 1 has LOS to [ANT 1, REL 2, REL 4, COL 1, COL 2, COL 3]
REL 1 has LOS to target COL 3.. REL 1 forwards [MSN 4] to COL 3. 
[MSN 5] gets relayed to REL 2. 
)REL 2 has LOS to [ANT 2, ANT 3, REL 1, REL 3, COL 4, COL 5, COL 6]
REL 2 has no LOS to target COL 2.. REL 2 forwards [MSN 5] to REL 1. 
COL 3 receives [MSN 2]. 
)COM 1 receives [MSN 7] from MPL. 
)COM 1 forwards [MSN 7] to ANT 4. 
[MSN 5] gets relayed to REL 1. 
)REL 1 has LOS to [ANT 1, REL 2, REL 4, COL 1, COL 2, COL 3]
REL 1 has LOS to target COL 2.. REL 1 forwards [MSN 5] to COL 2. 
New Mission arrived.. MSN 8 [Target: COL 3, Duration: 5000] has been created. 
MPL sends [MSN 8] to COM 2.
COL 3 receives [MSN 4]. 
)ANT 4 receives [MSN 7] from COM 1. 
)ANT 4 has LOS to [REL 3, COL 7, COL 8]
ANT 4 has no LOS to target COL 2.. ANT 4 forwards [MSN 7] to REL 3. 
COL 2 receives [MSN 5]. 
)COM 2 receives [MSN 8] from MPL. 
)COM 2 forwards [MSN 8] to ANT 3. 
[MSN 7] gets relayed to REL 3. 
)REL 3 has LOS to [ANT 4, ANT 5, REL 2, REL 4, COL 7, COL 8, COL 9]
REL 3 has no LOS to target COL 2.. REL 3 forwards [MSN 7] to REL 2. 
New Mission arrived.. MSN 9 [Target: COL 2, Duration: 4300] has been created. 
MPL sends [MSN 9] to COM 3.
ANT 3 receives [MSN 8] from COM 2. 
)ANT 3 has LOS to [REL 2, COL 5, COL 6]
ANT 3 has no LOS to target COL 3.. ANT 3 forwards [MSN 8] to REL 2. 
[MSN 7] gets relayed to REL 2. 
)REL 2 has LOS to [ANT 2, ANT 3, REL 1, REL 3, COL 4, COL 5, COL 6]
REL 2 has no LOS to target COL 2.. REL 2 forwards [MSN 7] to REL 1. 
COM 3 receives [MSN 9] from MPL. 
)COM 3 forwards [MSN 9] to ANT 3. 
[MSN 7] gets relayed to REL 1. 
)[MSN 8] gets relayed to REL 2. 
)REL 1 has LOS to [REL 2 has LOS to [ANT 1, ANT 2, ANT 3, REL 2, REL 1, REL 4, REL 3, COL 1, COL 4, COL 2, COL 5, COL 3COL 6]
]
REL 1 has LOS to target COL 2.. REL 2 has no LOS to target COL 3.. REL 1 forwards [MSN 7] to COL 2. 
REL 2 forwards [MSN 8] to REL 1. 
ANT 3 receives [MSN 9] from COM 3. 
)ANT 3 has LOS to [REL 2, COL 5, COL 6]
ANT 3 has no LOS to target COL 2.. ANT 3 forwards [MSN 9] to REL 2. 
New Mission arrived.. MSN 10 [Target: COL 3, Duration: 3900] has been created. 
MPL sends [MSN 10] to COM 1.
COL 2 receives [MSN 7]. 
)[MSN 8] gets relayed to REL 1. 
)REL 1 has LOS to [ANT 1, REL 2, REL 4, COL 1, COL 2, COL 3]
REL 1 has LOS to target COL 3.. REL 1 forwards [MSN 8] to COL 3. 
[MSN 9] gets relayed to REL 2. 
)REL 2 has LOS to [ANT 2, ANT 3, REL 1, REL 3, COL 4, COL 5, COL 6]
REL 2 has no LOS to target COL 2.. REL 2 forwards [MSN 9] to REL 1. 
COM 1 receives [MSN 10] from MPL. 
)COM 1 forwards [MSN 10] to ANT 2. 
COL 3 receives [MSN 8]. 
)[MSN 9] gets relayed to REL 1. 
)REL 1 has LOS to [ANT 1, REL 2, REL 4, COL 1, COL 2, COL 3]
REL 1 has LOS to target COL 2.. REL 1 forwards [MSN 9] to COL 2. 
ANT 2 receives [MSN 10] from COM 1. 
)ANT 2 has LOS to [REL 2, COL 3, COL 4]
ANT 2 has LOS to target COL 3.. ANT 2 forwards [MSN 10] to COL 3. 

MPL is done loading missions. 

COM 2 is done forwarding missions. 

COM 3 is done forwarding missions. 

COM 1 is done forwarding missions. 

COL 2 receives [MSN 9]. 
)COL 3 receives [MSN 10]. 
)