[2014-Mar-10 22:36:17] : Preparing Dynamic Window Table.. DONE! 

[2014-Mar-10 22:36:17] : COM 1 has started.. 
[2014-Mar-10 22:36:17] : COM 2 has started.. 
[2014-Mar-10 22:36:17] : ANT 3 has started.. 
[2014-Mar-10 22:36:17] : REL 3 has started.. 
[2014-Mar-10 22:36:17] : COL 3 has started.. 
[2014-Mar-10 22:36:17] : COL 6 has started.. 
[2014-Mar-10 22:36:17] : COL 7 has started.. 
[2014-Mar-10 22:36:17] : COL 10 has started.. 
[2014-Mar-10 22:36:17] : COL 9 has started.. 
[2014-Mar-10 22:36:17] : COL 8 has started.. 
[2014-Mar-10 22:36:17] : COL 11 has started.. 
[2014-Mar-10 22:36:18] : COL 5 has started.. 
[2014-Mar-10 22:36:18] : COL 4 has started.. 
[2014-Mar-10 22:36:18] : COL 1 has started.. 
[2014-Mar-10 22:36:18] : COL 2 has started.. 
[2014-Mar-10 22:36:18] : REL 4 has started.. 
[2014-Mar-10 22:36:18] : REL 2 has started.. 
[2014-Mar-10 22:36:18] : REL 1 has started.. 
[2014-Mar-10 22:36:18] : ANT 6 has started.. 
[2014-Mar-10 22:36:18] : ANT 5 has started.. 
[2014-Mar-10 22:36:18] : ANT 4 has started.. 
[2014-Mar-10 22:36:18] : ANT 2 has started.. 
[2014-Mar-10 22:36:18] : ANT 1 has started.. 
[2014-Mar-10 22:36:18] : COM 3 has started.. 
[2014-Mar-10 22:36:18] : COL 12 has started.. 
[2014-Mar-10 22:36:18] : MPL has started.. 
[2014-Mar-10 22:36:18] : New Mission arrived.. MSN 1 [Target: COL 1, Duration: 12000] has been created. 
[2014-Mar-10 22:36:19] : MPL sends [MSN 1] to COM 1.
[2014-Mar-10 22:36:19] : New Mission arrived.. MSN 2 [Target: COL 2, Duration: 15000] has been created. 
[2014-Mar-10 22:36:19] : MPL sends [MSN 2] to COM 2.
[2014-Mar-10 22:36:20] : COM 1 receives [MSN 1] from MPL. 
)[2014-Mar-10 22:36:20] : COM 1 forwards [MSN 1] to ANT 5. 
[2014-Mar-10 22:36:20] : COM 2 receives [MSN 2] from MPL. 
)[2014-Mar-10 22:36:20] : COM 2 forwards [MSN 2] to ANT 5. 
[2014-Mar-10 22:36:21] : ANT 5 receives [MSN 1] from COM 1. 
)[2014-Mar-10 22:36:21] : ANT 5 has LOS to [REL 3, COL 9, COL 10]
[2014-Mar-10 22:36:21] : ANT 5 has no LOS to target COL 1.. ANT 5 forwards [MSN 1] to REL 3. 
[2014-Mar-10 22:36:22] : ANT 5 receives [MSN 2] from COM 2. 
)[2014-Mar-10 22:36:22] : [MSN 1] gets relayed to REL 3. 
)[2014-Mar-10 22:36:23] : ANT 5 has LOS to [REL 3, COL 9, COL 10]
[2014-Mar-10 22:36:23] : ANT 5 has no LOS to target COL 2.. ANT 5 forwards [MSN 2] to REL 3. 
[2014-Mar-10 22:36:23] : REL 3 has LOS to [ANT 4, ANT 5, REL 2, REL 4, COL 7, COL 8, COL 9]
[2014-Mar-10 22:36:23] : REL 3 has no LOS to target COL 1.. REL 3 forwards [MSN 1] to REL 2. 
[2014-Mar-10 22:36:24] : [MSN 2] gets relayed to REL 3. 
)[2014-Mar-10 22:36:24] : REL 3 has LOS to [ANT 4, ANT 5, REL 2, REL 4, COL 7, COL 8, COL 9]
[2014-Mar-10 22:36:25] : REL 3 has no LOS to target COL 2.. REL 3 forwards [MSN 2] to REL 2. 
[2014-Mar-10 22:36:25] : [MSN 1] gets relayed to REL 2. 
)[2014-Mar-10 22:36:25] : REL 2 has LOS to [ANT 2, ANT 3, REL 1, REL 3, COL 4, COL 5, COL 6]
[2014-Mar-10 22:36:25] : REL 2 has no LOS to target COL 1.. REL 2 forwards [MSN 1] to REL 1. 
[2014-Mar-10 22:36:26] : [MSN 1] gets relayed to REL 1. 
)[2014-Mar-10 22:36:26] : REL 1 has LOS to [ANT 1, REL 2, REL 4, COL 1, COL 2, COL 3]
[2014-Mar-10 22:36:26] : REL 1 has LOS to target COL 1.. REL 1 forwards [MSN 1] to COL 1. 
[2014-Mar-10 22:36:26] : [MSN 2] gets relayed to REL 2. 
)[2014-Mar-10 22:36:27] : REL 2 has LOS to [ANT 2, ANT 3, REL 1, REL 3, COL 4, COL 5, COL 6]
[2014-Mar-10 22:36:27] : REL 2 has no LOS to target COL 2.. REL 2 forwards [MSN 2] to REL 1. 
[2014-Mar-10 22:36:27] : COL 1 receives [MSN 1]. 
)[2014-Mar-10 22:36:28] : [MSN 2] gets relayed to REL 1. 
)[2014-Mar-10 22:36:28] : REL 1 has LOS to [ANT 1, REL 2, REL 4, COL 1, COL 2, COL 3]
[2014-Mar-10 22:36:28] : REL 1 has LOS to target COL 2.. REL 1 forwards [MSN 2] to COL 2. 
[2014-Mar-10 22:36:29] : SGN 1 [Target: ANT 5] has been created. 
[2014-Mar-10 22:36:29] : COL 1 has LOS to [ANT 1, REL 1]
[2014-Mar-10 22:36:29] : COL 1 has no LOS to target ANT 5.. COL 1 forwards [SGN 1] to REL 1. 
[2014-Mar-10 22:36:29] : COL 2 receives [MSN 2]. 
)[2014-Mar-10 22:36:30] : [SGN 1] gets relayed to REL 1. 
)[2014-Mar-10 22:36:30] : REL 1 has LOS to [ANT 1, REL 2, REL 4, COL 1, COL 2, COL 3]
[2014-Mar-10 22:36:30] : REL 1 has no LOS to target ANT 5.. [2014-Mar-10 22:36:30] : SGN 2 [Target: ANT 5] has been created. 
REL 1 forwards [SGN 1] to REL 2. 
[2014-Mar-10 22:36:31] : COL 2 has LOS to [ANT 1, REL 1]
[2014-Mar-10 22:36:31] : COL 2 has no LOS to target ANT 5.. COL 2 forwards [SGN 2] to REL 1. 
[2014-Mar-10 22:36:31] : COL 1 has LOS to [ANT 1, REL 1]
[2014-Mar-10 22:36:31] : COL 1 has no LOS to target ANT 5.. COL 1 forwards [SGN 1] to REL 1. 
[2014-Mar-10 22:36:31] : New Mission arrived.. MSN 3 [Target: COL 1, Duration: 8000] has been created. 
[2014-Mar-10 22:36:31] : MPL sends [MSN 3] to COM 3.
[2014-Mar-10 22:36:32] : [SGN 1] gets relayed to REL 1. 
)[2014-Mar-10 22:36:32] : REL 1 has LOS to [ANT 1, REL 2, REL 4, COL 1, COL 2, COL 3]
[2014-Mar-10 22:36:32] : REL 1 has no LOS to target ANT 5.. REL 1 forwards [SGN 1] to REL 2. 
[2014-Mar-10 22:36:32] : COL 2 has LOS to [ANT 1, REL 1]
[2014-Mar-10 22:36:32] : COL 2 has no LOS to target ANT 5.. COL 2 forwards [SGN 2] to REL 1. 
[2014-Mar-10 22:36:32] : COL 1 has LOS to [ANT 1, REL 1]
[2014-Mar-10 22:36:32] : COL 1 has no LOS to target ANT 5.. [2014-Mar-10 22:36:32] : [SGN 1] gets relayed to REL 2. 
)[2014-Mar-10 22:36:32] : COM 3 receives [MSN 3] from MPL. 
)[2014-Mar-10 22:36:32] : COM 3 forwards [MSN 3] to ANT 2. 
COL 1 forwards [SGN 1] to REL 1. 
[2014-Mar-10 22:36:32] : REL 2 has LOS to [ANT 2, ANT 3, REL 1, REL 3, COL 4, COL 5, COL 6]
[2014-Mar-10 22:36:32] : REL 2 has no LOS to target ANT 5.. REL 2 forwards [SGN 1] to REL 3. 
[2014-Mar-10 22:36:33] : [SGN 1] gets relayed to REL 3. 
)[2014-Mar-10 22:36:33] : REL 3 has LOS to [ANT 4, ANT 5, REL 2, REL 4, COL 7, COL 8, COL 9]
[2014-Mar-10 22:36:33] : REL 3 has LOS to target ANT 5.. REL 3 forwards [SGN 1] to ANT 5. 
[2014-Mar-10 22:36:33] : COL 2 has LOS to [ANT 1, REL 1]
[2014-Mar-10 22:36:33] : COL 2 has no LOS to target ANT 5.. COL 2 forwards [SGN 2] to REL 1. 
[2014-Mar-10 22:36:33] : [SGN 2] gets relayed to REL 1. 
)[2014-Mar-10 22:36:33] : REL 1 has LOS to [ANT 1, [2014-Mar-10 22:36:33] : ANT 5 receives [SGN 1]. 
)REL 2, REL 4, COL 1, COL 2, COL 3]
[2014-Mar-10 22:36:34] : REL 1 has no LOS to target ANT 5.. [2014-Mar-10 22:36:34] : ANT 2 receives [MSN 3] from COM 3. 
)REL 1 forwards [SGN 2] to REL 2. 
[2014-Mar-10 22:36:34] : New Mission arrived.. MSN 4 [Target: COL 2, Duration: 10200] has been created. 
[2014-Mar-10 22:36:35] : COL 1 has LOS to [[2014-Mar-10 22:36:35] : [SGN 2] gets relayed to REL 2. 
)[2014-Mar-10 22:36:35] : MPL sends [MSN 4] to COM 1.
ANT 1, REL 1]
[2014-Mar-10 22:36:35] : COL 1 has no LOS to target ANT 5.. COL 1 forwards [SGN 1] to REL 1. 
[2014-Mar-10 22:36:35] : REL 2 has LOS to [ANT 2, ANT 3, REL 1, REL 3, COL 4, COL 5, COL 6]
[2014-Mar-10 22:36:35] : REL 2 has no LOS to target ANT 5.. REL 2 forwards [SGN 2] to REL 3. 
[2014-Mar-10 22:36:35] : COL 2 has LOS to [ANT 1, REL 1]
[2014-Mar-10 22:36:36] : COL 2 has no LOS to target ANT 5.. COL 2 forwards [SGN 2] to REL 1. 
[2014-Mar-10 22:36:36] : [SGN 1] gets relayed to REL 1. 
)[2014-Mar-10 22:36:36] : ANT 2 has LOS to [REL 2, COL 3, COL 4]
[2014-Mar-10 22:36:36] : ANT 2 has no LOS to target COL 1.. ANT 2 forwards [MSN 3] to REL 2. 
[2014-Mar-10 22:36:36] : REL 1 has LOS to [ANT 1, REL 2, REL 4, COL 1, COL 2, COL 3]
[2014-Mar-10 22:36:36] : ANT 5 receives [SGN 1]. 
)[2014-Mar-10 22:36:36] : REL 1 has no LOS to target ANT 5.. REL 1 forwards [SGN 1] to REL 2. 
[2014-Mar-10 22:36:36] : COM 1 receives [MSN 4] from MPL. 
)[2014-Mar-10 22:36:36] : COM 1 forwards [MSN 4] to ANT 6. 
[2014-Mar-10 22:36:36] : [SGN 2] gets relayed to REL 3. 
)[2014-Mar-10 22:36:37] : COL 1 has LOS to [ANT 1, REL 1]
[2014-Mar-10 22:36:37] : COL 1 has no LOS to target ANT 5.. COL 1 forwards [SGN 1] to REL 1. 
[2014-Mar-10 22:36:37] : REL 3 has LOS to [ANT 4, ANT 5, REL 2, REL 4, COL 7, COL 8, COL 9]
[2014-Mar-10 22:36:37] : REL 3 has LOS to target ANT 5.. REL 3 forwards [SGN 2] to ANT 5. 
[2014-Mar-10 22:36:37] : ANT 5 receives [SGN 2]. 
)[2014-Mar-10 22:36:37] : ANT 5 receives [SGN 2]. 
)[2014-Mar-10 22:36:37] : COL 2 has LOS to [ANT 1, REL 1]
[2014-Mar-10 22:36:37] : COL 2 has no LOS to target ANT 5.. COL 2 forwards [SGN 2] to REL 1. 
[2014-Mar-10 22:36:38] : [SGN 1] gets relayed to REL 1. 
)[2014-Mar-10 22:36:38] : ANT 6 receives [MSN 4] from COM 1. 
)[2014-Mar-10 22:36:38] : REL 1 has LOS to [ANT 1, REL 2, REL 4, COL 1, COL 2, COL 3]
[2014-Mar-10 22:36:38] : REL 1 has no LOS to target ANT 5.. REL 1 forwards [SGN 1] to REL 2. 
[2014-Mar-10 22:36:38] : COL 1 has LOS to [[2014-Mar-10 22:36:38] : [MSN 3] gets relayed to REL 2. 
)ANT 1, REL 1]
[2014-Mar-10 22:36:38] : COL 1 has no LOS to target ANT 5.. COL 1 forwards [SGN 1] to REL 1. 
[2014-Mar-10 22:36:38] : REL 2 has LOS to [ANT 2, ANT 3, REL 1, REL 3, COL 4, COL 5, COL 6]
[2014-Mar-10 22:36:38] : REL 2 has no LOS to target COL 1.. REL 2 forwards [MSN 3] to REL 1. 
[2014-Mar-10 22:36:38] : ANT 6 has LOS to [[2014-Mar-10 22:36:39] : [SGN 2] gets relayed to REL 3. 
)REL 4, COL 11, COL 12]
[2014-Mar-10 22:36:39] : ANT 6 has no LOS to target COL 2.. ANT 6 forwards [MSN 4] to REL 4. 
[2014-Mar-10 22:36:39] : REL 3 has LOS to [ANT 4, ANT 5, REL 2, REL 4, COL 7, COL 8, COL 9]
[2014-Mar-10 22:36:39] : REL 3 has LOS to target ANT 5.. REL 3 forwards [SGN 2] to ANT 5. 
[2014-Mar-10 22:36:39] : ANT 5 receives [SGN 2]. 
)[2014-Mar-10 22:36:39] : ANT 5 receives [SGN 2]. 
)[2014-Mar-10 22:36:39] : [SGN 1] gets relayed to REL 1. 
)[2014-Mar-10 22:36:40] : COL 2 has LOS to [ANT 1, REL 1]
[2014-Mar-10 22:36:40] : COL 2 has no LOS to target ANT 5.. COL 2 forwards [SGN 2] to REL 1. 
[2014-Mar-10 22:36:40] : REL 1 has LOS to [ANT 1, REL 2, REL 4, COL 1, COL 2, COL 3]
[2014-Mar-10 22:36:40] : REL 1 has no LOS to target ANT 5.. REL 1 forwards [SGN 1] to REL 2. 
[2014-Mar-10 22:36:40] : New Mission arrived.. MSN 5 [Target: COL 1, Duration: 9300] has been created. 
[2014-Mar-10 22:36:40] : MPL sends [MSN 5] to COM 2.

[2014-Mar-10 22:36:40] : MPL is done loading missions. 

[2014-Mar-10 22:36:40] : [MSN 4] gets relayed to REL 4. 
)[2014-Mar-10 22:36:40] : COL 1 has LOS to [ANT 1, REL 1]
[2014-Mar-10 22:36:41] : COL 1 has no LOS to target ANT 5.. COL 1 forwards [SGN 1] to REL 1. 
[2014-Mar-10 22:36:41] : COM 1 is done forwarding missions. 

[2014-Mar-10 22:36:41] : COM 3 is done forwarding missions. 

[2014-Mar-10 22:36:41] : REL 4 has LOS to [ANT 6, REL 3, REL 1, COL 10, COL 11, COL 12]
[2014-Mar-10 22:36:41] : REL 4 has no LOS to target COL 2.. REL 4 forwards [MSN 4] to REL 1. 
[2014-Mar-10 22:36:41] : COL 2 has LOS to [ANT 1, REL 1]
[2014-Mar-10 22:36:41] : COL 2 has no LOS to target ANT 5.. COL 2 forwards [SGN 2] to REL 1. 
[2014-Mar-10 22:36:41] : [SGN 1] gets relayed to REL 2. 
)[2014-Mar-10 22:36:41] : REL 2 has LOS to [ANT 2, ANT 3, REL 1, REL 3, COL 4, COL 5, COL 6]
[2014-Mar-10 22:36:41] : REL 2 has no LOS to target ANT 5.. [2014-Mar-10 22:36:41] : COM 2 receives [MSN 5] from MPL. 
)[2014-Mar-10 22:36:41] : COM 2 forwards [MSN 5] to ANT 2. 
REL 2 forwards [SGN 1] to REL 3. 
[2014-Mar-10 22:36:41] : COM 2 is done forwarding missions. 

[2014-Mar-10 22:36:42] : [SGN 1] gets relayed to REL 3. 
)[2014-Mar-10 22:36:42] : COL 1 has LOS to [ANT 1, REL 1]
[2014-Mar-10 22:36:42] : COL 1 has no LOS to target ANT 5.. COL 1 forwards [SGN 1] to REL 1. 
[2014-Mar-10 22:36:42] : REL 3 has LOS to [ANT 4, ANT 5, REL 2, REL 4, COL 7, COL 8, COL 9]
[2014-Mar-10 22:36:42] : REL 3 has LOS to target ANT 5.. REL 3 forwards [SGN 1] to ANT 5. 
[2014-Mar-10 22:36:42] : ANT 5 receives [SGN 1]. 
)[2014-Mar-10 22:36:42] : COL 2 has LOS to [ANT 1, REL 1[2014-Mar-10 22:36:42] : [MSN 3] gets relayed to REL 1. 
)[2014-Mar-10 22:36:43] : ANT 2 receives [MSN 5] from COM 2. 
)]
[2014-Mar-10 22:36:43] : COL 2 has no LOS to target ANT 5.. COL 2 forwards [SGN 2] to REL 1. 
[2014-Mar-10 22:36:43] : ANT 2 has LOS to [REL 2, COL 3, COL 4]
[2014-Mar-10 22:36:43] : ANT 2 has no LOS to target COL 1.. ANT 2 forwards [MSN 5] to REL 2. 
[2014-Mar-10 22:36:43] : REL 1 has LOS to [[2014-Mar-10 22:36:43] : ANT 5 receives [SGN 1]. 
)ANT 1, REL 2, REL 4, COL 1, COL 2, [2014-Mar-10 22:36:43] : ANT 5 receives [SGN 1]. 
)COL 3]
[2014-Mar-10 22:36:43] : REL 1 has LOS to target COL 1.. REL 1 forwards [MSN 3] to COL 1. 
[2014-Mar-10 22:36:43] : ANT 5 receives [SGN 1]. 
)[2014-Mar-10 22:36:43] : COL 1 has LOS to [ANT 1, REL 1]
[2014-Mar-10 22:36:43] : COL 1 has no LOS to target ANT 5.. COL 1 forwards [SGN 1] to REL 1. 
[2014-Mar-10 22:36:44] : [SGN 1] gets relayed to REL 2. 
)[2014-Mar-10 22:36:44] : REL 2 has LOS to [ANT 2, ANT 3, REL 1, REL 3, COL 4, COL 5, COL 6]
[2014-Mar-10 22:36:44] : REL 2 has no LOS to target ANT 5.. REL 2 forwards [SGN 1] to REL 3. 
[2014-Mar-10 22:36:44] : COL 2 has LOS to [ANT 1, REL 1]
[2014-Mar-10 22:36:44] : COL 2 has no LOS to target ANT 5.. COL 2 forwards [SGN 2] to REL 1. 
[2014-Mar-10 22:36:44] : [MSN 4] gets relayed to REL 1. 
)[2014-Mar-10 22:36:44] : REL 1 has LOS to [ANT 1, REL 2, REL 4, COL 1, COL 2, COL 3]
[2014-Mar-10 22:36:45] : REL 1 has LOS to target COL 2.. REL 1 forwards [MSN 4] to COL 2. 
[2014-Mar-10 22:36:45] : [SGN 2] gets relayed to REL 1. 
)[2014-Mar-10 22:36:45] : COL 1 has LOS to [ANT 1, REL 1]
[2014-Mar-10 22:36:45] : COL 1 has no LOS to target ANT 5.. COL 1 forwards [SGN 1] to REL 1. 
[2014-Mar-10 22:36:45] : REL 1 has LOS to [ANT 1, REL 2, REL 4, COL 1, COL 2, COL 3]
[2014-Mar-10 22:36:45] : REL 1 has no LOS to target ANT 5.. REL 1 forwards [SGN 2] to REL 2. 
[2014-Mar-10 22:36:45] : COL 2 has LOS to [ANT 1, REL 1]
[2014-Mar-10 22:36:45] : COL 2 has no LOS to target ANT 5.. COL 2 forwards [SGN 2] to REL 1. 
[2014-Mar-10 22:36:45] : [SGN 1] gets relayed to REL 3. 
)[2014-Mar-10 22:36:45] : REL 3 has LOS to [ANT 4, ANT 5, REL 2, REL 4, COL 7, COL 8, COL 9]
[2014-Mar-10 22:36:46] : REL 3 has LOS to target ANT 5.. REL 3 forwards [SGN 1] to ANT 5. 
[2014-Mar-10 22:36:46] : ANT 5 receives [SGN 1]. 
)[2014-Mar-10 22:36:46] : [SGN 1] gets relayed to REL 2. 
)[2014-Mar-10 22:36:46] : REL 2 has LOS to [ANT 2, ANT 3, REL 1, REL 3, COL 4, COL 5, COL 6]
[2014-Mar-10 22:36:46] : ANT 5 receives [SGN 1]. 
)[2014-Mar-10 22:36:47] : REL 2 has no LOS to target ANT 5.. [2014-Mar-10 22:36:47] : ANT 5 receives [SGN 1]. 
)REL 2 forwards [SGN 1] to REL 3. 
[2014-Mar-10 22:36:47] : COL 1 has LOS to [ANT 1, [2014-Mar-10 22:36:47] : [SGN 2] gets relayed to REL 1. 
)REL 1]
[2014-Mar-10 22:36:47] : COL 1 has no LOS to target ANT 5.. COL 1 forwards [SGN 1] to REL 1. 
[2014-Mar-10 22:36:47] : REL 1 has LOS to [ANT 1, REL 2, REL 4, COL 1, COL 2, COL 3]
[2014-Mar-10 22:36:48] : REL 1 has no LOS to target ANT 5.. REL 1 forwards [SGN 2] to REL 2. 
[2014-Mar-10 22:36:48] : COL 2 has LOS to [ANT 1, REL 1]
[2014-Mar-10 22:36:48] : COL 2 has no LOS to target ANT 5.. COL 2 forwards [SGN 2] to REL 1. 
[2014-Mar-10 22:36:48] : COL 1 has LOS to [ANT 1, REL 1]
[2014-Mar-10 22:36:49] : COL 1 has no LOS to target ANT 5.. COL 1 forwards [SGN 1] to REL 1. 
[2014-Mar-10 22:36:49] : [SGN 2] gets relayed to REL 1. 
)[2014-Mar-10 22:36:49] : COL 2 has LOS to [ANT 1, REL 1]
[2014-Mar-10 22:36:49] : COL 2 has no LOS to target ANT 5.. COL 2 forwards [SGN 2] to REL 1. 
[2014-Mar-10 22:36:49] : REL 1 has LOS to [ANT 1, REL 2, REL 4, COL 1, COL 2, COL 3]
[2014-Mar-10 22:36:49] : REL 1 has no LOS to target ANT 5.. REL 1 forwards [SGN 2] to REL 2. 
[2014-Mar-10 22:36:49] : [MSN 5] gets relayed to REL 2. 
)[2014-Mar-10 22:36:49] : REL 2 has LOS to [ANT 2, ANT 3, REL 1, REL 3, COL 4, COL 5, COL 6]
[2014-Mar-10 22:36:49] : REL 2 has no LOS to target COL 1.. REL 2 forwards [MSN 5] to REL 1. 
[2014-Mar-10 22:36:49] : [SGN 2] gets relayed to REL 2. 
)[2014-Mar-10 22:36:50] : REL 2 has LOS to [ANT 2, ANT 3, REL 1, REL 3, COL 4, COL 5, COL 6]
[2014-Mar-10 22:36:50] : REL 2 has no LOS to target ANT 5.. REL 2 forwards [SGN 2] to REL 3. 
[2014-Mar-10 22:36:50] : COL 2 has LOS to [ANT 1, REL 1]
[2014-Mar-10 22:36:50] : COL 2 has no LOS to target ANT 5.. [2014-Mar-10 22:36:50] : [SGN 2] gets relayed to REL 3. 
)COL 2 forwards [SGN 2] to REL 1. 
[2014-Mar-10 22:36:50] : REL 3 has LOS to [ANT 4, ANT 5, REL 2, REL 4, COL 7, COL 8, COL 9]
[2014-Mar-10 22:36:50] : REL 3 has LOS to target ANT 5.. REL 3 forwards [SGN 2] to ANT 5. 
[2014-Mar-10 22:36:50] : ANT 5 receives [SGN 2]. 
)[2014-Mar-10 22:36:50] : [SGN 2] gets relayed to REL 1. 
)[2014-Mar-10 22:36:51] : REL 1 has LOS to [ANT 1, REL 2, REL 4, COL 1, COL 2, COL 3]
[2014-Mar-10 22:36:51] : REL 1 has no LOS to target ANT 5.. REL 1 forwards [SGN 2] to REL 2. 
[2014-Mar-10 22:36:51] : COL 1 receives [MSN 3]. 
)[2014-Mar-10 22:36:51] : [SGN 2] gets relayed to REL 2. 
)[2014-Mar-10 22:36:51] : REL 2 has LOS to [ANT 2, ANT 3, REL 1, REL 3, COL 4, COL 5, COL 6]
[2014-Mar-10 22:36:51] : REL 2 has no LOS to target ANT 5.. REL 2 forwards [SGN 2] to REL 3. 
[2014-Mar-10 22:36:52] : [SGN 2] gets relayed to REL 3. 
)[2014-Mar-10 22:36:52] : SGN 3 [Target: ANT 2] has been created. 
[2014-Mar-10 22:36:52] : REL 3 has LOS to [ANT 4, ANT 5, REL 2, REL 4, COL 7, COL 8, COL 9]
[2014-Mar-10 22:36:52] : REL 3 has LOS to target ANT 5.. REL 3 forwards [SGN 2] to ANT 5. 
[2014-Mar-10 22:36:52] : ANT 5 receives [SGN 2]. 
)[2014-Mar-10 22:36:52] : COL 1 has LOS to [ANT 1, REL 1]
[2014-Mar-10 22:36:52] : COL 1 has no LOS to target ANT 2.. COL 1 forwards [SGN 3] to REL 1. 
[2014-Mar-10 22:36:52] : COL 2 has LOS to [ANT 1, REL 1]
[2014-Mar-10 22:36:52] : COL 2 has no LOS to target ANT 5.. COL 2 forwards [SGN 2] to REL 1. 
[2014-Mar-10 22:36:53] : [SGN 2] gets relayed to REL 2. 
)[2014-Mar-10 22:36:53] : REL 2 has LOS to [ANT 2, ANT 3, REL 1, REL 3, COL 4, COL 5, COL 6]
[2014-Mar-10 22:36:53] : REL 2 has no LOS to target ANT 5.. REL 2 forwards [SGN 2] to REL 3. 
[2014-Mar-10 22:36:53] : [MSN 5] gets relayed to REL 1. 
)[2014-Mar-10 22:36:53] : REL 1 has LOS to [ANT 1, REL 2, REL 4, COL 1, COL 2, COL 3]
[2014-Mar-10 22:36:53] : REL 1 has LOS to target COL 1.. REL 1 forwards [MSN 5] to COL 1. 
[2014-Mar-10 22:36:53] : [SGN 2] gets relayed to REL 3. 
)[2014-Mar-10 22:36:53] : REL 3 has LOS to [ANT 4, ANT 5, REL 2, REL 4, COL 7, COL 8, COL 9]
[2014-Mar-10 22:36:53] : REL 3 has LOS to target ANT 5.. REL 3 forwards [SGN 2] to ANT 5. 
[2014-Mar-10 22:36:53] : [SGN 1] gets relayed to REL 1. 
)[2014-Mar-10 22:36:53] : REL 1 has LOS to [ANT 1, REL 2, REL 4, COL 1, COL 2, COL 3]
[2014-Mar-10 22:36:53] : REL 1 has no LOS to target ANT 5.. REL 1 forwards [SGN 1] to REL 2. 
[2014-Mar-10 22:36:53] : ANT 5 receives [SGN 2]. 
)[2014-Mar-10 22:36:54] : ANT 5 receives [SGN 2]. 
)[2014-Mar-10 22:36:54] : COL 1 has LOS to [ANT 1, REL 1]
[2014-Mar-10 22:36:54] : COL 1 has no LOS to target ANT 2.. [2014-Mar-10 22:36:54] : ANT 5 receives [SGN 2]. 
)COL 1 forwards [SGN 3] to REL 1. 
[2014-Mar-10 22:36:54] : COL 2 has LOS to [ANT 1, REL 1]
[2014-Mar-10 22:36:54] : [SGN 2] gets relayed to REL 2. 
)[2014-Mar-10 22:36:54] : COL 2 has no LOS to target ANT 5.. [2014-Mar-10 22:36:54] : ANT 5 receives [SGN 2]. 
)COL 2 forwards [SGN 2] to REL 1. 
[2014-Mar-10 22:36:54] : REL 2 has LOS to [ANT 2, ANT 3, REL 1, REL 3, COL 4, COL 5, COL 6]
[2014-Mar-10 22:36:54] : REL 2 has no LOS to target ANT 5.. REL 2 forwards [SGN 2] to REL 3. 
[2014-Mar-10 22:36:54] : [SGN 2] gets relayed to REL 3. 
)[2014-Mar-10 22:36:54] : REL 3 has LOS to [ANT 4, ANT 5, REL 2, REL 4, COL 7, COL 8, COL 9]
[2014-Mar-10 22:36:55] : REL 3 has LOS to target ANT 5.. REL 3 forwards [SGN 2] to ANT 5. 
[2014-Mar-10 22:36:55] : ANT 5 receives [SGN 2]. 
)[2014-Mar-10 22:36:55] : [SGN 1] gets relayed to REL 1. 
)[2014-Mar-10 22:36:55] : COL 1 has LOS to [ANT 1, REL 1]
[2014-Mar-10 22:36:55] : COL 1 has no LOS to target ANT 2.. COL 1 forwards [SGN 3] to REL 1. 
[2014-Mar-10 22:36:55] : REL 1 has LOS to [ANT 1, REL 2, REL 4, COL 1, COL 2, COL 3]
[2014-Mar-10 22:36:55] : REL 1 has no LOS to target ANT 5.. REL 1 forwards [SGN 1] to REL 2. 
[2014-Mar-10 22:36:55] : ANT 5 receives [SGN 2]. 
)[2014-Mar-10 22:36:55] : [SGN 2] gets relayed to REL 2. 
)[2014-Mar-10 22:36:55] : ANT 5 receives [SGN 2]. 
)[2014-Mar-10 22:36:55] : REL 2 has LOS to [ANT 2, ANT 3, REL 1, REL 3, COL 4, COL 5, COL 6]
[2014-Mar-10 22:36:56] : REL 2 has no LOS to target ANT 5.. [2014-Mar-10 22:36:56] : ANT 5 receives [SGN 2]. 
)REL 2 forwards [SGN 2] to REL 3. 
[2014-Mar-10 22:36:56] : COL 1 has LOS to [ANT 1, REL 1]
[2014-Mar-10 22:36:57] : COL 1 has no LOS to target ANT 2.. COL 1 forwards [SGN 3] to REL 1. 
[2014-Mar-10 22:36:57] : [SGN 1] gets relayed to REL 1. 
)[2014-Mar-10 22:36:57] : REL 1 has LOS to [[2014-Mar-10 22:36:57] : COL 2 receives [MSN 4]. 
)ANT 1, REL 2, REL 4, COL 1, COL 2, COL 3]
[2014-Mar-10 22:36:58] : REL 1 has no LOS to target ANT 5.. REL 1 forwards [SGN 1] to REL 2. 
[2014-Mar-10 22:36:58] : [SGN 2] gets relayed to REL 3. 
)[2014-Mar-10 22:36:58] : REL 3 has LOS to [ANT 4, ANT 5, REL 2, REL 4, COL 7, COL 8, COL 9]
[2014-Mar-10 22:36:58] : REL 3 has LOS to target ANT 5.. REL 3 forwards [SGN 2] to ANT 5. 
[2014-Mar-10 22:36:58] : [SGN 1] gets relayed to REL 2. 
)[2014-Mar-10 22:36:58] : REL 2 has LOS to [ANT 2, ANT 3, REL 1, REL 3, COL 4, COL 5, COL 6]
[2014-Mar-10 22:36:58] : REL 2 has no LOS to target ANT 5.. REL 2 forwards [SGN 1] to REL 3. 
[2014-Mar-10 22:36:59] : SGN 4 [Target: ANT 6] has been created. 
[2014-Mar-10 22:36:59] : COL 2 has LOS to [ANT 1, REL 1]
[2014-Mar-10 22:36:59] : COL 2 has no LOS to target ANT 6.. [2014-Mar-10 22:36:59] : [SGN 3] gets relayed to REL 1. 
)COL 2 forwards [SGN 4] to REL 1. 
[2014-Mar-10 22:36:59] : REL 1 has LOS to [ANT 1, REL 2, REL 4, COL 1, COL 2, COL 3]
[2014-Mar-10 22:36:59] : REL 1 has no LOS to target ANT 2.. REL 1 forwards [SGN 3] to REL 2. 
[2014-Mar-10 22:36:59] : ANT 5 receives [SGN 2]. 
)[2014-Mar-10 22:36:59] : COL 1 has LOS to [[2014-Mar-10 22:36:59] : [SGN 1] gets relayed to REL 3. 
)ANT 1, REL 1]
[2014-Mar-10 22:36:59] : COL 1 has no LOS to target ANT 2.. COL 1 forwards [SGN 3] to REL 1. 
[2014-Mar-10 22:36:59] : REL 3 has LOS to [ANT 4, ANT 5, REL 2, REL 4, COL 7, COL 8, COL 9]
[2014-Mar-10 22:37:00] : REL 3 has LOS to target ANT 5.. REL 3 forwards [SGN 1] to ANT 5. 
[2014-Mar-10 22:37:00] : [SGN 1] gets relayed to REL 2. 
)[2014-Mar-10 22:37:00] : ANT 5 receives [SGN 1]. 
)[2014-Mar-10 22:37:00] : REL 2 has LOS to [ANT 2, ANT 3, REL 1, REL 3, COL 4, COL 5, COL 6]
[2014-Mar-10 22:37:00] : REL 2 has no LOS to target ANT 5.. REL 2 forwards [SGN 1] to REL 3. 
[2014-Mar-10 22:37:00] : COL 2 has LOS to [ANT 1, REL 1]
[2014-Mar-10 22:37:00] : COL 2 has no LOS to target ANT 6.. COL 2 forwards [SGN 4] to REL 1. 
[2014-Mar-10 22:37:00] : [SGN 3] gets relayed to REL 1. 
)[2014-Mar-10 22:37:00] : REL 1 has LOS to [ANT 1, REL 2, REL 4, COL 1, COL 2, COL 3]
[2014-Mar-10 22:37:01] : REL 1 has no LOS to target ANT 2.. REL 1 forwards [SGN 3] to REL 2. 
[2014-Mar-10 22:37:01] : COL 1 has LOS to [ANT 1, REL 1]
[2014-Mar-10 22:37:01] : COL 1 has no LOS to target ANT 2.. [2014-Mar-10 22:37:01] : [SGN 1] gets relayed to REL 3. 
)COL 1 forwards [SGN 3] to REL 1. 
[2014-Mar-10 22:37:02] : REL 3 has LOS to [ANT 4, ANT 5, REL 2, REL 4, COL 7, COL 8, COL 9]
[2014-Mar-10 22:37:02] : REL 3 has LOS to target ANT 5.. REL 3 forwards [SGN 1] to ANT 5. 
[2014-Mar-10 22:37:03] : COL 2 has LOS to [[2014-Mar-10 22:37:03] : [SGN 3] gets relayed to REL 2. 
)[2014-Mar-10 22:37:03] : ANT 5 receives [SGN 1]. 
)ANT 1, REL 1]
[2014-Mar-10 22:37:03] : COL 2 has no LOS to target ANT 6.. COL 2 forwards [SGN 4] to REL 1. 
[2014-Mar-10 22:37:03] : REL 2 has LOS to [ANT 2, [2014-Mar-10 22:37:04] : ANT 5 receives [SGN 1]. 
)ANT 3, REL 1, REL 3, COL 4, COL 5, COL 6]
[2014-Mar-10 22:37:04] : REL 2 has LOS to target ANT 2.. REL 2 forwards [SGN 3] to ANT 2. 
[2014-Mar-10 22:37:05] : ANT 2 receives [SGN 3]. 
)[2014-Mar-10 22:37:05] : COL 1 has LOS to [[2014-Mar-10 22:37:05] : [SGN 3] gets relayed to REL 1. 
)[2014-Mar-10 22:37:06] : ANT 2 receives [SGN 3]. 
)ANT 1, REL 1]
[2014-Mar-10 22:37:06] : COL 1 has no LOS to target ANT 2.. [2014-Mar-10 22:37:06] : ANT 2 receives [SGN 3]. 
)COL 1 forwards [SGN 3] to REL 1. 
[2014-Mar-10 22:37:07] : REL 1 has LOS to [ANT 1, REL 2, REL 4, COL 1, COL 2, COL 3]
[2014-Mar-10 22:37:07] : REL 1 has no LOS to target ANT 2.. REL 1 forwards [SGN 3] to REL 2. 
[2014-Mar-10 22:37:07] : COL 2 has LOS to [[2014-Mar-10 22:37:07] : [SGN 3] gets relayed to REL 2. 
)ANT 1, REL 1]
[2014-Mar-10 22:37:08] : COL 2 has no LOS to target ANT 6.. COL 2 forwards [SGN 4] to REL 1. 
[2014-Mar-10 22:37:08] : REL 2 has LOS to [ANT 2, ANT 3, REL 1, REL 3, COL 4, COL 5, COL 6]
[2014-Mar-10 22:37:08] : REL 2 has LOS to target ANT 2.. REL 2 forwards [SGN 3] to ANT 2. 
[2014-Mar-10 22:37:08] : COL 1 has LOS to [[2014-Mar-10 22:37:08] : ANT 2 receives [SGN 3]. 
)ANT 1, REL 1]
[2014-Mar-10 22:37:08] : COL 1 has no LOS to target ANT 2.. COL 1 forwards [SGN 3] to REL 1. 
[2014-Mar-10 22:37:08] : [SGN 3] gets relayed to REL 1. 
)[2014-Mar-10 22:37:08] : REL 1 has LOS to [ANT 1, REL 2, REL 4, COL 1, COL 2, COL 3]
[2014-Mar-10 22:37:08] : REL 1 has no LOS to target ANT 2.. REL 1 forwards [SGN 3] to REL 2. 
[2014-Mar-10 22:37:09] : COL 2 has LOS to [ANT 1, REL 1]
[2014-Mar-10 22:37:09] : COL 2 has no LOS to target ANT 6.. COL 2 forwards [SGN 4] to REL 1. 
[2014-Mar-10 22:37:09] : [SGN 3] gets relayed to REL 2. 
)[2014-Mar-10 22:37:09] : REL 2 has LOS to [ANT 2, ANT 3, REL 1, REL 3, COL 4, COL 5, COL 6]
[2014-Mar-10 22:37:09] : REL 2 has LOS to target ANT 2.. REL 2 forwards [SGN 3] to ANT 2. 
[2014-Mar-10 22:37:10] : ANT 2 receives [SGN 3]. 
)[2014-Mar-10 22:37:10] : [SGN 4] gets relayed to REL 1. 
)[2014-Mar-10 22:37:10] : COL 2 has LOS to [[2014-Mar-10 22:37:10] : ANT 2 receives [SGN 3]. 
)ANT 1, REL 1]
[2014-Mar-10 22:37:11] : COL 2 has no LOS to target ANT 6.. COL 2 forwards [SGN 4] to REL 1. 
[2014-Mar-10 22:37:11] : REL 1 has LOS to [[2014-Mar-10 22:37:11] : COL 1 receives [MSN 5]. 
)ANT 1, [2014-Mar-10 22:37:11] : ANT 2 receives [SGN 3]. 
)REL 2, REL 4, COL 1, COL 2, COL 3]
[2014-Mar-10 22:37:11] : REL 1 has no LOS to target ANT 6.. REL 1 forwards [SGN 4] to REL 4. 
[2014-Mar-10 22:37:12] : [SGN 3] gets relayed to REL 2. 
)[2014-Mar-10 22:37:12] : REL 2 has LOS to [[2014-Mar-10 22:37:12] : SGN 5 [Target: ANT 2] has been created. 
ANT 2, ANT 3, REL 1, REL 3, COL 4, COL 5, COL 6]
[2014-Mar-10 22:37:12] : REL 2 has LOS to target ANT 2.. REL 2 forwards [SGN 3] to ANT 2. 
[2014-Mar-10 22:37:13] : COL 2 has LOS to [[2014-Mar-10 22:37:13] : [SGN 4] gets relayed to REL 4. 
)ANT 1, REL 1]
[2014-Mar-10 22:37:13] : COL 2 has no LOS to target ANT 6.. COL 2 forwards [SGN 4] to REL 1. 
[2014-Mar-10 22:37:13] : REL 4 has LOS to [ANT 6, REL 3, REL 1, COL 10, COL 11, COL 12]
[2014-Mar-10 22:37:13] : REL 4 has LOS to target ANT 6.. REL 4 forwards [SGN 4] to ANT 6. 
[2014-Mar-10 22:37:13] : ANT 6 receives [SGN 4]. 
)[2014-Mar-10 22:37:14] : COL 1 has LOS to [ANT 1, [2014-Mar-10 22:37:14] : [SGN 4] gets relayed to REL 1. 
)REL 1]
[2014-Mar-10 22:37:14] : COL 1 has no LOS to target ANT 2.. COL 1 forwards [SGN 5] to REL 1. 
[2014-Mar-10 22:37:14] : REL 1 has LOS to [ANT 1, REL 2, [2014-Mar-10 22:37:14] : ANT 2 receives [SGN 3]. 
)REL 4, COL 1, COL 2, COL 3]
[2014-Mar-10 22:37:14] : REL 1 has no LOS to target ANT 6.. REL 1 forwards [SGN 4] to REL 4. 
[2014-Mar-10 22:37:14] : COL 2 has LOS to [ANT 1, REL 1]
[2014-Mar-10 22:37:14] : COL 2 has no LOS to target ANT 6.. COL 2 forwards [SGN 4] to REL 1. 
[2014-Mar-10 22:37:14] : [SGN 4] gets relayed to REL 4. 
)[2014-Mar-10 22:37:15] : REL 4 has LOS to [ANT 6, REL 3, REL 1, COL 10, COL 11, COL 12]
[2014-Mar-10 22:37:15] : REL 4 has LOS to target ANT 6.. REL 4 forwards [SGN 4] to ANT 6. 
[2014-Mar-10 22:37:15] : ANT 6 receives [SGN 4]. 
)[2014-Mar-10 22:37:15] : ANT 6 receives [SGN 4]. 
)[2014-Mar-10 22:37:15] : COL 1 has LOS to [ANT 1, REL 1]
[2014-Mar-10 22:37:15] : COL 1 has no LOS to target ANT 2.. COL 1 forwards [SGN 5] to REL 1. 
[2014-Mar-10 22:37:15] : [SGN 4] gets relayed to REL 1. 
)[2014-Mar-10 22:37:15] : REL 1 has LOS to [ANT 1, REL 2, REL 4, COL 1, COL 2, COL 3]
[2014-Mar-10 22:37:15] : ANT 6 receives [SGN 4]. 
)[2014-Mar-10 22:37:15] : REL 1 has no LOS to target ANT 6.. [2014-Mar-10 22:37:16] : ANT 6 receives [SGN 4]. 
)REL 1 forwards [SGN 4] to REL 4. 
[2014-Mar-10 22:37:16] : COL 2 has LOS to [[2014-Mar-10 22:37:16] : [SGN 4] gets relayed to REL 4. 
)ANT 1, REL 1]
[2014-Mar-10 22:37:17] : COL 2 has no LOS to target ANT 6.. COL 2 forwards [SGN 4] to REL 1. 
[2014-Mar-10 22:37:17] : REL 4 has LOS to [ANT 6, REL 3, REL 1, COL 10, COL 11, COL 12]
[2014-Mar-10 22:37:17] : REL 4 has LOS to target ANT 6.. REL 4 forwards [SGN 4] to ANT 6. 
[2014-Mar-10 22:37:17] : COL 1 has LOS to [ANT 1, [2014-Mar-10 22:37:17] : ANT 6 receives [SGN 4]. 
)[2014-Mar-10 22:37:17] : [SGN 4] gets relayed to REL 1. 
)REL 1]
[2014-Mar-10 22:37:17] : COL 1 has no LOS to target ANT 2.. COL 1 forwards [SGN 5] to REL 1. 
[2014-Mar-10 22:37:18] : REL 1 has LOS to [ANT 1, REL 2, REL 4, COL 3, COL 4, COL 5]
[2014-Mar-10 22:37:18] : REL 1 has no LOS to target ANT 6.. [2014-Mar-10 22:37:18] : ANT 6 receives [SGN 4]. 
)REL 1 forwards [SGN 4] to REL 4. 
[2014-Mar-10 22:37:18] : COL 2 has LOS to [[2014-Mar-10 22:37:18] : [SGN 4] gets relayed to REL 4. 
)ANT 2, REL 4]
[2014-Mar-10 22:37:19] : COL 2 has no LOS to target ANT 6.. COL 2 forwards [SGN 4] to REL 1. 
[2014-Mar-10 22:37:19] : REL 4 has LOS to [ANT 6, REL 3, REL 1, COL 1, COL 2, COL 12]
[2014-Mar-10 22:37:19] : REL 4 has LOS to target ANT 6.. REL 4 forwards [SGN 4] to ANT 6. 
[2014-Mar-10 22:37:20] : COL 1 has LOS to [[2014-Mar-10 22:37:20] : [SGN 5] gets relayed to REL 1. 
)ANT 2, REL 4]
[2014-Mar-10 22:37:20] : COL 1 has LOS to target ANT 2.. COL 1 forwards [SGN 5] to ANT 2. 
[2014-Mar-10 22:37:20] : REL 1 has LOS to [[2014-Mar-10 22:37:20] : ANT 6 receives [SGN 4]. 
)ANT 1, REL 2, REL 4, COL 3, COL 4, COL 5]
[2014-Mar-10 22:37:20] : REL 1 has no LOS to target ANT 2.. REL 1 forwards [SGN 5] to REL 2. 
[2014-Mar-10 22:37:21] : ANT 6 receives [SGN 4]. 
)[2014-Mar-10 22:37:21] : COL 2 has LOS to [ANT 2, [2014-Mar-10 22:37:21] : [SGN 5] gets relayed to REL 2. 
)REL 4]
[2014-Mar-10 22:37:21] : COL 2 has no LOS to target ANT 6.. COL 2 forwards [SGN 4] to REL 1. 
[2014-Mar-10 22:37:22] : REL 2 has LOS to [ANT 2, ANT 3, REL 1, REL 3, COL 6, COL 7, COL 8]
[2014-Mar-10 22:37:22] : REL 2 has LOS to target ANT 2.. REL 2 forwards [SGN 5] to ANT 2. 
[2014-Mar-10 22:37:22] : ANT 2 receives [SGN 5]. 
)[2014-Mar-10 22:37:23] : COL 1 has LOS to [ANT 2, [2014-Mar-10 22:37:23] : [SGN 5] gets relayed to REL 1. 
)REL 4]
[2014-Mar-10 22:37:23] : COL 1 has LOS to target ANT 2.. COL 1 forwards [SGN 5] to ANT 2. 
[2014-Mar-10 22:37:23] : REL 1 has LOS to [ANT 1, REL 2, REL 4, COL 3, COL 4, COL 5]
[2014-Mar-10 22:37:23] : REL 1 has no LOS to target ANT 2.. REL 1 forwards [SGN 5] to REL 2. 
[2014-Mar-10 22:37:23] : [SGN 5] gets relayed to REL 2. 
)[2014-Mar-10 22:37:24] : REL 2 has LOS to [ANT 2, ANT 3, REL 1, REL 3, COL 6, COL 7, COL 8]
[2014-Mar-10 22:37:24] : REL 2 has LOS to target ANT 2.. REL 2 forwards [SGN 5] to ANT 2. 
[2014-Mar-10 22:37:24] : ANT 2 receives [SGN 5]. 
)[2014-Mar-10 22:37:25] : COL 1 has LOS to [ANT 2, [2014-Mar-10 22:37:25] : ANT 2 receives [SGN 5]. 
)[2014-Mar-10 22:37:25] : [SGN 5] gets relayed to REL 1. 
)REL 4]
[2014-Mar-10 22:37:25] : COL 1 has LOS to target ANT 2.. COL 1 forwards [SGN 5] to ANT 2. 
[2014-Mar-10 22:37:25] : ANT 2 receives [SGN 5]. 
)[2014-Mar-10 22:37:26] : REL 1 has LOS to [ANT 1, REL 2, REL 4, COL 3, COL 4, COL 5]
[2014-Mar-10 22:37:26] : REL 1 has no LOS to target ANT 2.. REL 1 forwards [SGN 5] to REL 2. 
[2014-Mar-10 22:37:26] : COL 1 has LOS to [[2014-Mar-10 22:37:27] : [SGN 5] gets relayed to REL 2. 
)ANT 2, REL 4]
[2014-Mar-10 22:37:27] : COL 1 has LOS to target ANT 2.. COL 1 forwards [SGN 5] to ANT 2. 
[2014-Mar-10 22:37:27] : REL 2 has LOS to [[2014-Mar-10 22:37:27] : ANT 2 receives [SGN 5]. 
)ANT 2, ANT 3, REL 1, REL 3, COL 6, COL 7, COL 8]
[2014-Mar-10 22:37:27] : REL 2 has LOS to target ANT 2.. REL 2 forwards [SGN 5] to ANT 2. 
[2014-Mar-10 22:37:27] : [SGN 4] gets relayed to REL 1. 
)[2014-Mar-10 22:37:27] : REL 1 has LOS to [ANT 1, REL 2, REL 4, COL 3, COL 4, COL 5]
[2014-Mar-10 22:37:27] : REL 1 has no LOS to target ANT 6.. REL 1 forwards [SGN 4] to REL 4. 
[2014-Mar-10 22:37:27] : [SGN 4] gets relayed to REL 4. 
)[2014-Mar-10 22:37:27] : REL 4 has LOS to [ANT 6, REL 3, REL 1, COL 1, COL 2, COL 12]
[2014-Mar-10 22:37:28] : REL 4 has LOS to target ANT 6.. REL 4 forwards [SGN 4] to ANT 6. 
[2014-Mar-10 22:37:28] : COL 1 has LOS to [ANT 2, REL 4]
[2014-Mar-10 22:37:28] : COL 1 has LOS to target ANT 2.. COL 1 forwards [SGN 5] to ANT 2. 
[2014-Mar-10 22:37:28] : ANT 2 receives [SGN 5]. 
)[2014-Mar-10 22:37:28] : ANT 2 receives [SGN 5]. 
)[2014-Mar-10 22:37:28] : ANT 6 receives [SGN 4]. 
)[2014-Mar-10 22:37:29] : ANT 6 receives [SGN 4]. 
)[2014-Mar-10 22:37:29] : COL 1 has LOS to [ANT 2, REL 4]
[2014-Mar-10 22:37:29] : COL 1 has LOS to target ANT 2.. COL 1 forwards [SGN 5] to ANT 2. 
[2014-Mar-10 22:37:29] : ANT 2 receives [SGN 5]. 
)[2014-Mar-10 22:37:30] : COL 1 has LOS to [ANT 2, REL 4]
[2014-Mar-10 22:37:30] : COL 1 has LOS to target ANT 2.. COL 1 forwards [SGN 5] to ANT 2. 
[2014-Mar-10 22:37:30] : ANT 2 receives [SGN 5]. 
)[2014-Mar-10 22:37:31] : ANT 2 receives [SGN 5]. 
)