[2014-Mar-06 18:23:05] : Preparing Dynamic Window Table.. DONE! 

[2014-Mar-06 18:23:05] : COM 1 has started.. 
[2014-Mar-06 18:23:05] : COM 2 has started.. 
[2014-Mar-06 18:23:05] : ANT 5 has started.. 
[2014-Mar-06 18:23:05] : REL 2 has started.. 
[2014-Mar-06 18:23:05] : ANT 5 is updating its routing table.. 
[2014-Mar-06 18:23:05] : ANT 5 is updating its routing table.. 
[2014-Mar-06 18:23:05] : REL 2 is updating its routing table.. 
[2014-Mar-06 18:23:05] : COL 11 has started.. 
[2014-Mar-06 18:23:05] : COL 10 has started.. 
[2014-Mar-06 18:23:05] : COL 9 has started.. 
[2014-Mar-06 18:23:05] : COL 8 has started.. 
[2014-Mar-06 18:23:05] : COL 7 has started.. 
[2014-Mar-06 18:23:05] : COL 5 has started.. 
[2014-Mar-06 18:23:05] : COL 4 has started.. 
[2014-Mar-06 18:23:05] : COL 3 has started.. 
[2014-Mar-06 18:23:05] : COL 2 has started.. 
[2014-Mar-06 18:23:05] : COL 1 has started.. 
[2014-Mar-06 18:23:05] : REL 4 has started.. 
[2014-Mar-06 18:23:05] : REL 3 has started.. 
[2014-Mar-06 18:23:05] : REL 1 has started.. 
[2014-Mar-06 18:23:05] : ANT 6 has started.. 
[2014-Mar-06 18:23:05] : ANT 4 has started.. 
[2014-Mar-06 18:23:05] : ANT 3 has started.. 
[2014-Mar-06 18:23:05] : ANT 2 has started.. 
[2014-Mar-06 18:23:05] : ANT 1 has started.. 
[2014-Mar-06 18:23:05] : COM 3 has started.. 
[2014-Mar-06 18:23:05] : COL 12 has started.. 
[2014-Mar-06 18:23:05] : COL 6 has started.. 
[2014-Mar-06 18:23:05] : ANT 5 is updating its routing table.. 
[2014-Mar-06 18:23:05] : REL 2 is updating its routing table.. 
[2014-Mar-06 18:23:05] : COL 11 is updating its routing table.. 
[2014-Mar-06 18:23:05] : COL 10 is updating its routing table.. 
[2014-Mar-06 18:23:05] : COL 9 is updating its routing table.. 
[2014-Mar-06 18:23:05] : COL 8 is updating its routing table.. 
[2014-Mar-06 18:23:05] : COL 7 is updating its routing table.. 
[2014-Mar-06 18:23:05] : COL 5 is updating its routing table.. 
[2014-Mar-06 18:23:05] : COL 4 is updating its routing table.. 
[2014-Mar-06 18:23:05] : COL 3 is updating its routing table.. 
[2014-Mar-06 18:23:05] : COL 2 is updating its routing table.. 
[2014-Mar-06 18:23:05] : COL 1 is updating its routing table.. 
[2014-Mar-06 18:23:05] : REL 4 is updating its routing table.. 
[2014-Mar-06 18:23:05] : REL 3 is updating its routing table.. 
[2014-Mar-06 18:23:05] : REL 1 is updating its routing table.. 
[2014-Mar-06 18:23:05] : ANT 6 is updating its routing table.. 
[2014-Mar-06 18:23:05] : ANT 4 is updating its routing table.. 
[2014-Mar-06 18:23:05] : ANT 3 is updating its routing table.. 
[2014-Mar-06 18:23:05] : ANT 2 is updating its routing table.. 
[2014-Mar-06 18:23:05] : ANT 1 is updating its routing table.. 
[2014-Mar-06 18:23:05] : COL 12 is updating its routing table.. 
[2014-Mar-06 18:23:05] : COL 6 is updating its routing table.. 
[2014-Mar-06 18:23:05] : COL 9 is updating its routing table.. 
[2014-Mar-06 18:23:05] : ANT 3 is updating its routing table.. 
[2014-Mar-06 18:23:06] : MPL has started.. 
[2014-Mar-06 18:23:06] : New Mission arrived.. MSN 1 [Target: COL 1, Duration: 12000] has been created. 
[2014-Mar-06 18:23:06] : MPL sends [MSN 1] to COM 1.
[2014-Mar-06 18:23:06] : New Mission arrived.. MSN 2 [Target: COL 2, Duration: 15000] has been created. 
[2014-Mar-06 18:23:06] : MPL sends [MSN 2] to COM 2.
[2014-Mar-06 18:23:07] : COM 1 receives [MSN 1] from MPL. 
)[2014-Mar-06 18:23:07] : COM 1 forwards [MSN 1] to ANT 5. 
[2014-Mar-06 18:23:07] : COM 2 receives [MSN 2] from MPL. 
)[2014-Mar-06 18:23:07] : COM 2 forwards [MSN 2] to ANT 5. 
[2014-Mar-06 18:23:08] : ANT 5 receives [MSN 1] from COM 1. 
)[2014-Mar-06 18:23:08] : ANT 5 has LOS to [REL 3, COL 9, COL 10]
[2014-Mar-06 18:23:08] : ANT 5 has no LOS to target COL 1.. ANT 5 forwards [MSN 1] to REL 3. 
[2014-Mar-06 18:23:09] : [MSN 1] gets relayed to REL 3. 
)[2014-Mar-06 18:23:09] : ANT 5 receives [MSN 2] from COM 2. 
)[2014-Mar-06 18:23:09] : REL 3 has LOS to [ANT 4, ANT 5, REL 2, REL 4, COL 7, COL 8, COL 9]
[2014-Mar-06 18:23:09] : REL 3 has no LOS to target COL 1.. REL 3 forwards [MSN 1] to ANT 4. 
[2014-Mar-06 18:23:09] : ANT 5 has LOS to [REL 3, COL 9, COL 10]
[2014-Mar-06 18:23:09] : ANT 5 has no LOS to target COL 2.. ANT 5 forwards [MSN 2] to REL 3. 
[2014-Mar-06 18:23:10] : ANT 4 receives [MSN 1] from ANT 5. 
)[2014-Mar-06 18:23:10] : ANT 4 has LOS to [REL 3, COL 7, COL 8]
[2014-Mar-06 18:23:10] : ANT 4 has no LOS to target COL 1.. [2014-Mar-06 18:23:10] : [MSN 2] gets relayed to REL 3. 
)ANT 4 forwards [MSN 1] to REL 3. 
[2014-Mar-06 18:23:10] : REL 3 has LOS to [ANT 4, ANT 5, REL 2, REL 4, COL 7, COL 8, COL 9]
[2014-Mar-06 18:23:10] : REL 3 has no LOS to target COL 2.. REL 3 forwards [MSN 2] to ANT 4. 
[2014-Mar-06 18:23:11] : [MSN 1] gets relayed to REL 3. 
)[2014-Mar-06 18:23:11] : ANT 4 receives [MSN 2] from ANT 5. 
)[2014-Mar-06 18:23:11] : REL 3 has LOS to [ANT 4, ANT 5, REL 2, REL 4, COL 7, COL 8, COL 9]
[2014-Mar-06 18:23:11] : REL 3 has no LOS to target COL 1.. REL 3 forwards [MSN 1] to ANT 4. 
[2014-Mar-06 18:23:11] : ANT 4 has LOS to [REL 3, COL 7, COL 8]
[2014-Mar-06 18:23:11] : ANT 4 has no LOS to target COL 2.. ANT 4 forwards [MSN 2] to REL 3. 
[2014-Mar-06 18:23:12] : [MSN 2] gets relayed to REL 3. 
)[2014-Mar-06 18:23:12] : ANT 4 receives [MSN 1] from ANT 4. 
)[2014-Mar-06 18:23:12] : REL 3 has LOS to [ANT 4, ANT 5, REL 2, REL 4, COL 7, COL 8, COL 9]
[2014-Mar-06 18:23:12] : REL 3 has no LOS to target COL 2.. REL 3 forwards [MSN 2] to ANT 4. 
[2014-Mar-06 18:23:12] : ANT 4 has LOS to [REL 3, COL 7, COL 8]
[2014-Mar-06 18:23:12] : ANT 4 has no LOS to target COL 1.. ANT 4 forwards [MSN 1] to REL 3. 
[2014-Mar-06 18:23:13] : [MSN 1] gets relayed to REL 3. 
)[2014-Mar-06 18:23:13] : ANT 4 receives [MSN 2] from ANT 4. 
)[2014-Mar-06 18:23:13] : REL 3 has LOS to [ANT 4, ANT 5, REL 2, REL 4, COL 7, COL 8, COL 9]
[2014-Mar-06 18:23:13] : REL 3 has no LOS to target COL 1.. REL 3 forwards [MSN 1] to ANT 4. 
[2014-Mar-06 18:23:13] : ANT 4 has LOS to [REL 3, COL 7, COL 8]
[2014-Mar-06 18:23:13] : ANT 4 has no LOS to target COL 2.. ANT 4 forwards [MSN 2] to REL 3. 
[2014-Mar-06 18:23:14] : [MSN 2] gets relayed to REL 3. 
)[2014-Mar-06 18:23:14] : ANT 4 receives [MSN 1] from ANT 4. 
)[2014-Mar-06 18:23:14] : REL 3 has LOS to [ANT 4, ANT 5, REL 2, REL 4, COL 7, COL 8, COL 9]
[2014-Mar-06 18:23:14] : REL 3 has no LOS to target COL 2.. REL 3 forwards [MSN 2] to ANT 4. 
[2014-Mar-06 18:23:14] : ANT 4 has LOS to [REL 3, COL 7, COL 8]
[2014-Mar-06 18:23:14] : ANT 4 has no LOS to target COL 1.. ANT 4 forwards [MSN 1] to REL 3. 
[2014-Mar-06 18:23:15] : ANT 4 receives [MSN 2] from ANT 4. 
)[2014-Mar-06 18:23:15] : [MSN 1] gets relayed to REL 3. 
)[2014-Mar-06 18:23:15] : ANT 4 has LOS to [REL 3, COL 5, COL 6]
[2014-Mar-06 18:23:15] : ANT 4 has no LOS to target COL 2.. ANT 4 forwards [MSN 2] to REL 3. 
[2014-Mar-06 18:23:15] : REL 3 has LOS to [ANT 4, ANT 5, REL 2, REL 4, COL 9, COL 10, COL 11]
[2014-Mar-06 18:23:15] : REL 3 has no LOS to target COL 1.. REL 3 forwards [MSN 1] to ANT 4. 
[2014-Mar-06 18:23:16] : [MSN 2] gets relayed to REL 3. 
)[2014-Mar-06 18:23:16] : ANT 4 receives [MSN 1] from ANT 4. 
)[2014-Mar-06 18:23:16] : REL 3 has LOS to [ANT 4, ANT 5, REL 2, REL 4, COL 9, COL 10, COL 11]
[2014-Mar-06 18:23:16] : REL 3 has no LOS to target COL 2.. REL 3 forwards [MSN 2] to ANT 4. 
[2014-Mar-06 18:23:16] : ANT 4 has LOS to [REL 3, COL 5, COL 6]
[2014-Mar-06 18:23:16] : ANT 4 has no LOS to target COL 1.. ANT 4 forwards [MSN 1] to REL 3. 
[2014-Mar-06 18:23:18] : [MSN 1] gets relayed to REL 3. 
)[2014-Mar-06 18:23:18] : ANT 4 receives [MSN 2] from ANT 4. 
)[2014-Mar-06 18:23:18] : REL 3 has LOS to [ANT 4, ANT 5, REL 2, REL 4, COL 9, COL 10, COL 11]
[2014-Mar-06 18:23:18] : REL 3 has no LOS to target COL 1.. REL 3 forwards [MSN 1] to ANT 4. 
[2014-Mar-06 18:23:18] : ANT 4 has LOS to [REL 3, COL 5, COL 6]
[2014-Mar-06 18:23:18] : ANT 4 has no LOS to target COL 2.. ANT 4 forwards [MSN 2] to REL 3. 
[2014-Mar-06 18:23:18] : New Mission arrived.. MSN 3 [Target: COL 1, Duration: 8000] has been created. 
[2014-Mar-06 18:23:18] : MPL sends [MSN 3] to COM 3.
[2014-Mar-06 18:23:19] : [MSN 2] gets relayed to REL 3. 
)[2014-Mar-06 18:23:19] : ANT 4 receives [MSN 1] from ANT 4. 
)[2014-Mar-06 18:23:19] : REL 3 has LOS to [ANT 4, ANT 5, REL 2, REL 4, COL 9, COL 10, COL 11]
[2014-Mar-06 18:23:19] : REL 3 has no LOS to target COL 2.. REL 3 forwards [MSN 2] to ANT 4. 
[2014-Mar-06 18:23:19] : ANT 4 has LOS to [REL 3, COL 5, COL 6]
[2014-Mar-06 18:23:19] : ANT 4 has no LOS to target COL 1.. ANT 4 forwards [MSN 1] to REL 3. 
[2014-Mar-06 18:23:19] : COM 3 receives [MSN 3] from MPL. 
)[2014-Mar-06 18:23:19] : COM 3 forwards [MSN 3] to ANT 2. 
[2014-Mar-06 18:23:20] : [MSN 1] gets relayed to REL 3. 
)[2014-Mar-06 18:23:20] : ANT 4 receives [MSN 2] from ANT 4. 
)[2014-Mar-06 18:23:20] : REL 3 has LOS to [ANT 4, ANT 5, REL 2, REL 4, COL 9, COL 10, COL 11]
[2014-Mar-06 18:23:20] : REL 3 has no LOS to target COL 1.. REL 3 forwards [MSN 1] to ANT 4. 
[2014-Mar-06 18:23:20] : ANT 4 has LOS to [REL 3, COL 5, COL 6]
[2014-Mar-06 18:23:20] : ANT 4 has no LOS to target COL 2.. ANT 4 forwards [MSN 2] to REL 3. 
[2014-Mar-06 18:23:20] : ANT 2 receives [MSN 3] from COM 3. 
)[2014-Mar-06 18:23:20] : ANT 2 has LOS to [REL 2, COL 1, COL 2]
[2014-Mar-06 18:23:20] : ANT 2 has LOS to target COL 1.. ANT 2 forwards [MSN 3] to COL 1. 
[2014-Mar-06 18:23:21] : [MSN 2] gets relayed to REL 3. 
)[2014-Mar-06 18:23:21] : ANT 4 receives [MSN 1] from ANT 4. 
)[2014-Mar-06 18:23:21] : REL 3 has LOS to [ANT 4, ANT 5, REL 2, REL 4, COL 9, COL 10, COL 11]
[2014-Mar-06 18:23:21] : REL 3 has no LOS to target COL 2.. REL 3 forwards [MSN 2] to ANT 4. 
[2014-Mar-06 18:23:21] : ANT 4 has LOS to [REL 3, COL 5, COL 6]
[2014-Mar-06 18:23:21] : ANT 4 has no LOS to target COL 1.. ANT 4 forwards [MSN 1] to REL 3. 
[2014-Mar-06 18:23:21] : New Mission arrived.. MSN 4 [Target: COL 2, Duration: 10200] has been created. 
[2014-Mar-06 18:23:21] : MPL sends [MSN 4] to COM 1.
[2014-Mar-06 18:23:21] : COL 1 receives [MSN 3]. 
)[2014-Mar-06 18:23:22] : [MSN 1] gets relayed to REL 3. 
)[2014-Mar-06 18:23:22] : ANT 4 receives [MSN 2] from ANT 4. 
)[2014-Mar-06 18:23:22] : REL 3 has LOS to [ANT 4, ANT 5, REL 2, REL 4, COL 9, COL 10, COL 11]
[2014-Mar-06 18:23:22] : REL 3 has no LOS to target COL 1.. REL 3 forwards [MSN 1] to ANT 4. 
[2014-Mar-06 18:23:22] : ANT 4 has LOS to [REL 3, COL 5, COL 6]
[2014-Mar-06 18:23:22] : ANT 4 has no LOS to target COL 2.. ANT 4 forwards [MSN 2] to REL 3. 
[2014-Mar-06 18:23:22] : COM 1 receives [MSN 4] from MPL. 
)[2014-Mar-06 18:23:22] : COM 1 forwards [MSN 4] to ANT 4. 
[2014-Mar-06 18:23:22] : SGN 3 [Target: ANT 2] has been created. 
[2014-Mar-06 18:23:22] : COL 1 has LOS to [ANT 2, REL 4]
[2014-Mar-06 18:23:22] : COL 1 has LOS to target ANT 2.. COL 1 forwards [SGN 3] to ANT 2. 
[2014-Mar-06 18:23:23] : [MSN 2] gets relayed to REL 3. 
)[2014-Mar-06 18:23:23] : ANT 4 receives [MSN 1] from ANT 4. 
)[2014-Mar-06 18:23:23] : REL 3 has LOS to [ANT 4, ANT 5, REL 2, REL 4, COL 9, COL 10, COL 11]
[2014-Mar-06 18:23:23] : REL 3 has no LOS to target COL 2.. REL 3 forwards [MSN 2] to ANT 4. 
[2014-Mar-06 18:23:23] : ANT 4 has LOS to [REL 3, COL 5, COL 6]
[2014-Mar-06 18:23:23] : ANT 4 has no LOS to target COL 1.. ANT 4 forwards [MSN 1] to REL 3. 
[2014-Mar-06 18:23:23] : COL 1 has LOS to [[2014-Mar-06 18:23:23] : ANT 2 receives [SGN 3]. 
)ANT 2, REL 4]
[2014-Mar-06 18:23:23] : COL 1 has LOS to target ANT 2.. COL 1 forwards [SGN 3] to ANT 2. 
[2014-Mar-06 18:23:24] : [MSN 1] gets relayed to REL 3. 
)[2014-Mar-06 18:23:24] : ANT 4 receives [MSN 4] from COM 1. 
)[2014-Mar-06 18:23:24] : REL 3 has LOS to [ANT 4, ANT 5, REL 2, REL 4, COL 9, COL 10, COL 11]
[2014-Mar-06 18:23:24] : REL 3 has no LOS to target COL 1.. REL 3 forwards [MSN 1] to ANT 4. 
[2014-Mar-06 18:23:24] : ANT 4 has LOS to [REL 3, COL 5, COL 6]
[2014-Mar-06 18:23:24] : ANT 4 has no LOS to target COL 2.. ANT 4 forwards [MSN 4] to REL 3. 
[2014-Mar-06 18:23:24] : COL 1 has LOS to [[2014-Mar-06 18:23:24] : ANT 2 receives [SGN 3]. 
)ANT 2, REL 4]
[2014-Mar-06 18:23:24] : COL 1 has LOS to target ANT 2.. COL 1 forwards [SGN 3] to ANT 2. 
[2014-Mar-06 18:23:25] : ANT 4 receives [MSN 2] from ANT 4. 
)[2014-Mar-06 18:23:25] : [MSN 4] gets relayed to REL 3. 
)[2014-Mar-06 18:23:25] : ANT 4 has LOS to [REL 3, COL 5, COL 6]
[2014-Mar-06 18:23:25] : ANT 4 has no LOS to target COL 2.. ANT 4 forwards [MSN 2] to REL 3. 
[2014-Mar-06 18:23:25] : REL 3 has LOS to [ANT 4, ANT 5, REL 2, REL 4, COL 9, COL 10, COL 11]
[2014-Mar-06 18:23:25] : REL 3 has no LOS to target COL 2.. REL 3 forwards [MSN 4] to ANT 4. 
[2014-Mar-06 18:23:25] : COL 1 has LOS to [[2014-Mar-06 18:23:25] : ANT 2 receives [SGN 3]. 
)ANT 3, REL 3]
[2014-Mar-06 18:23:25] : COL 1 has no LOS to target ANT 2.. COL 1 forwards [SGN 3] to ANT 1. 
[2014-Mar-06 18:23:26] : New Mission arrived.. MSN 5 [Target: COL 1, Duration: 9300] has been created. 
[2014-Mar-06 18:23:26] : MPL sends [MSN 5] to COM 2.
[2014-Mar-06 18:23:26] : New Mission arrived.. MSN 5 [Target: COL 1, Duration: 9300] has been created. 
[2014-Mar-06 18:23:26] : MPL sends [MSN 5] to COM 3.

[2014-Mar-06 18:23:26] : MPL is done loading missions. 

[2014-Mar-06 18:23:26] : COM 1 is done forwarding missions. 

[2014-Mar-06 18:23:26] : ANT 4 receives [MSN 1] from ANT 4. 
)[2014-Mar-06 18:23:26] : ANT 4 has LOS to [REL 3, COL 3, COL 4]
[2014-Mar-06 18:23:26] : ANT 4 has no LOS to target COL 1.. ANT 4 forwards [MSN 1] to REL 3. 
[2014-Mar-06 18:23:26] : [MSN 2] gets relayed to REL 3. 
)[2014-Mar-06 18:23:26] : REL 3 has LOS to [ANT 4, ANT 5, REL 2, REL 4, COL 1, COL 11, COL 12]
[2014-Mar-06 18:23:26] : REL 3 has no LOS to target COL 2.. REL 3 forwards [MSN 2] to ANT 4. 
[2014-Mar-06 18:23:26] : ANT 1 receives [SGN 3]. 
)[2014-Mar-06 18:23:26] : COL 1 has LOS to [ANT 3, REL 3]
[2014-Mar-06 18:23:26] : COL 1 has no LOS to target ANT 2.. COL 1 forwards [SGN 3] to ANT 1. 
[2014-Mar-06 18:23:27] : COM 2 receives [MSN 5] from MPL. 
)[2014-Mar-06 18:23:27] : COM 2 forwards [MSN 5] to ANT 5. 
[2014-Mar-06 18:23:27] : COM 3 receives [MSN 5] from MPL. 
)[2014-Mar-06 18:23:27] : COM 2 is done forwarding missions. 

[2014-Mar-06 18:23:27] : COM 3 forwards [MSN 5] to ANT 5. 
[2014-Mar-06 18:23:27] : COM 3 is done forwarding missions. 

[2014-Mar-06 18:23:27] : ANT 4 receives [MSN 4] from ANT 4. 
)[2014-Mar-06 18:23:27] : ANT 4 has LOS to [REL 3, COL 3, COL 4]
[2014-Mar-06 18:23:27] : ANT 4 has no LOS to target COL 2.. ANT 4 forwards [MSN 4] to REL 3. 
[2014-Mar-06 18:23:27] : [MSN 1] gets relayed to REL 3. 
)[2014-Mar-06 18:23:27] : REL 3 has LOS to [ANT 4, ANT 5, REL 2, REL 4, COL 1, COL 11, COL 12]
[2014-Mar-06 18:23:27] : REL 3 has LOS to target COL 1.. REL 3 forwards [MSN 1] to COL 1. 
[2014-Mar-06 18:23:27] : COL 1 has LOS to [[2014-Mar-06 18:23:27] : ANT 1 receives [SGN 3]. 
)ANT 3, REL 3]
[2014-Mar-06 18:23:27] : COL 1 has no LOS to target ANT 2.. COL 1 forwards [SGN 3] to ANT 1. 
[2014-Mar-06 18:23:28] : ANT 5 receives [MSN 5] from COM 2. 
)[2014-Mar-06 18:23:28] : ANT 5 has LOS to [REL 3, COL 5, COL 6]
[2014-Mar-06 18:23:28] : ANT 5 has no LOS to target COL 1.. ANT 5 forwards [MSN 5] to REL 3. 
[2014-Mar-06 18:23:28] : ANT 4 receives [MSN 2] from ANT 4. 
)[2014-Mar-06 18:23:28] : ANT 4 has LOS to [REL 3, COL 3, COL 4]
[2014-Mar-06 18:23:28] : ANT 4 has no LOS to target COL 2.. ANT 4 forwards [MSN 2] to REL 3. 
[2014-Mar-06 18:23:28] : [MSN 4] gets relayed to REL 3. 
)[2014-Mar-06 18:23:28] : REL 3 has LOS to [ANT 4, ANT 5, REL 2, REL 4, COL 1, COL 11, COL 12]
[2014-Mar-06 18:23:28] : REL 3 has no LOS to target COL 2.. REL 3 forwards [MSN 4] to ANT 4. 
[2014-Mar-06 18:23:28] : COL 1 has LOS to [[2014-Mar-06 18:23:28] : ANT 1 receives [SGN 3]. 
)ANT 3, REL 3]
[2014-Mar-06 18:23:28] : COL 1 has no LOS to target ANT 2.. COL 1 forwards [SGN 3] to ANT 1. 
[2014-Mar-06 18:23:29] : ANT 5 receives [MSN 5] from COM 3. 
)[2014-Mar-06 18:23:29] : ANT 5 has LOS to [REL 3, COL 5, COL 6]
[2014-Mar-06 18:23:29] : ANT 5 has no LOS to target COL 1.. ANT 5 forwards [MSN 5] to REL 3. 
[2014-Mar-06 18:23:29] : [MSN 5] gets relayed to REL 3. 
)[2014-Mar-06 18:23:29] : ANT 4 receives [MSN 4] from ANT 4. 
)[2014-Mar-06 18:23:29] : REL 3 has LOS to [ANT 4, ANT 5, REL 2, REL 4, COL 1, COL 11, COL 12]
[2014-Mar-06 18:23:29] : REL 3 has LOS to target COL 1.. REL 3 forwards [MSN 5] to COL 1. 
[2014-Mar-06 18:23:29] : ANT 4 has LOS to [REL 3, COL 3, COL 4]
[2014-Mar-06 18:23:29] : ANT 4 has no LOS to target COL 2.. ANT 4 forwards [MSN 4] to REL 3. 
[2014-Mar-06 18:23:29] : COL 1 has LOS to [[2014-Mar-06 18:23:29] : ANT 1 receives [SGN 3]. 
)ANT 3, REL 3]
[2014-Mar-06 18:23:29] : COL 1 has no LOS to target ANT 2.. COL 1 forwards [SGN 3] to ANT 1. 
[2014-Mar-06 18:23:30] : [MSN 2] gets relayed to REL 3. 
)[2014-Mar-06 18:23:30] : REL 3 has LOS to [ANT 4, ANT 5, REL 2, REL 4, COL 1, COL 11, COL 12]
[2014-Mar-06 18:23:30] : REL 3 has no LOS to target COL 2.. REL 3 forwards [MSN 2] to ANT 4. 
[2014-Mar-06 18:23:30] : ANT 1 receives [SGN 3]. 
)[2014-Mar-06 18:23:31] : [MSN 5] gets relayed to REL 3. 
)[2014-Mar-06 18:23:31] : ANT 4 receives [MSN 2] from ANT 4. 
)[2014-Mar-06 18:23:31] : REL 3 has LOS to [ANT 4, ANT 5, REL 2, REL 4, COL 1, COL 11, COL 12]
[2014-Mar-06 18:23:31] : REL 3 has LOS to target COL 1.. REL 3 forwards [MSN 5] to COL 1. 
[2014-Mar-06 18:23:31] : ANT 4 has LOS to [REL 3, COL 3, COL 4]
[2014-Mar-06 18:23:31] : ANT 4 has no LOS to target COL 2.. ANT 4 forwards [MSN 2] to REL 3. 
[2014-Mar-06 18:23:31] : COL 1 receives [MSN 1]. 
)[2014-Mar-06 18:23:32] : [MSN 4] gets relayed to REL 3. 
)[2014-Mar-06 18:23:32] : REL 3 has LOS to [ANT 4, ANT 5, REL 2, REL 4, COL 1, COL 11, COL 12]
[2014-Mar-06 18:23:32] : REL 3 has no LOS to target COL 2.. REL 3 forwards [MSN 4] to ANT 4. 
[2014-Mar-06 18:23:32] : SGN 1 [Target: ANT 4] has been created. 
[2014-Mar-06 18:23:33] : [MSN 2] gets relayed to REL 3. 
)[2014-Mar-06 18:23:33] : ANT 4 receives [MSN 4] from ANT 4. 
)[2014-Mar-06 18:23:33] : REL 3 has LOS to [ANT 4, ANT 5, REL 2, REL 4, COL 1, COL 11, COL 12]
[2014-Mar-06 18:23:33] : REL 3 has no LOS to target COL 2.. REL 3 forwards [MSN 2] to ANT 4. 
[2014-Mar-06 18:23:33] : ANT 4 has LOS to [REL 3, COL 3, COL 4]
[2014-Mar-06 18:23:33] : ANT 4 has no LOS to target COL 2.. ANT 4 forwards [MSN 4] to REL 3. 
[2014-Mar-06 18:23:33] : COL 1 receives [MSN 5]. 
)[2014-Mar-06 18:23:34] : [MSN 4] gets relayed to REL 3. 
)[2014-Mar-06 18:23:34] : ANT 4 receives [MSN 2] from ANT 4. 
)[2014-Mar-06 18:23:34] : REL 3 has LOS to [ANT 4, ANT 5, REL 2, REL 4, COL 1, COL 11, COL 12]
[2014-Mar-06 18:23:34] : REL 3 has no LOS to target COL 2.. REL 3 forwards [MSN 4] to ANT 4. 
[2014-Mar-06 18:23:34] : SGN 5 [Target: ANT 5] has been created. 
[2014-Mar-06 18:23:34] : ANT 4 has LOS to [REL 3, COL 3, COL 4]
[2014-Mar-06 18:23:34] : ANT 4 has no LOS to target COL 2.. ANT 4 forwards [MSN 2] to REL 3. 
[2014-Mar-06 18:23:34] : COL 1 has LOS to [ANT 3, REL 3]
[2014-Mar-06 18:23:34] : COL 1 has no LOS to target ANT 4.. COL 1 forwards [SGN 1] to ANT 1. 
[2014-Mar-06 18:23:35] : [MSN 2] gets relayed to REL 3. 
)[2014-Mar-06 18:23:35] : ANT 4 receives [MSN 4] from ANT 4. 
)[2014-Mar-06 18:23:35] : REL 3 has LOS to [ANT 4, ANT 5, REL 2, REL 4, COL 1, COL 2, COL 3]
[2014-Mar-06 18:23:35] : REL 3 has LOS to target COL 2.. REL 3 forwards [MSN 2] to COL 2. 
[2014-Mar-06 18:23:35] : COL 1 has LOS to [ANT 4, REL 3]
[2014-Mar-06 18:23:35] : COL 1 has LOS to target ANT 4.. COL 1 forwards [SGN 1] to ANT 4. 
[2014-Mar-06 18:23:35] : ANT 4 has LOS to [REL 3, COL 1, COL 2]
[2014-Mar-06 18:23:35] : ANT 4 has LOS to target COL 2.. ANT 4 forwards [MSN 4] to COL 2. 
[2014-Mar-06 18:23:35] : ANT 1 receives [SGN 1]. 
)[2014-Mar-06 18:23:36] : COL 2 receives [MSN 2]. 
)[2014-Mar-06 18:23:36] : ANT 4 receives [SGN 1]. 
)[2014-Mar-06 18:23:37] : SGN 2 [Target: ANT 4] has been created. 
[2014-Mar-06 18:23:37] : COL 2 has LOS to [ANT 4, REL 3]
[2014-Mar-06 18:23:37] : COL 2 has LOS to target ANT 4.. COL 2 forwards [SGN 2] to ANT 4. 
[2014-Mar-06 18:23:37] : COL 1 has LOS to [ANT 4, REL 3]
[2014-Mar-06 18:23:37] : COL 1 has LOS to target ANT 4.. COL 1 forwards [SGN 1] to ANT 4. 
[2014-Mar-06 18:23:38] : COL 2 has LOS to [[2014-Mar-06 18:23:38] : ANT 4 receives [SGN 2]. 
)ANT 4, REL 3]
[2014-Mar-06 18:23:38] : COL 2 has LOS to target ANT 4.. [2014-Mar-06 18:23:38] : ANT 4 receives [SGN 1]. 
)COL 2 forwards [SGN 2] to ANT 4. 
[2014-Mar-06 18:23:38] : COL 1 has LOS to [ANT 4, REL 3]
[2014-Mar-06 18:23:38] : COL 1 has LOS to target ANT 4.. COL 1 forwards [SGN 1] to ANT 4. 
[2014-Mar-06 18:23:39] : ANT 4 receives [SGN 2]. 
)[2014-Mar-06 18:23:39] : COL 2 has LOS to [ANT 4, REL 3]
[2014-Mar-06 18:23:39] : COL 2 has LOS to target ANT 4.. [2014-Mar-06 18:23:39] : ANT 4 receives [SGN 1]. 
)COL 2 forwards [SGN 2] to ANT 4. 
[2014-Mar-06 18:23:39] : COL 1 has LOS to [ANT 4, REL 3]
[2014-Mar-06 18:23:39] : COL 1 has LOS to target ANT 4.. COL 1 forwards [SGN 1] to ANT 4. 
[2014-Mar-06 18:23:40] : COL 2 has LOS to [[2014-Mar-06 18:23:40] : ANT 4 receives [SGN 2]. 
)ANT 4, REL 3]
[2014-Mar-06 18:23:41] : COL 2 has LOS to target ANT 4.. COL 2 forwards [SGN 2] to ANT 4. 
[2014-Mar-06 18:23:41] : ANT 4 receives [SGN 1]. 
)[2014-Mar-06 18:23:41] : COL 1 has LOS to [ANT 4, REL 3]
[2014-Mar-06 18:23:41] : COL 1 has LOS to target ANT 4.. COL 1 forwards [SGN 1] to ANT 4. 
[2014-Mar-06 18:23:42] : COL 2 has LOS to [[2014-Mar-06 18:23:42] : ANT 4 receives [SGN 2]. 
)ANT 4, REL 3]
[2014-Mar-06 18:23:42] : COL 2 has LOS to target ANT 4.. COL 2 forwards [SGN 2] to ANT 4. 
[2014-Mar-06 18:23:42] : COL 1 has LOS to [[2014-Mar-06 18:23:42] : ANT 4 receives [SGN 1]. 
)ANT 4, REL 3]
[2014-Mar-06 18:23:42] : COL 1 has LOS to target ANT 4.. COL 1 forwards [SGN 1] to ANT 4. 
[2014-Mar-06 18:23:43] : COL 2 has LOS to [[2014-Mar-06 18:23:43] : ANT 4 receives [SGN 2]. 
)ANT 4, REL 3]
[2014-Mar-06 18:23:43] : COL 2 has LOS to target ANT 4.. COL 2 forwards [SGN 2] to ANT 4. 
[2014-Mar-06 18:23:43] : COL 1 has LOS to [[2014-Mar-06 18:23:43] : ANT 4 receives [SGN 1]. 
)ANT 4, REL 3]
[2014-Mar-06 18:23:43] : COL 1 has LOS to target ANT 4.. COL 1 forwards [SGN 1] to ANT 4. 
[2014-Mar-06 18:23:44] : ANT 4 receives [SGN 2]. 
)[2014-Mar-06 18:23:44] : COL 2 has LOS to [ANT 4, REL 3]
[2014-Mar-06 18:23:44] : COL 2 has LOS to target ANT 4.. COL 2 forwards [SGN 2] to ANT 4. 
[2014-Mar-06 18:23:44] : COL 1 has LOS to [[2014-Mar-06 18:23:44] : ANT 4 receives [SGN 1]. 
)ANT 4, REL 3]
[2014-Mar-06 18:23:44] : COL 1 has LOS to target ANT 4.. COL 1 forwards [SGN 1] to ANT 4. 
[2014-Mar-06 18:23:45] : COL 2 has LOS to [[2014-Mar-06 18:23:45] : ANT 4 receives [SGN 2]. 
)ANT 4, REL 3]
[2014-Mar-06 18:23:45] : COL 2 has LOS to target ANT 4.. COL 2 forwards [SGN 2] to ANT 4. 
[2014-Mar-06 18:23:45] : COL 1 has LOS to [[2014-Mar-06 18:23:45] : ANT 4 receives [SGN 1]. 
)ANT 4, REL 3]
[2014-Mar-06 18:23:45] : COL 1 has LOS to target ANT 4.. COL 1 forwards [SGN 1] to ANT 4. 
[2014-Mar-06 18:23:46] : COL 2 has LOS to [[2014-Mar-06 18:23:46] : ANT 4 receives [SGN 2]. 
)ANT 5, REL 2]
[2014-Mar-06 18:23:46] : COL 2 has no LOS to target ANT 4.. COL 2 forwards [SGN 2] to ANT 1. 
[2014-Mar-06 18:23:46] : COL 1 has LOS to [[2014-Mar-06 18:23:46] : ANT 4 receives [SGN 1]. 
)ANT 5, REL 2]
[2014-Mar-06 18:23:46] : COL 1 has no LOS to target ANT 4.. COL 1 forwards [SGN 1] to ANT 1. 
[2014-Mar-06 18:23:47] : COL 2 has LOS to [[2014-Mar-06 18:23:47] : ANT 1 receives [SGN 2]. 
)ANT 5, REL 2]
[2014-Mar-06 18:23:47] : COL 2 has no LOS to target ANT 4.. COL 2 forwards [SGN 2] to ANT 1. 
[2014-Mar-06 18:23:47] : COL 1 has LOS to [[2014-Mar-06 18:23:47] : ANT 1 receives [SGN 1]. 
)ANT 5, REL 2]
[2014-Mar-06 18:23:47] : COL 1 has no LOS to target ANT 4.. COL 1 forwards [SGN 1] to ANT 1. 
[2014-Mar-06 18:23:48] : COL 2 has LOS to [[2014-Mar-06 18:23:48] : ANT 1 receives [SGN 2]. 
)ANT 5, REL 2]
[2014-Mar-06 18:23:48] : COL 2 has no LOS to target ANT 4.. COL 2 forwards [SGN 2] to ANT 1. 
[2014-Mar-06 18:23:48] : COL 1 has LOS to [ANT 5, REL 2]
[2014-Mar-06 18:23:48] : ANT 1 receives [SGN 1]. 
)[2014-Mar-06 18:23:48] : COL 1 has LOS to target ANT 5.. COL 1 forwards [SGN 5] to ANT 5. 
[2014-Mar-06 18:23:49] : ANT 1 receives [SGN 2]. 
)[2014-Mar-06 18:23:49] : COL 2 has LOS to [ANT 5, REL 2]
[2014-Mar-06 18:23:49] : COL 2 has no LOS to target ANT 4.. COL 2 forwards [SGN 2] to ANT 1. 
[2014-Mar-06 18:23:49] : COL 1 has LOS to [ANT 5, [2014-Mar-06 18:23:49] : ANT 5 receives [SGN 5]. 
)REL 2]
[2014-Mar-06 18:23:49] : COL 1 has LOS to target ANT 5.. COL 1 forwards [SGN 5] to ANT 5. 
[2014-Mar-06 18:23:50] : COL 2 has LOS to [[2014-Mar-06 18:23:50] : ANT 1 receives [SGN 2]. 
)ANT 5, REL 2]
[2014-Mar-06 18:23:50] : COL 2 has no LOS to target ANT 4.. COL 2 forwards [SGN 2] to ANT 1. 
[2014-Mar-06 18:23:50] : COL 1 has LOS to [[2014-Mar-06 18:23:50] : ANT 5 receives [SGN 5]. 
)ANT 5, REL 2]
[2014-Mar-06 18:23:50] : COL 1 has LOS to target ANT 5.. COL 1 forwards [SGN 5] to ANT 5. 
[2014-Mar-06 18:23:51] : COL 2 has LOS to [[2014-Mar-06 18:23:51] : ANT 1 receives [SGN 2]. 
)ANT 5, REL 2]
[2014-Mar-06 18:23:51] : COL 2 has no LOS to target ANT 4.. COL 2 forwards [SGN 2] to ANT 1. 
[2014-Mar-06 18:23:51] : COL 1 has LOS to [ANT 5, [2014-Mar-06 18:23:51] : ANT 5 receives [SGN 5]. 
)REL 2]
[2014-Mar-06 18:23:51] : COL 1 has LOS to target ANT 5.. COL 1 forwards [SGN 5] to ANT 5. 
[2014-Mar-06 18:23:52] : COL 2 has LOS to [[2014-Mar-06 18:23:52] : ANT 1 receives [SGN 2]. 
)ANT 5, REL 2]
[2014-Mar-06 18:23:52] : COL 2 has no LOS to target ANT 4.. COL 2 forwards [SGN 2] to ANT 1. 
[2014-Mar-06 18:23:52] : COL 1 has LOS to [[2014-Mar-06 18:23:52] : ANT 5 receives [SGN 5]. 
)ANT 5, REL 2]
[2014-Mar-06 18:23:52] : COL 1 has LOS to target ANT 5.. COL 1 forwards [SGN 5] to ANT 5. 
[2014-Mar-06 18:23:53] : ANT 1 receives [SGN 2]. 
)[2014-Mar-06 18:23:53] : COL 1 has LOS to [[2014-Mar-06 18:23:53] : ANT 5 receives [SGN 5]. 
)ANT 5, REL 2]
[2014-Mar-06 18:23:53] : COL 1 has LOS to target ANT 5.. COL 1 forwards [SGN 5] to ANT 5. 
[2014-Mar-06 18:23:54] : COL 2 receives [MSN 4]. 
)[2014-Mar-06 18:23:54] : ANT 5 receives [SGN 5]. 
)[2014-Mar-06 18:23:55] : SGN 4 [Target: ANT 4] has been created. 
[2014-Mar-06 18:23:55] : COL 2 has LOS to [ANT 5, REL 2]
[2014-Mar-06 18:23:55] : COL 2 has no LOS to target ANT 4.. COL 2 forwards [SGN 4] to ANT 1. 
[2014-Mar-06 18:23:55] : COL 1 has LOS to [ANT 5, REL 2]
[2014-Mar-06 18:23:55] : COL 1 has LOS to target ANT 5.. COL 1 forwards [SGN 5] to ANT 5. 
[2014-Mar-06 18:23:56] : COL 2 has LOS to [[2014-Mar-06 18:23:56] : ANT 1 receives [SGN 4]. 
)ANT 6, REL 2]
[2014-Mar-06 18:23:56] : COL 2 has no LOS to target ANT 4.. [2014-Mar-06 18:23:56] : ANT 5 receives [SGN 5]. 
)COL 2 forwards [SGN 4] to ANT 1. 
[2014-Mar-06 18:23:56] : COL 1 has LOS to [ANT 6, REL 1]
[2014-Mar-06 18:23:56] : COL 1 has no LOS to target ANT 5.. COL 1 forwards [SGN 5] to ANT 1. 
[2014-Mar-06 18:23:57] : COL 2 has LOS to [[2014-Mar-06 18:23:57] : ANT 1 receives [SGN 4]. 
)ANT 6, REL 2]
[2014-Mar-06 18:23:57] : ANT 1 receives [SGN 5]. 
)[2014-Mar-06 18:23:57] : COL 2 has no LOS to target ANT 4.. COL 2 forwards [SGN 4] to ANT 1. 
[2014-Mar-06 18:23:57] : COL 1 has LOS to [ANT 6, REL 1]
[2014-Mar-06 18:23:57] : COL 1 has no LOS to target ANT 5.. COL 1 forwards [SGN 5] to ANT 1. 
[2014-Mar-06 18:23:58] : COL 2 has LOS to [ANT 6, REL 2]
[2014-Mar-06 18:23:58] : ANT 1 receives [SGN 4]. 
)[2014-Mar-06 18:23:58] : COL 2 has no LOS to target ANT 4.. [2014-Mar-06 18:23:58] : ANT 1 receives [SGN 5]. 
)COL 2 forwards [SGN 4] to ANT 1. 
[2014-Mar-06 18:23:58] : COL 1 has LOS to [ANT 6, REL 1]
[2014-Mar-06 18:23:58] : COL 1 has no LOS to target ANT 5.. COL 1 forwards [SGN 5] to ANT 1. 
[2014-Mar-06 18:23:59] : COL 2 has LOS to [[2014-Mar-06 18:23:59] : ANT 1 receives [SGN 4]. 
)ANT 6, REL 2]
[2014-Mar-06 18:23:59] : COL 2 has no LOS to target ANT 4.. [2014-Mar-06 18:23:59] : ANT 1 receives [SGN 5]. 
)COL 2 forwards [SGN 4] to ANT 1. 
[2014-Mar-06 18:24:00] : COL 1 receives [MSN 5]. 
)[2014-Mar-06 18:24:00] : ANT 1 receives [SGN 4]. 
)[2014-Mar-06 18:24:01] : SGN 5 [Target: ANT 5] has been created. 
[2014-Mar-06 18:24:01] : COL 1 has LOS to [ANT 6, REL 1]
[2014-Mar-06 18:24:01] : COL 1 has no LOS to target ANT 5.. COL 1 forwards [SGN 5] to ANT 1. 
[2014-Mar-06 18:24:01] : COL 2 has LOS to [ANT 6, REL 2]
[2014-Mar-06 18:24:01] : COL 2 has no LOS to target ANT 4.. COL 2 forwards [SGN 4] to ANT 1. 
[2014-Mar-06 18:24:02] : COL 1 has LOS to [[2014-Mar-06 18:24:02] : ANT 1 receives [SGN 5]. 
)ANT 6, REL 1]
[2014-Mar-06 18:24:02] : COL 1 has no LOS to target ANT 5.. [2014-Mar-06 18:24:02] : ANT 1 receives [SGN 4]. 
)COL 1 forwards [SGN 5] to ANT 1. 
[2014-Mar-06 18:24:02] : COL 2 has LOS to [ANT 6, REL 2]
[2014-Mar-06 18:24:02] : COL 2 has no LOS to target ANT 4.. COL 2 forwards [SGN 4] to ANT 1. 
[2014-Mar-06 18:24:03] : ANT 1 receives [SGN 5]. 
)[2014-Mar-06 18:24:03] : COL 1 has LOS to [ANT 6, REL 1]
[2014-Mar-06 18:24:03] : COL 1 has no LOS to target ANT 5.. [2014-Mar-06 18:24:03] : ANT 1 receives [SGN 4]. 
)COL 1 forwards [SGN 5] to ANT 1. 
[2014-Mar-06 18:24:03] : COL 2 has LOS to [ANT 6, REL 2]
[2014-Mar-06 18:24:03] : COL 2 has no LOS to target ANT 4.. COL 2 forwards [SGN 4] to ANT 1. 
[2014-Mar-06 18:24:04] : COL 1 has LOS to [[2014-Mar-06 18:24:04] : ANT 1 receives [SGN 5]. 
)ANT 6, REL 1]
[2014-Mar-06 18:24:04] : COL 1 has no LOS to target ANT 5.. [2014-Mar-06 18:24:04] : ANT 1 receives [SGN 4]. 
)COL 1 forwards [SGN 5] to ANT 1. 
[2014-Mar-06 18:24:04] : COL 2 has LOS to [ANT 6, REL 2]
[2014-Mar-06 18:24:04] : COL 2 has no LOS to target ANT 4.. COL 2 forwards [SGN 4] to ANT 1. 
[2014-Mar-06 18:24:05] : COL 1 has LOS to [[2014-Mar-06 18:24:05] : ANT 1 receives [SGN 5]. 
)ANT 1, REL 1]
[2014-Mar-06 18:24:05] : COL 1 has no LOS to target ANT 5.. [2014-Mar-06 18:24:05] : ANT 1 receives [SGN 4]. 
)COL 1 forwards [SGN 5] to ANT 1. 
[2014-Mar-06 18:24:05] : COL 2 has LOS to [ANT 1, REL 1]
[2014-Mar-06 18:24:05] : COL 2 has no LOS to target ANT 4.. COL 2 forwards [SGN 4] to ANT 1. 
[2014-Mar-06 18:24:06] : COL 1 has LOS to [ANT 1, [2014-Mar-06 18:24:06] : ANT 1 receives [SGN 5]. 
)REL 1]
[2014-Mar-06 18:24:06] : COL 1 has no LOS to target ANT 5.. [2014-Mar-06 18:24:06] : ANT 1 receives [SGN 4]. 
)COL 1 forwards [SGN 5] to ANT 1. 
[2014-Mar-06 18:24:06] : COL 2 has LOS to [ANT 1, REL 1]
[2014-Mar-06 18:24:06] : COL 2 has no LOS to target ANT 4.. COL 2 forwards [SGN 4] to ANT 1. 
[2014-Mar-06 18:24:07] : COL 1 has LOS to [[2014-Mar-06 18:24:07] : ANT 1 receives [SGN 5]. 
)ANT 1, REL 1]
[2014-Mar-06 18:24:07] : COL 1 has no LOS to target ANT 5.. COL 1 forwards [SGN 5] to ANT 1. 
[2014-Mar-06 18:24:07] : ANT 1 receives [SGN 4]. 
)[2014-Mar-06 18:24:08] : COL 1 has LOS to [[2014-Mar-06 18:24:08] : ANT 1 receives [SGN 5]. 
)ANT 1, REL 1]
[2014-Mar-06 18:24:08] : COL 1 has no LOS to target ANT 5.. COL 1 forwards [SGN 5] to ANT 1. 
[2014-Mar-06 18:24:09] : COL 1 has LOS to [[2014-Mar-06 18:24:09] : ANT 1 receives [SGN 5]. 
)ANT 1, REL 1]
[2014-Mar-06 18:24:09] : COL 1 has no LOS to target ANT 5.. COL 1 forwards [SGN 5] to ANT 1. 
[2014-Mar-06 18:24:10] : COL 1 has LOS to [[2014-Mar-06 18:24:10] : ANT 1 receives [SGN 5]. 
)ANT 1, REL 1]
[2014-Mar-06 18:24:10] : COL 1 has no LOS to target ANT 5.. COL 1 forwards [SGN 5] to ANT 1. 
[2014-Mar-06 18:24:11] : ANT 1 receives [SGN 5]. 
)