[2014-Mar-02 15:57:08] : Preparing Dynamic Window Table.. [2014-Mar-02 15:57:09] : DONE! 

[2014-Mar-02 15:57:09] : MPL has started.. 
[2014-Mar-02 15:57:09] : New Mission arrived.. MSN 1 [Target: COL 2, Duration: 4500] has been created. 
[2014-Mar-02 15:57:09] : MPL sends [MSN 1] to COM 1.
[2014-Mar-02 15:57:09] : New Mission arrived.. MSN 2 [Target: COL 3, Duration: 6700] has been created. 
[2014-Mar-02 15:57:09] : MPL sends [MSN 2] to COM 2.
[2014-Mar-02 15:57:12] : COM 1 has started.. 
[2014-Mar-02 15:57:12] : COM 2 has started.. 
[2014-Mar-02 15:57:12] : COM 3 has started.. 
[2014-Mar-02 15:57:12] : ANT 1 has started.. 
[2014-Mar-02 15:57:12] : ANT 2 has started.. 
[2014-Mar-02 15:57:12] : ANT 3 has started.. 
[2014-Mar-02 15:57:12] : ANT 4 has started.. 
[2014-Mar-02 15:57:12] : ANT 5 has started.. 
[2014-Mar-02 15:57:12] : ANT 6 has started.. 
[2014-Mar-02 15:57:12] : REL 1 has started.. 
[2014-Mar-02 15:57:12] : REL 2 has started.. 
[2014-Mar-02 15:57:12] : REL 3 has started.. 
[2014-Mar-02 15:57:12] : REL 4 has started.. 
[2014-Mar-02 15:57:12] : COL 1 has started.. 
[2014-Mar-02 15:57:12] : COL 2 has started.. 
[2014-Mar-02 15:57:12] : COL 3 has started.. 
[2014-Mar-02 15:57:12] : COL 4 has started.. 
[2014-Mar-02 15:57:12] : COL 5 has started.. 
[2014-Mar-02 15:57:12] : COL 6 has started.. 
[2014-Mar-02 15:57:12] : COL 7 has started.. 
[2014-Mar-02 15:57:12] : COL 8 has started.. 
[2014-Mar-02 15:57:12] : COL 9 has started.. 
[2014-Mar-02 15:57:12] : COL 10 has started.. 
[2014-Mar-02 15:57:12] : COL 11 has started.. 
[2014-Mar-02 15:57:12] : COL 12 has started.. 
[2014-Mar-02 15:57:13] : COM 1 receives [MSN 1] from MPL. 
)[2014-Mar-02 15:57:13] : COM 1 forwards [MSN 1] to ANT 6. 
[2014-Mar-02 15:57:13] : COM 2 receives [MSN 2] from MPL. 
)[2014-Mar-02 15:57:13] : COM 2 forwards [MSN 2] to ANT 6. 
[2014-Mar-02 15:57:13] : New Mission arrived.. MSN 3 [Target: COL 2, Duration: 4000] has been created. 
[2014-Mar-02 15:57:13] : MPL sends [MSN 3] to COM 3.
[2014-Mar-02 15:57:14] : ANT 6 receives [MSN 1] from COM 1. 
)[2014-Mar-02 15:57:14] : ANT 6 has LOS to [[2014-Mar-02 15:57:14] : REL 4, [2014-Mar-02 15:57:14] : COL 11, [2014-Mar-02 15:57:14] : COL 12[2014-Mar-02 15:57:14] : ]
[2014-Mar-02 15:57:14] : ANT 6 has no LOS to target COL 2.. [2014-Mar-02 15:57:14] : ANT 6 forwards [MSN 1] to REL 4. 
[2014-Mar-02 15:57:14] : COM 3 receives [MSN 3] from MPL. 
)[2014-Mar-02 15:57:14] : COM 3 forwards [MSN 3] to ANT 3. 
[2014-Mar-02 15:57:15] : [MSN 1] gets relayed to REL 4. 
)[2014-Mar-02 15:57:15] : ANT 6 receives [MSN 2] from COM 2. 
)[2014-Mar-02 15:57:15] : REL 4 has LOS to [[2014-Mar-02 15:57:15] : ANT 6, [2014-Mar-02 15:57:15] : REL 3, [2014-Mar-02 15:57:15] : REL 1, [2014-Mar-02 15:57:15] : COL 10, [2014-Mar-02 15:57:15] : COL 11, [2014-Mar-02 15:57:15] : COL 12[2014-Mar-02 15:57:15] : ]
[2014-Mar-02 15:57:15] : ANT 6 has LOS to [[2014-Mar-02 15:57:15] : REL 4, [2014-Mar-02 15:57:15] : COL 11, [2014-Mar-02 15:57:15] : COL 12[2014-Mar-02 15:57:15] : ]
[2014-Mar-02 15:57:15] : REL 4 has no LOS to target COL 2.. [2014-Mar-02 15:57:15] : REL 4 forwards [MSN 1] to REL 1. 
[2014-Mar-02 15:57:15] : ANT 6 has no LOS to target COL 3.. [2014-Mar-02 15:57:15] : ANT 6 forwards [MSN 2] to REL 4. 
[2014-Mar-02 15:57:15] : ANT 3 receives [MSN 3] from COM 3. 
)[2014-Mar-02 15:57:15] : ANT 3 has LOS to [[2014-Mar-02 15:57:15] : REL 2, [2014-Mar-02 15:57:15] : COL 5, [2014-Mar-02 15:57:15] : COL 6[2014-Mar-02 15:57:15] : ]
[2014-Mar-02 15:57:15] : ANT 3 has no LOS to target COL 2.. [2014-Mar-02 15:57:15] : ANT 3 forwards [MSN 3] to REL 2. 
[2014-Mar-02 15:57:15] : New Mission arrived.. MSN 4 [Target: COL 3, Duration: 5100] has been created. 
[2014-Mar-02 15:57:15] : MPL sends [MSN 4] to COM 1.
[2014-Mar-02 15:57:16] : [MSN 1] gets relayed to REL 1. 
)[2014-Mar-02 15:57:16] : REL 1 has LOS to [[2014-Mar-02 15:57:16] : ANT 1, [2014-Mar-02 15:57:16] : REL 2, [2014-Mar-02 15:57:16] : REL 4, [2014-Mar-02 15:57:16] : COL 1, [2014-Mar-02 15:57:16] : COL 2, [2014-Mar-02 15:57:16] : COL 3[2014-Mar-02 15:57:16] : ]
[2014-Mar-02 15:57:16] : REL 1 has LOS to target COL 2.. [2014-Mar-02 15:57:16] : REL 1 forwards [MSN 1] to COL 2. 
[2014-Mar-02 15:57:16] : [MSN 2] gets relayed to REL 4. 
)[2014-Mar-02 15:57:16] : REL 4 has LOS to [[2014-Mar-02 15:57:16] : ANT 6, [2014-Mar-02 15:57:16] : REL 3, [2014-Mar-02 15:57:16] : REL 1, [2014-Mar-02 15:57:16] : COL 10, [2014-Mar-02 15:57:16] : COL 11, [2014-Mar-02 15:57:16] : COL 12[2014-Mar-02 15:57:16] : ]
[2014-Mar-02 15:57:16] : REL 4 has no LOS to target COL 3.. [2014-Mar-02 15:57:16] : REL 4 forwards [MSN 2] to REL 1. 
[2014-Mar-02 15:57:16] : [MSN 3] gets relayed to REL 2. 
)[2014-Mar-02 15:57:16] : REL 2 has LOS to [[2014-Mar-02 15:57:16] : ANT 2, [2014-Mar-02 15:57:16] : ANT 3, [2014-Mar-02 15:57:16] : REL 1, [2014-Mar-02 15:57:16] : REL 3, [2014-Mar-02 15:57:16] : COL 4, [2014-Mar-02 15:57:16] : COL 5, [2014-Mar-02 15:57:16] : COL 6[2014-Mar-02 15:57:16] : ]
[2014-Mar-02 15:57:16] : REL 2 has no LOS to target COL 2.. [2014-Mar-02 15:57:16] : REL 2 forwards [MSN 3] to REL 3. 
[2014-Mar-02 15:57:16] : COM 1 receives [MSN 4] from MPL. 
)[2014-Mar-02 15:57:16] : COM 1 forwards [MSN 4] to ANT 2. 
[2014-Mar-02 15:57:17] : COL 2 receives [MSN 1]. 
)[2014-Mar-02 15:57:17] : [MSN 2] gets relayed to REL 1. 
)[2014-Mar-02 15:57:17] : REL 1 has LOS to [[2014-Mar-02 15:57:17] : ANT 1, [2014-Mar-02 15:57:17] : REL 2, [2014-Mar-02 15:57:17] : REL 4, [2014-Mar-02 15:57:17] : COL 1, [2014-Mar-02 15:57:17] : COL 2, [2014-Mar-02 15:57:17] : COL 3[2014-Mar-02 15:57:17] : ]
[2014-Mar-02 15:57:17] : REL 1 has LOS to target COL 3.. [2014-Mar-02 15:57:17] : REL 1 forwards [MSN 2] to COL 3. 
[2014-Mar-02 15:57:17] : New Mission arrived.. MSN 5 [Target: COL 2, Duration: 4900] has been created. 
[2014-Mar-02 15:57:17] : MPL sends [MSN 5] to COM 2.
[2014-Mar-02 15:57:17] : [MSN 3] gets relayed to REL 3. 
)[2014-Mar-02 15:57:17] : REL 3 has LOS to [[2014-Mar-02 15:57:17] : ANT 4, [2014-Mar-02 15:57:17] : ANT 5, [2014-Mar-02 15:57:17] : REL 2, [2014-Mar-02 15:57:17] : REL 4, [2014-Mar-02 15:57:17] : COL 7, [2014-Mar-02 15:57:17] : COL 8, [2014-Mar-02 15:57:17] : COL 9[2014-Mar-02 15:57:17] : ]
[2014-Mar-02 15:57:17] : REL 3 has no LOS to target COL 2.. [2014-Mar-02 15:57:17] : REL 3 forwards [MSN 3] to REL 4. 
[2014-Mar-02 15:57:17] : ANT 2 receives [MSN 4] from COM 1. 
)[2014-Mar-02 15:57:17] : ANT 2 has LOS to [[2014-Mar-02 15:57:17] : REL 2, [2014-Mar-02 15:57:17] : COL 3, [2014-Mar-02 15:57:17] : COL 4[2014-Mar-02 15:57:17] : ]
[2014-Mar-02 15:57:17] : ANT 2 has LOS to target COL 3.. [2014-Mar-02 15:57:17] : ANT 2 forwards [MSN 4] to COL 3. 
[2014-Mar-02 15:57:18] : COL 3 receives [MSN 2]. 
)[2014-Mar-02 15:57:18] : COM 2 receives [MSN 5] from MPL. 
)[2014-Mar-02 15:57:18] : COM 2 forwards [MSN 5] to ANT 1. 
[2014-Mar-02 15:57:18] : [MSN 3] gets relayed to REL 4. 
)[2014-Mar-02 15:57:18] : REL 4 has LOS to [[2014-Mar-02 15:57:18] : ANT 6, [2014-Mar-02 15:57:18] : REL 3, [2014-Mar-02 15:57:18] : REL 1, [2014-Mar-02 15:57:18] : COL 10, [2014-Mar-02 15:57:18] : COL 11, [2014-Mar-02 15:57:18] : COL 12[2014-Mar-02 15:57:18] : ]
[2014-Mar-02 15:57:18] : REL 4 has no LOS to target COL 2.. [2014-Mar-02 15:57:18] : REL 4 forwards [MSN 3] to REL 3. 
[2014-Mar-02 15:57:19] : COL 3 receives [MSN 4]. 
)[2014-Mar-02 15:57:19] : ANT 1 receives [MSN 5] from COM 2. 
)[2014-Mar-02 15:57:19] : ANT 1 has LOS to [[2014-Mar-02 15:57:19] : REL 1, [2014-Mar-02 15:57:19] : COL 1, [2014-Mar-02 15:57:19] : COL 2[2014-Mar-02 15:57:19] : ]
[2014-Mar-02 15:57:19] : ANT 1 has LOS to target COL 2.. [2014-Mar-02 15:57:19] : ANT 1 forwards [MSN 5] to COL 2. 
[2014-Mar-02 15:57:19] : [MSN 3] gets relayed to REL 3. 
)[2014-Mar-02 15:57:19] : REL 3 has LOS to [[2014-Mar-02 15:57:19] : ANT 4, [2014-Mar-02 15:57:19] : ANT 5, [2014-Mar-02 15:57:19] : REL 2, [2014-Mar-02 15:57:19] : REL 4, [2014-Mar-02 15:57:19] : COL 7, [2014-Mar-02 15:57:19] : COL 8, [2014-Mar-02 15:57:19] : COL 9[2014-Mar-02 15:57:19] : ]
[2014-Mar-02 15:57:19] : REL 3 has no LOS to target COL 2.. [2014-Mar-02 15:57:19] : REL 3 forwards [MSN 3] to REL 4. 
[2014-Mar-02 15:57:20] : COL 2 receives [MSN 5]. 
)[2014-Mar-02 15:57:20] : [MSN 3] gets relayed to REL 4. 
)[2014-Mar-02 15:57:20] : REL 4 has LOS to [[2014-Mar-02 15:57:20] : ANT 6, [2014-Mar-02 15:57:20] : REL 3, [2014-Mar-02 15:57:20] : REL 1, [2014-Mar-02 15:57:20] : COL 10, [2014-Mar-02 15:57:20] : COL 11, [2014-Mar-02 15:57:20] : COL 12[2014-Mar-02 15:57:20] : ]
[2014-Mar-02 15:57:20] : REL 4 has no LOS to target COL 2.. [2014-Mar-02 15:57:20] : REL 4 forwards [MSN 3] to REL 3. 
[2014-Mar-02 15:57:20] : New Mission arrived.. MSN 6 [Target: COL 3, Duration: 3300] has been created. 
[2014-Mar-02 15:57:20] : MPL sends [MSN 6] to COM 3.
[2014-Mar-02 15:57:21] : [MSN 3] gets relayed to REL 3. 
)[2014-Mar-02 15:57:21] : COM 3 receives [MSN 6] from MPL. 
)[2014-Mar-02 15:57:22] : REL 3 has LOS to [[2014-Mar-02 15:57:22] : COM 3 forwards [MSN 6] to ANT 4. 
[2014-Mar-02 15:57:22] : ANT 4, [2014-Mar-02 15:57:22] : ANT 5, [2014-Mar-02 15:57:22] : REL 2, [2014-Mar-02 15:57:22] : REL 4, [2014-Mar-02 15:57:22] : COL 7, [2014-Mar-02 15:57:22] : COL 8, [2014-Mar-02 15:57:22] : COL 9[2014-Mar-02 15:57:22] : ]
[2014-Mar-02 15:57:22] : REL 3 has no LOS to target COL 2.. [2014-Mar-02 15:57:22] : REL 3 forwards [MSN 3] to REL 2. 
[2014-Mar-02 15:57:22] : New Mission arrived.. MSN 7 [Target: COL 2, Duration: 4000] has been created. 
[2014-Mar-02 15:57:22] : MPL sends [MSN 7] to COM 1.
[2014-Mar-02 15:57:23] : ANT 4 receives [MSN 6] from COM 3. 
)[2014-Mar-02 15:57:23] : ANT 4 has LOS to [[2014-Mar-02 15:57:23] : REL 3, [2014-Mar-02 15:57:23] : COL 7, [2014-Mar-02 15:57:23] : COL 8[2014-Mar-02 15:57:23] : [MSN 3] gets relayed to REL 2. 
)[2014-Mar-02 15:57:23] : ]
[2014-Mar-02 15:57:23] : REL 2 has LOS to [[2014-Mar-02 15:57:23] : ANT 2, [2014-Mar-02 15:57:23] : ANT 3, [2014-Mar-02 15:57:23] : REL 1, [2014-Mar-02 15:57:23] : REL 3, [2014-Mar-02 15:57:23] : COL 4, [2014-Mar-02 15:57:23] : COL 5, [2014-Mar-02 15:57:23] : COL 6[2014-Mar-02 15:57:23] : ]
[2014-Mar-02 15:57:23] : REL 2 has no LOS to target COL 2.. [2014-Mar-02 15:57:23] : REL 2 forwards [MSN 3] to REL 3. 
[2014-Mar-02 15:57:23] : ANT 4 has no LOS to target COL 3.. [2014-Mar-02 15:57:23] : ANT 4 forwards [MSN 6] to REL 3. 
[2014-Mar-02 15:57:23] : COM 1 receives [MSN 7] from MPL. 
)[2014-Mar-02 15:57:23] : COM 1 forwards [MSN 7] to ANT 3. 
[2014-Mar-02 15:57:24] : [MSN 3] gets relayed to REL 3. 
)[2014-Mar-02 15:57:24] : REL 3 has LOS to [[2014-Mar-02 15:57:24] : ANT 4, [2014-Mar-02 15:57:24] : ANT 5, [2014-Mar-02 15:57:24] : REL 2, [2014-Mar-02 15:57:24] : REL 4, [2014-Mar-02 15:57:24] : COL 7, [2014-Mar-02 15:57:24] : COL 8, [2014-Mar-02 15:57:24] : COL 9[2014-Mar-02 15:57:24] : ]
[2014-Mar-02 15:57:24] : REL 3 has no LOS to target COL 2.. [2014-Mar-02 15:57:24] : REL 3 forwards [MSN 3] to REL 2. 
[2014-Mar-02 15:57:24] : New Mission arrived.. MSN 8 [Target: COL 3, Duration: 5000] has been created. 
[2014-Mar-02 15:57:24] : MPL sends [MSN 8] to COM 2.
[2014-Mar-02 15:57:24] : ANT 3 receives [MSN 7] from COM 1. 
)[2014-Mar-02 15:57:24] : ANT 3 has LOS to [[2014-Mar-02 15:57:24] : REL 2, [2014-Mar-02 15:57:24] : COL 5, [2014-Mar-02 15:57:24] : COL 6[2014-Mar-02 15:57:24] : ]
[2014-Mar-02 15:57:24] : ANT 3 has no LOS to target COL 2.. [2014-Mar-02 15:57:24] : ANT 3 forwards [MSN 7] to REL 2. 
[2014-Mar-02 15:57:25] : [MSN 6] gets relayed to REL 3. 
)[2014-Mar-02 15:57:25] : REL 3 has LOS to [[2014-Mar-02 15:57:25] : ANT 4, [2014-Mar-02 15:57:25] : ANT 5, [2014-Mar-02 15:57:25] : REL 2, [2014-Mar-02 15:57:25] : REL 4, [2014-Mar-02 15:57:25] : COL 7, [2014-Mar-02 15:57:25] : COL 8, [2014-Mar-02 15:57:25] : COL 9[2014-Mar-02 15:57:25] : ]
[2014-Mar-02 15:57:25] : REL 3 has no LOS to target COL 3.. [2014-Mar-02 15:57:25] : REL 3 forwards [MSN 6] to REL 4. 
[2014-Mar-02 15:57:25] : [MSN 3] gets relayed to REL 2. 
)[2014-Mar-02 15:57:25] : REL 2 has LOS to [[2014-Mar-02 15:57:25] : ANT 2, [2014-Mar-02 15:57:25] : ANT 3, [2014-Mar-02 15:57:25] : REL 1, [2014-Mar-02 15:57:25] : REL 3, [2014-Mar-02 15:57:25] : COL 4, [2014-Mar-02 15:57:25] : COL 5, [2014-Mar-02 15:57:25] : COL 6[2014-Mar-02 15:57:25] : ]
[2014-Mar-02 15:57:25] : REL 2 has no LOS to target COL 2.. [2014-Mar-02 15:57:25] : REL 2 forwards [MSN 3] to REL 1. 
[2014-Mar-02 15:57:25] : COM 2 receives [MSN 8] from MPL. 
)[2014-Mar-02 15:57:25] : COM 2 forwards [MSN 8] to ANT 3. 
[2014-Mar-02 15:57:26] : [MSN 6] gets relayed to REL 4. 
)[2014-Mar-02 15:57:26] : REL 4 has LOS to [[2014-Mar-02 15:57:26] : ANT 6, [2014-Mar-02 15:57:26] : REL 3, [2014-Mar-02 15:57:26] : REL 1, [2014-Mar-02 15:57:26] : COL 10, [2014-Mar-02 15:57:26] : COL 11, [2014-Mar-02 15:57:26] : COL 12[2014-Mar-02 15:57:26] : ANT 3 receives [MSN 8] from COM 2. 
)[2014-Mar-02 15:57:26] : ]
[2014-Mar-02 15:57:26] : ANT 3 has LOS to [[2014-Mar-02 15:57:26] : REL 2, [2014-Mar-02 15:57:26] : COL 5, [2014-Mar-02 15:57:26] : COL 6[2014-Mar-02 15:57:26] : ]
[2014-Mar-02 15:57:26] : REL 4 has no LOS to target COL 3.. [2014-Mar-02 15:57:26] : REL 4 forwards [MSN 6] to REL 1. 
[2014-Mar-02 15:57:26] : ANT 3 has no LOS to target COL 3.. [2014-Mar-02 15:57:26] : [MSN 7] gets relayed to REL 2. 
)[2014-Mar-02 15:57:26] : ANT 3 forwards [MSN 8] to REL 2. 
[2014-Mar-02 15:57:26] : REL 2 has LOS to [[2014-Mar-02 15:57:26] : ANT 2, [2014-Mar-02 15:57:26] : ANT 3, [2014-Mar-02 15:57:26] : REL 1, [2014-Mar-02 15:57:26] : REL 3, [2014-Mar-02 15:57:26] : COL 4, [2014-Mar-02 15:57:26] : COL 5, [2014-Mar-02 15:57:26] : COL 6[2014-Mar-02 15:57:26] : ]
[2014-Mar-02 15:57:26] : REL 2 has no LOS to target COL 2.. [2014-Mar-02 15:57:26] : REL 2 forwards [MSN 7] to REL 1. 
[2014-Mar-02 15:57:26] : [MSN 3] gets relayed to REL 1. 
)[2014-Mar-02 15:57:26] : REL 1 has LOS to [[2014-Mar-02 15:57:26] : ANT 1, [2014-Mar-02 15:57:26] : REL 2, [2014-Mar-02 15:57:26] : REL 4, [2014-Mar-02 15:57:26] : COL 1, [2014-Mar-02 15:57:26] : COL 2, [2014-Mar-02 15:57:26] : COL 3[2014-Mar-02 15:57:26] : ]
[2014-Mar-02 15:57:26] : REL 1 has LOS to target COL 2.. [2014-Mar-02 15:57:26] : REL 1 forwards [MSN 3] to COL 2. 
[2014-Mar-02 15:57:26] : New Mission arrived.. MSN 9 [Target: COL 2, Duration: 4300] has been created. 
[2014-Mar-02 15:57:26] : MPL sends [MSN 9] to COM 3.
[2014-Mar-02 15:57:27] : [MSN 8] gets relayed to REL 2. 
)[2014-Mar-02 15:57:27] : REL 2 has LOS to [[2014-Mar-02 15:57:27] : ANT 2, [2014-Mar-02 15:57:27] : ANT 3, [2014-Mar-02 15:57:27] : COL 2 receives [MSN 3]. 
)[2014-Mar-02 15:57:27] : REL 1, [2014-Mar-02 15:57:27] : REL 3, [2014-Mar-02 15:57:27] : COL 4, [2014-Mar-02 15:57:27] : COL 5, [2014-Mar-02 15:57:27] : COL 6[2014-Mar-02 15:57:27] : ]
[2014-Mar-02 15:57:27] : REL 2 has no LOS to target COL 3.. [2014-Mar-02 15:57:27] : REL 2 forwards [MSN 8] to REL 3. 
[2014-Mar-02 15:57:27] : [MSN 6] gets relayed to REL 1. 
)[2014-Mar-02 15:57:27] : REL 1 has LOS to [[2014-Mar-02 15:57:27] : ANT 1, [2014-Mar-02 15:57:27] : REL 2, [2014-Mar-02 15:57:27] : REL 4, [2014-Mar-02 15:57:27] : COL 1, [2014-Mar-02 15:57:27] : COL 2, [2014-Mar-02 15:57:27] : COL 3[2014-Mar-02 15:57:27] : ]
[2014-Mar-02 15:57:27] : REL 1 has LOS to target COL 3.. [2014-Mar-02 15:57:27] : REL 1 forwards [MSN 6] to COL 3. 
[2014-Mar-02 15:57:27] : COM 3 receives [MSN 9] from MPL. 
)[2014-Mar-02 15:57:27] : COM 3 forwards [MSN 9] to ANT 2. 
[2014-Mar-02 15:57:28] : [MSN 8] gets relayed to REL 3. 
)[2014-Mar-02 15:57:28] : REL 3 has LOS to [[2014-Mar-02 15:57:28] : ANT 4, [2014-Mar-02 15:57:28] : ANT 5, [2014-Mar-02 15:57:28] : REL 2, [2014-Mar-02 15:57:28] : COL 3 receives [MSN 6]. 
)[2014-Mar-02 15:57:28] : REL 4, [2014-Mar-02 15:57:28] : COL 7, [2014-Mar-02 15:57:28] : COL 8, [2014-Mar-02 15:57:28] : COL 9[2014-Mar-02 15:57:28] : ]
[2014-Mar-02 15:57:28] : REL 3 has no LOS to target COL 3.. [2014-Mar-02 15:57:28] : REL 3 forwards [MSN 8] to REL 2. 
[2014-Mar-02 15:57:28] : [MSN 7] gets relayed to REL 1. 
)[2014-Mar-02 15:57:28] : REL 1 has LOS to [[2014-Mar-02 15:57:28] : ANT 1, [2014-Mar-02 15:57:28] : REL 2, [2014-Mar-02 15:57:28] : REL 4, [2014-Mar-02 15:57:28] : COL 1, [2014-Mar-02 15:57:28] : COL 2, [2014-Mar-02 15:57:28] : COL 3[2014-Mar-02 15:57:28] : ]
[2014-Mar-02 15:57:28] : REL 1 has LOS to target COL 2.. [2014-Mar-02 15:57:28] : REL 1 forwards [MSN 7] to COL 2. 
[2014-Mar-02 15:57:28] : ANT 2 receives [MSN 9] from COM 3. 
)[2014-Mar-02 15:57:28] : ANT 2 has LOS to [[2014-Mar-02 15:57:28] : REL 2, [2014-Mar-02 15:57:28] : COL 3, [2014-Mar-02 15:57:28] : COL 4[2014-Mar-02 15:57:28] : ]
[2014-Mar-02 15:57:28] : ANT 2 has no LOS to target COL 2.. [2014-Mar-02 15:57:28] : ANT 2 forwards [MSN 9] to REL 2. 
[2014-Mar-02 15:57:29] : New Mission arrived.. MSN 10 [Target: COL 3, Duration: 3900] has been created. 
[2014-Mar-02 15:57:29] : MPL sends [MSN 10] to COM 1.
[2014-Mar-02 15:57:29] : 
MPL is done loading missions. 

[2014-Mar-02 15:57:29] : COM 3 is done forwarding missions. 

[2014-Mar-02 15:57:29] : COM 2 is done forwarding missions. 

[2014-Mar-02 15:57:29] : [MSN 8] gets relayed to REL 2. 
)[2014-Mar-02 15:57:29] : REL 2 has LOS to [[2014-Mar-02 15:57:29] : ANT 2, [2014-Mar-02 15:57:29] : ANT 3, [2014-Mar-02 15:57:29] : REL 1, [2014-Mar-02 15:57:29] : REL 3, [2014-Mar-02 15:57:29] : COL 2 receives [MSN 7]. 
)[2014-Mar-02 15:57:29] : COL 4, [2014-Mar-02 15:57:29] : COL 5, [2014-Mar-02 15:57:29] : COL 6[2014-Mar-02 15:57:29] : ]
[2014-Mar-02 15:57:29] : REL 2 has no LOS to target COL 3.. [2014-Mar-02 15:57:29] : REL 2 forwards [MSN 8] to REL 1. 
[2014-Mar-02 15:57:30] : COM 1 receives [MSN 10] from MPL. 
)[2014-Mar-02 15:57:30] : COM 1 forwards [MSN 10] to ANT 4. 
[2014-Mar-02 15:57:30] : COM 1 is done forwarding missions. 

[2014-Mar-02 15:57:30] : [MSN 8] gets relayed to REL 1. 
)[2014-Mar-02 15:57:30] : REL 1 has LOS to [[2014-Mar-02 15:57:30] : ANT 1, [2014-Mar-02 15:57:30] : REL 2, [2014-Mar-02 15:57:30] : REL 4, [2014-Mar-02 15:57:30] : COL 1, [2014-Mar-02 15:57:30] : COL 2, [2014-Mar-02 15:57:30] : COL 3[2014-Mar-02 15:57:30] : ]
[2014-Mar-02 15:57:30] : REL 1 has LOS to target COL 3.. [2014-Mar-02 15:57:30] : REL 1 forwards [MSN 8] to COL 3. 
[2014-Mar-02 15:57:30] : [MSN 9] gets relayed to REL 2. 
)[2014-Mar-02 15:57:30] : REL 2 has LOS to [[2014-Mar-02 15:57:30] : ANT 2, [2014-Mar-02 15:57:30] : ANT 3, [2014-Mar-02 15:57:30] : REL 1, [2014-Mar-02 15:57:30] : REL 3, [2014-Mar-02 15:57:30] : COL 4, [2014-Mar-02 15:57:30] : COL 5, [2014-Mar-02 15:57:30] : COL 6[2014-Mar-02 15:57:30] : ]
[2014-Mar-02 15:57:30] : REL 2 has no LOS to target COL 2.. [2014-Mar-02 15:57:30] : REL 2 forwards [MSN 9] to REL 1. 
[2014-Mar-02 15:57:31] : ANT 4 receives [MSN 10] from COM 1. 
)[2014-Mar-02 15:57:31] : ANT 4 has LOS to [[2014-Mar-02 15:57:31] : REL 3, [2014-Mar-02 15:57:31] : COL 7, [2014-Mar-02 15:57:31] : COL 8[2014-Mar-02 15:57:31] : ]
[2014-Mar-02 15:57:31] : ANT 4 has no LOS to target COL 3.. [2014-Mar-02 15:57:31] : ANT 4 forwards [MSN 10] to REL 3. 
[2014-Mar-02 15:57:31] : COL 3 receives [MSN 8]. 
)[2014-Mar-02 15:57:31] : [MSN 9] gets relayed to REL 1. 
)[2014-Mar-02 15:57:31] : REL 1 has LOS to [[2014-Mar-02 15:57:31] : ANT 1, [2014-Mar-02 15:57:31] : REL 2, [2014-Mar-02 15:57:31] : REL 4, [2014-Mar-02 15:57:31] : COL 1, [2014-Mar-02 15:57:31] : COL 2, [2014-Mar-02 15:57:31] : COL 3[2014-Mar-02 15:57:31] : ]
[2014-Mar-02 15:57:31] : REL 1 has LOS to target COL 2.. [2014-Mar-02 15:57:31] : REL 1 forwards [MSN 9] to COL 2. 
[2014-Mar-02 15:57:32] : [MSN 10] gets relayed to REL 3. 
)[2014-Mar-02 15:57:32] : REL 3 has LOS to [[2014-Mar-02 15:57:32] : ANT 4, [2014-Mar-02 15:57:32] : ANT 5, [2014-Mar-02 15:57:32] : REL 2, [2014-Mar-02 15:57:32] : REL 4, [2014-Mar-02 15:57:32] : COL 7, [2014-Mar-02 15:57:32] : COL 8, [2014-Mar-02 15:57:32] : COL 9[2014-Mar-02 15:57:32] : ]
[2014-Mar-02 15:57:32] : REL 3 has no LOS to target COL 3.. [2014-Mar-02 15:57:32] : REL 3 forwards [MSN 10] to REL 2. 
[2014-Mar-02 15:57:32] : COL 2 receives [MSN 9]. 
)[2014-Mar-02 15:57:33] : [MSN 10] gets relayed to REL 2. 
)[2014-Mar-02 15:57:33] : REL 2 has LOS to [[2014-Mar-02 15:57:33] : ANT 2, [2014-Mar-02 15:57:33] : ANT 3, [2014-Mar-02 15:57:33] : REL 1, [2014-Mar-02 15:57:33] : REL 3, [2014-Mar-02 15:57:33] : COL 4, [2014-Mar-02 15:57:33] : COL 5, [2014-Mar-02 15:57:33] : COL 6[2014-Mar-02 15:57:33] : ]
[2014-Mar-02 15:57:33] : REL 2 has no LOS to target COL 3.. [2014-Mar-02 15:57:33] : REL 2 forwards [MSN 10] to REL 1. 
[2014-Mar-02 15:57:34] : [MSN 10] gets relayed to REL 1. 
)[2014-Mar-02 15:57:34] : REL 1 has LOS to [[2014-Mar-02 15:57:34] : ANT 1, [2014-Mar-02 15:57:34] : REL 2, [2014-Mar-02 15:57:34] : REL 4, [2014-Mar-02 15:57:34] : COL 1, [2014-Mar-02 15:57:34] : COL 2, [2014-Mar-02 15:57:34] : COL 3[2014-Mar-02 15:57:34] : ]
[2014-Mar-02 15:57:34] : REL 1 has LOS to target COL 3.. [2014-Mar-02 15:57:34] : REL 1 forwards [MSN 10] to COL 3. 
[2014-Mar-02 15:57:35] : COL 3 receives [MSN 10]. 
)