[2014-Mar-11 11:19:57] : Preparing Dynamic Window Table.. DONE! 

[2014-Mar-11 11:19:57] : COM 1 has started.. 
[2014-Mar-11 11:19:57] : COM 2 has started.. 
[2014-Mar-11 11:19:57] : ANT 4 has started.. 
[2014-Mar-11 11:19:57] : ANT 6 has started.. 
[2014-Mar-11 11:19:57] : COL 3 has started.. 
[2014-Mar-11 11:19:57] : COL 8 has started.. 
[2014-Mar-11 11:19:57] : COL 11 has started.. 
[2014-Mar-11 11:19:57] : COL 10 has started.. 
[2014-Mar-11 11:19:57] : COL 9 has started.. 
[2014-Mar-11 11:19:57] : COL 7 has started.. 
[2014-Mar-11 11:19:57] : COL 6 has started.. 
[2014-Mar-11 11:19:57] : COL 5 has started.. 
[2014-Mar-11 11:19:57] : COL 4 has started.. 
[2014-Mar-11 11:19:57] : COL 2 has started.. 
[2014-Mar-11 11:19:57] : COL 1 has started.. 
[2014-Mar-11 11:19:57] : REL 4 has started.. 
[2014-Mar-11 11:19:57] : REL 3 has started.. 
[2014-Mar-11 11:19:57] : REL 2 has started.. 
[2014-Mar-11 11:19:57] : REL 1 has started.. 
[2014-Mar-11 11:19:57] : ANT 5 has started.. 
[2014-Mar-11 11:19:57] : ANT 3 has started.. 
[2014-Mar-11 11:19:57] : ANT 2 has started.. 
[2014-Mar-11 11:19:57] : ANT 1 has started.. 
[2014-Mar-11 11:19:57] : COM 3 has started.. 
[2014-Mar-11 11:19:57] : COL 12 has started.. 
[2014-Mar-11 11:19:58] : MPL has started.. 
[2014-Mar-11 11:19:58] : New Mission arrived.. MSN 1 [Target: COL 1, Duration: 12000] has been created. 
[2014-Mar-11 11:19:58] : MPL sends [MSN 1] to COM 1.
[2014-Mar-11 11:19:58] : New Mission arrived.. MSN 2 [Target: COL 2, Duration: 15000] has been created. 
[2014-Mar-11 11:19:58] : MPL sends [MSN 2] to COM 2.
[2014-Mar-11 11:19:59] : COM 1 receives [MSN 1] from MPL. 
)[2014-Mar-11 11:19:59] : COM 1 forwards [MSN 1] to ANT 3. 
[2014-Mar-11 11:19:59] : COM 2 receives [MSN 2] from MPL. 
)[2014-Mar-11 11:19:59] : COM 2 forwards [MSN 2] to ANT 3. 
[2014-Mar-11 11:20:00] : ANT 3 receives [MSN 1] from COM 1. 
)[2014-Mar-11 11:20:00] : ANT 3 has LOS to [REL 2, COL 5, COL 6]
[2014-Mar-11 11:20:00] : ANT 3 has no LOS to target COL 1.. ANT 3 forwards [MSN 1] to REL 2. 
[2014-Mar-11 11:20:01] : [MSN 1] gets relayed to REL 2. 
)[2014-Mar-11 11:20:01] : ANT 3 receives [MSN 2] from COM 2. 
)[2014-Mar-11 11:20:01] : REL 2 has LOS to [ANT 2, ANT 3, REL 1, REL 3, COL 4, COL 5, COL 6]
[2014-Mar-11 11:20:01] : ANT 3 has LOS to [REL 2, COL 5, COL 6]
[2014-Mar-11 11:20:01] : REL 2 has no LOS to target COL 1.. REL 2 forwards [MSN 1] to REL 3. 
[2014-Mar-11 11:20:01] : ANT 3 has no LOS to target COL 2.. ANT 3 forwards [MSN 2] to REL 2. 
[2014-Mar-11 11:20:02] : [MSN 1] gets relayed to REL 3. 
)[2014-Mar-11 11:20:02] : REL 3 has LOS to [ANT 4, ANT 5, REL 2, REL 4, COL 7, COL 8, COL 9]
[2014-Mar-11 11:20:02] : REL 3 has no LOS to target COL 1.. REL 3 forwards [MSN 1] to REL 2. 
[2014-Mar-11 11:20:02] : [MSN 2] gets relayed to REL 2. 
)[2014-Mar-11 11:20:02] : REL 2 has LOS to [ANT 2, ANT 3, REL 1, REL 3, COL 4, COL 5, COL 6]
[2014-Mar-11 11:20:02] : REL 2 has no LOS to target COL 2.. REL 2 forwards [MSN 2] to REL 3. 
[2014-Mar-11 11:20:03] : [MSN 1] gets relayed to REL 2. 
)[2014-Mar-11 11:20:03] : REL 2 has LOS to [ANT 2, ANT 3, REL 1, REL 3, COL 4, COL 5, COL 6]
[2014-Mar-11 11:20:03] : REL 2 has no LOS to target COL 1.. REL 2 forwards [MSN 1] to REL 3. 
[2014-Mar-11 11:20:03] : [MSN 2] gets relayed to REL 3. 
)[2014-Mar-11 11:20:03] : REL 3 has LOS to [ANT 4, ANT 5, REL 2, REL 4, COL 7, COL 8, COL 9]
[2014-Mar-11 11:20:03] : REL 3 has no LOS to target COL 2.. REL 3 forwards [MSN 2] to REL 2. 
[2014-Mar-11 11:20:04] : [MSN 2] gets relayed to REL 2. 
)[2014-Mar-11 11:20:04] : REL 2 has LOS to [ANT 2, ANT 3, REL 1, REL 3, COL 4, COL 5, COL 6]
[2014-Mar-11 11:20:04] : REL 2 has no LOS to target COL 2.. REL 2 forwards [MSN 2] to REL 3. 
[2014-Mar-11 11:20:04] : [MSN 1] gets relayed to REL 3. 
)[2014-Mar-11 11:20:04] : REL 3 has LOS to [ANT 4, ANT 5, REL 2, REL 4, COL 7, COL 8, COL 9]
[2014-Mar-11 11:20:04] : REL 3 has no LOS to target COL 1.. REL 3 forwards [MSN 1] to REL 2. 
[2014-Mar-11 11:20:05] : [MSN 1] gets relayed to REL 2. 
)[2014-Mar-11 11:20:05] : REL 2 has LOS to [ANT 2, ANT 3, REL 1, REL 3, COL 4, COL 5, COL 6]
[2014-Mar-11 11:20:05] : REL 2 has no LOS to target COL 1.. REL 2 forwards [MSN 1] to REL 3. 
[2014-Mar-11 11:20:05] : [MSN 2] gets relayed to REL 3. 
)[2014-Mar-11 11:20:05] : REL 3 has LOS to [ANT 4, ANT 5, REL 2, REL 4, COL 7, COL 8, COL 9]
[2014-Mar-11 11:20:05] : REL 3 has no LOS to target COL 2.. REL 3 forwards [MSN 2] to REL 2. 
[2014-Mar-11 11:20:06] : [MSN 1] gets relayed to REL 3. 
)[2014-Mar-11 11:20:06] : REL 3 has LOS to [ANT 4, ANT 5, REL 2, REL 4, COL 7, COL 8, COL 9]
[2014-Mar-11 11:20:06] : REL 3 has no LOS to target COL 1.. REL 3 forwards [MSN 1] to REL 2. 
[2014-Mar-11 11:20:06] : [MSN 2] gets relayed to REL 2. 
)[2014-Mar-11 11:20:06] : REL 2 has LOS to [ANT 2, ANT 3, REL 1, REL 3, COL 4, COL 5, COL 6]
[2014-Mar-11 11:20:06] : REL 2 has no LOS to target COL 2.. REL 2 forwards [MSN 2] to REL 3. 
[2014-Mar-11 11:20:07] : [MSN 1] gets relayed to REL 2. 
)[2014-Mar-11 11:20:07] : REL 2 has LOS to [ANT 2, ANT 3, REL 1, REL 3, COL 4, COL 5, COL 6]
[2014-Mar-11 11:20:07] : REL 2 has no LOS to target COL 1.. REL 2 forwards [MSN 1] to REL 3. 
[2014-Mar-11 11:20:07] : [MSN 2] gets relayed to REL 3. 
)[2014-Mar-11 11:20:07] : REL 3 has LOS to [ANT 4, ANT 5, REL 2, REL 4, COL 7, COL 8, COL 9]
[2014-Mar-11 11:20:07] : REL 3 has no LOS to target COL 2.. REL 3 forwards [MSN 2] to REL 2. 
[2014-Mar-11 11:20:08] : [MSN 1] gets relayed to REL 3. 
)[2014-Mar-11 11:20:08] : REL 3 has LOS to [ANT 4, ANT 5, REL 2, REL 4, COL 7, COL 8, COL 9]
[2014-Mar-11 11:20:08] : REL 3 has no LOS to target COL 1.. REL 3 forwards [MSN 1] to REL 2. 
[2014-Mar-11 11:20:08] : [MSN 2] gets relayed to REL 2. 
)[2014-Mar-11 11:20:08] : REL 2 has LOS to [ANT 2, ANT 3, REL 1, REL 3, COL 4, COL 5, COL 6]
[2014-Mar-11 11:20:08] : REL 2 has no LOS to target COL 2.. REL 2 forwards [MSN 2] to REL 3. 
[2014-Mar-11 11:20:09] : [MSN 2] gets relayed to REL 3. 
)[2014-Mar-11 11:20:09] : REL 3 has LOS to [ANT 4, ANT 5, REL 2, REL 4, COL 7, COL 8, COL 9]
[2014-Mar-11 11:20:09] : REL 3 has no LOS to target COL 2.. REL 3 forwards [MSN 2] to REL 2. 
[2014-Mar-11 11:20:09] : [MSN 1] gets relayed to REL 2. 
)[2014-Mar-11 11:20:09] : REL 2 has LOS to [ANT 2, ANT 3, REL 1, REL 3, COL 4, COL 5, COL 6]
[2014-Mar-11 11:20:09] : REL 2 has no LOS to target COL 1.. REL 2 forwards [MSN 1] to REL 3. 
[2014-Mar-11 11:20:10] : New Mission arrived.. MSN 3 [Target: COL 1, Duration: 8000] has been created. 
[2014-Mar-11 11:20:10] : MPL sends [MSN 3] to COM 3.
[2014-Mar-11 11:20:10] : [MSN 1] gets relayed to REL 3. 
)[2014-Mar-11 11:20:10] : REL 3 has LOS to [ANT 4, ANT 5, REL 2, REL 4, COL 7, COL 8, COL 9]
[2014-Mar-11 11:20:10] : REL 3 has no LOS to target COL 1.. REL 3 forwards [MSN 1] to REL 2. 
[2014-Mar-11 11:20:10] : [MSN 2] gets relayed to REL 2. 
)[2014-Mar-11 11:20:10] : REL 2 has LOS to [ANT 2, ANT 3, REL 1, REL 3, COL 4, COL 5, COL 6]
[2014-Mar-11 11:20:10] : REL 2 has no LOS to target COL 2.. REL 2 forwards [MSN 2] to REL 3. 
[2014-Mar-11 11:20:11] : COM 3 receives [MSN 3] from MPL. 
)[2014-Mar-11 11:20:11] : COM 3 forwards [MSN 3] to ANT 6. 
[2014-Mar-11 11:20:11] : [MSN 1] gets relayed to REL 2. 
)[2014-Mar-11 11:20:11] : REL 2 has LOS to [ANT 2, ANT 3, REL 1, REL 3, COL 4, COL 5, COL 6]
[2014-Mar-11 11:20:11] : REL 2 has no LOS to target COL 1.. REL 2 forwards [MSN 1] to REL 3. 
[2014-Mar-11 11:20:11] : [MSN 2] gets relayed to REL 3. 
)[2014-Mar-11 11:20:11] : REL 3 has LOS to [ANT 4, ANT 5, REL 2, REL 4, COL 7, COL 8, COL 9]
[2014-Mar-11 11:20:11] : REL 3 has no LOS to target COL 2.. REL 3 forwards [MSN 2] to REL 2. 
[2014-Mar-11 11:20:12] : ANT 6 receives [MSN 3] from COM 3. 
)[2014-Mar-11 11:20:12] : ANT 6 has LOS to [REL 4, COL 11, COL 12]
[2014-Mar-11 11:20:12] : ANT 6 has no LOS to target COL 1.. ANT 6 forwards [MSN 3] to REL 4. 
[2014-Mar-11 11:20:12] : [MSN 2] gets relayed to REL 2. 
)[2014-Mar-11 11:20:12] : REL 2 has LOS to [ANT 2, ANT 3, REL 1, REL 3, COL 4, COL 5, COL 6]
[2014-Mar-11 11:20:12] : REL 2 has no LOS to target COL 2.. REL 2 forwards [MSN 2] to REL 3. 
[2014-Mar-11 11:20:12] : [MSN 1] gets relayed to REL 3. 
)[2014-Mar-11 11:20:12] : REL 3 has LOS to [ANT 4, ANT 5, REL 2, REL 4, COL 7, COL 8, COL 9]
[2014-Mar-11 11:20:12] : REL 3 has no LOS to target COL 1.. REL 3 forwards [MSN 1] to REL 2. 
[2014-Mar-11 11:20:13] : New Mission arrived.. MSN 4 [Target: COL 2, Duration: 10200] has been created. 
[2014-Mar-11 11:20:13] : MPL sends [MSN 4] to COM 1.
[2014-Mar-11 11:20:13] : [MSN 3] gets relayed to REL 4. 
)[2014-Mar-11 11:20:13] : REL 4 has LOS to [ANT 6, REL 3, REL 1, COL 10, COL 11, COL 12]
[2014-Mar-11 11:20:13] : REL 4 has no LOS to target COL 1.. REL 4 forwards [MSN 3] to REL 3. 
[2014-Mar-11 11:20:13] : [MSN 1] gets relayed to REL 2. 
)[2014-Mar-11 11:20:13] : REL 2 has LOS to [ANT 2, ANT 3, REL 1, REL 3, COL 4, COL 5, COL 6]
[2014-Mar-11 11:20:13] : REL 2 has no LOS to target COL 1.. REL 2 forwards [MSN 1] to REL 3. 
[2014-Mar-11 11:20:13] : [MSN 2] gets relayed to REL 3. 
)[2014-Mar-11 11:20:13] : REL 3 has LOS to [ANT 4, ANT 5, REL 2, REL 4, COL 7, COL 8, COL 9]
[2014-Mar-11 11:20:13] : REL 3 has no LOS to target COL 2.. REL 3 forwards [MSN 2] to REL 2. 
[2014-Mar-11 11:20:14] : COM 1 receives [MSN 4] from MPL. 
)[2014-Mar-11 11:20:14] : COM 1 forwards [MSN 4] to ANT 2. 
[2014-Mar-11 11:20:14] : [MSN 3] gets relayed to REL 3. 
)[2014-Mar-11 11:20:14] : REL 3 has LOS to [ANT 4, ANT 5, REL 2, REL 4, COL 7, COL 8, COL 9]
[2014-Mar-11 11:20:14] : REL 3 has no LOS to target COL 1.. REL 3 forwards [MSN 3] to REL 2. 
[2014-Mar-11 11:20:14] : [MSN 2] gets relayed to REL 2. 
)[2014-Mar-11 11:20:14] : REL 2 has LOS to [ANT 2, ANT 3, REL 1, REL 3, COL 4, COL 5, COL 6]
[2014-Mar-11 11:20:14] : REL 2 has no LOS to target COL 2.. REL 2 forwards [MSN 2] to REL 3. 
[2014-Mar-11 11:20:15] : ANT 2 receives [MSN 4] from COM 1. 
)[2014-Mar-11 11:20:15] : ANT 2 has LOS to [REL 2, COL 3, COL 4]
[2014-Mar-11 11:20:15] : ANT 2 has no LOS to target COL 2.. ANT 2 forwards [MSN 4] to REL 2. 
[2014-Mar-11 11:20:15] : [MSN 1] gets relayed to REL 3. 
)[2014-Mar-11 11:20:15] : REL 3 has LOS to [ANT 4, ANT 5, REL 2, REL 4, COL 7, COL 8, COL 9]
[2014-Mar-11 11:20:15] : REL 3 has no LOS to target COL 1.. REL 3 forwards [MSN 1] to REL 2. 
[2014-Mar-11 11:20:15] : [MSN 3] gets relayed to REL 2. 
)[2014-Mar-11 11:20:15] : REL 2 has LOS to [ANT 2, ANT 3, REL 1, REL 3, COL 4, COL 5, COL 6]
[2014-Mar-11 11:20:15] : REL 2 has no LOS to target COL 1.. REL 2 forwards [MSN 3] to REL 3. 
[2014-Mar-11 11:20:16] : [MSN 2] gets relayed to REL 3. 
)[2014-Mar-11 11:20:16] : REL 3 has LOS to [ANT 4, ANT 5, REL 2, REL 4, COL 7, COL 8, COL 9]
[2014-Mar-11 11:20:16] : REL 3 has no LOS to target COL 2.. REL 3 forwards [MSN 2] to REL 2. 
[2014-Mar-11 11:20:16] : [MSN 4] gets relayed to REL 2. 
)[2014-Mar-11 11:20:16] : REL 2 has LOS to [ANT 2, ANT 3, REL 1, REL 3, COL 4, COL 5, COL 6]
[2014-Mar-11 11:20:16] : REL 2 has no LOS to target COL 2.. REL 2 forwards [MSN 4] to REL 3. 
[2014-Mar-11 11:20:17] : [MSN 3] gets relayed to REL 3. 
)[2014-Mar-11 11:20:17] : REL 3 has LOS to [ANT 4, ANT 5, REL 2, REL 4, COL 7, COL 8, COL 9]
[2014-Mar-11 11:20:17] : REL 3 has no LOS to target COL 1.. REL 3 forwards [MSN 3] to REL 2. 
[2014-Mar-11 11:20:17] : [MSN 1] gets relayed to REL 2. 
)[2014-Mar-11 11:20:18] : REL 2 has LOS to [ANT 2, ANT 3, REL 1, REL 3, COL 4, COL 5, COL 6]
[2014-Mar-11 11:20:18] : REL 2 has no LOS to target COL 1.. REL 2 forwards [MSN 1] to REL 3. 
[2014-Mar-11 11:20:18] : New Mission arrived.. MSN 5 [Target: COL 1, Duration: 9300] has been created. 
[2014-Mar-11 11:20:18] : MPL sends [MSN 5] to COM 2.

[2014-Mar-11 11:20:18] : MPL is done loading missions. 

[2014-Mar-11 11:20:18] : COM 3 is done forwarding missions. 

[2014-Mar-11 11:20:18] : COM 1 is done forwarding missions. 

[2014-Mar-11 11:20:18] : [MSN 4] gets relayed to REL 3. 
)[2014-Mar-11 11:20:19] : REL 3 has LOS to [ANT 4, ANT 5, REL 2, REL 4, COL 7, COL 8, COL 9]
[2014-Mar-11 11:20:19] : REL 3 has no LOS to target COL 2.. REL 3 forwards [MSN 4] to REL 2. 
[2014-Mar-11 11:20:19] : [MSN 2] gets relayed to REL 2. 
)[2014-Mar-11 11:20:19] : REL 2 has LOS to [ANT 2, ANT 3, REL 1, REL 3, [2014-Mar-11 11:20:19] : COM 2 receives [MSN 5] from MPL. 
)COL 4, [2014-Mar-11 11:20:19] : COM 2 forwards [MSN 5] to ANT 4. 
COL 5, [2014-Mar-11 11:20:19] : COM 2 is done forwarding missions. 

COL 6]
[2014-Mar-11 11:20:19] : REL 2 has no LOS to target COL 2.. REL 2 forwards [MSN 2] to REL 3. 
[2014-Mar-11 11:20:20] : [MSN 1] gets relayed to REL 3. 
)[2014-Mar-11 11:20:20] : REL 3 has LOS to [ANT 4, ANT 5, REL 2, REL 4, COL 7, COL 8, COL 9]
[2014-Mar-11 11:20:20] : REL 3 has no LOS to target COL 1.. REL 3 forwards [MSN 1] to REL 2. 
[2014-Mar-11 11:20:20] : ANT 4 receives [MSN 5] from COM 2. 
)[2014-Mar-11 11:20:20] : ANT 4 has LOS to [REL 3, COL 7, COL 8]
[2014-Mar-11 11:20:20] : ANT 4 has no LOS to target COL 1.. ANT 4 forwards [MSN 5] to REL 3. 
[2014-Mar-11 11:20:20] : [MSN 3] gets relayed to REL 2. 
)[2014-Mar-11 11:20:20] : REL 2 has LOS to [ANT 2, ANT 3, REL 1, REL 3, COL 4, COL 5, COL 6]
[2014-Mar-11 11:20:20] : REL 2 has no LOS to target COL 1.. REL 2 forwards [MSN 3] to REL 3. 
[2014-Mar-11 11:20:21] : [MSN 2] gets relayed to REL 3. 
)[2014-Mar-11 11:20:21] : REL 3 has LOS to [ANT 4, ANT 5, REL 2, REL 4, COL 7, COL 8, COL 9]
[2014-Mar-11 11:20:21] : REL 3 has no LOS to target COL 2.. REL 3 forwards [MSN 2] to REL 2. 
[2014-Mar-11 11:20:21] : [MSN 4] gets relayed to REL 2. 
)[2014-Mar-11 11:20:21] : REL 2 has LOS to [ANT 2, ANT 3, REL 1, REL 3, COL 4, COL 5, COL 6]
[2014-Mar-11 11:20:21] : REL 2 has no LOS to target COL 2.. REL 2 forwards [MSN 4] to REL 3. 
[2014-Mar-11 11:20:22] : [MSN 5] gets relayed to REL 3. 
)[2014-Mar-11 11:20:22] : REL 3 has LOS to [ANT 4, ANT 5, REL 2, REL 4, COL 7, COL 8, COL 9]
[2014-Mar-11 11:20:22] : REL 3 has no LOS to target COL 1.. REL 3 forwards [MSN 5] to REL 2. 
[2014-Mar-11 11:20:22] : [MSN 1] gets relayed to REL 2. 
)[2014-Mar-11 11:20:22] : REL 2 has LOS to [ANT 2, ANT 3, REL 1, REL 3, COL 4, COL 5, COL 6]
[2014-Mar-11 11:20:22] : REL 2 has no LOS to target COL 1.. REL 2 forwards [MSN 1] to REL 3. 
[2014-Mar-11 11:20:23] : [MSN 3] gets relayed to REL 3. 
)[2014-Mar-11 11:20:23] : REL 3 has LOS to [ANT 4, ANT 5, REL 2, REL 4, COL 7, COL 8, COL 9]
[2014-Mar-11 11:20:23] : REL 3 has no LOS to target COL 1.. REL 3 forwards [MSN 3] to REL 2. 
[2014-Mar-11 11:20:23] : [MSN 2] gets relayed to REL 2. 
)[2014-Mar-11 11:20:23] : REL 2 has LOS to [ANT 2, ANT 3, REL 1, REL 3, COL 4, COL 5, COL 6]
[2014-Mar-11 11:20:23] : REL 2 has no LOS to target COL 2.. REL 2 forwards [MSN 2] to REL 3. 
[2014-Mar-11 11:20:24] : [MSN 4] gets relayed to REL 3. 
)[2014-Mar-11 11:20:24] : REL 3 has LOS to [ANT 4, ANT 5, REL 2, REL 4, COL 7, COL 8, COL 9]
[2014-Mar-11 11:20:24] : REL 3 has no LOS to target COL 2.. REL 3 forwards [MSN 4] to REL 2. 
[2014-Mar-11 11:20:24] : [MSN 5] gets relayed to REL 2. 
)[2014-Mar-11 11:20:24] : REL 2 has LOS to [ANT 2, ANT 3, REL 1, REL 3, COL 4, COL 5, COL 6]
[2014-Mar-11 11:20:24] : REL 2 has no LOS to target COL 1.. REL 2 forwards [MSN 5] to REL 3. 
[2014-Mar-11 11:20:25] : [MSN 1] gets relayed to REL 3. 
)[2014-Mar-11 11:20:25] : REL 3 has LOS to [ANT 4, ANT 5, REL 2, REL 4, COL 7, COL 8, COL 9]
[2014-Mar-11 11:20:25] : REL 3 has no LOS to target COL 1.. REL 3 forwards [MSN 1] to REL 2. 
[2014-Mar-11 11:20:25] : [MSN 3] gets relayed to REL 2. 
)[2014-Mar-11 11:20:25] : REL 2 has LOS to [ANT 2, ANT 3, REL 1, REL 3, COL 4, COL 5, COL 6]
[2014-Mar-11 11:20:25] : REL 2 has no LOS to target COL 1.. REL 2 forwards [MSN 3] to REL 3. 
[2014-Mar-11 11:20:26] : [MSN 2] gets relayed to REL 3. 
)[2014-Mar-11 11:20:26] : REL 3 has LOS to [ANT 4, ANT 5, REL 2, REL 4, COL 7, COL 8, COL 9]
[2014-Mar-11 11:20:26] : REL 3 has no LOS to target COL 2.. REL 3 forwards [MSN 2] to REL 2. 
[2014-Mar-11 11:20:26] : [MSN 4] gets relayed to REL 2. 
)[2014-Mar-11 11:20:26] : REL 2 has LOS to [ANT 2, ANT 3, REL 1, REL 3, COL 4, COL 5, COL 6]
[2014-Mar-11 11:20:26] : REL 2 has no LOS to target COL 2.. REL 2 forwards [MSN 4] to REL 3. 
[2014-Mar-11 11:20:27] : [MSN 5] gets relayed to REL 3. 
)[2014-Mar-11 11:20:27] : REL 3 has LOS to [ANT 4, ANT 5, REL 2, REL 4, COL 7, COL 8, COL 9]
[2014-Mar-11 11:20:27] : REL 3 has no LOS to target COL 1.. REL 3 forwards [MSN 5] to REL 2. 
[2014-Mar-11 11:20:27] : [MSN 1] gets relayed to REL 2. 
)[2014-Mar-11 11:20:27] : REL 2 has LOS to [ANT 2, ANT 3, REL 1, REL 3, COL 4, COL 5, COL 6]
[2014-Mar-11 11:20:27] : REL 2 has no LOS to target COL 1.. REL 2 forwards [MSN 1] to REL 3. 
[2014-Mar-11 11:20:28] : [MSN 3] gets relayed to REL 3. 
)[2014-Mar-11 11:20:28] : REL 3 has LOS to [ANT 4, ANT 5, REL 2, REL 4, COL 7, COL 8, COL 9]
[2014-Mar-11 11:20:28] : REL 3 has no LOS to target COL 1.. REL 3 forwards [MSN 3] to REL 2. 
[2014-Mar-11 11:20:28] : [MSN 2] gets relayed to REL 2. 
)[2014-Mar-11 11:20:28] : REL 2 has LOS to [ANT 2, ANT 3, REL 1, REL 3, COL 4, COL 5, COL 6]
[2014-Mar-11 11:20:28] : REL 2 has no LOS to target COL 2.. REL 2 forwards [MSN 2] to REL 3. 
[2014-Mar-11 11:20:29] : [MSN 4] gets relayed to REL 3. 
)[2014-Mar-11 11:20:29] : REL 3 has LOS to [ANT 4, ANT 5, REL 2, REL 4, COL 7, COL 8, COL 9]
[2014-Mar-11 11:20:29] : REL 3 has no LOS to target COL 2.. REL 3 forwards [MSN 4] to REL 2. 
[2014-Mar-11 11:20:29] : [MSN 5] gets relayed to REL 2. 
)[2014-Mar-11 11:20:29] : REL 2 has LOS to [ANT 2, ANT 3, REL 1, REL 3, COL 4, COL 5, COL 6]
[2014-Mar-11 11:20:29] : REL 2 has no LOS to target COL 1.. REL 2 forwards [MSN 5] to REL 3. 
[2014-Mar-11 11:20:30] : [MSN 1] gets relayed to REL 3. 
)[2014-Mar-11 11:20:30] : REL 3 has LOS to [ANT 4, ANT 5, REL 2, REL 4, COL 7, COL 8, COL 9]
[2014-Mar-11 11:20:30] : REL 3 has no LOS to target COL 1.. REL 3 forwards [MSN 1] to REL 2. 
[2014-Mar-11 11:20:30] : [MSN 3] gets relayed to REL 2. 
)[2014-Mar-11 11:20:30] : REL 2 has LOS to [ANT 2, ANT 3, REL 1, REL 3, COL 4, COL 5, COL 6]
[2014-Mar-11 11:20:30] : REL 2 has no LOS to target COL 1.. REL 2 forwards [MSN 3] to REL 3. 
[2014-Mar-11 11:20:31] : [MSN 2] gets relayed to REL 3. 
)[2014-Mar-11 11:20:31] : REL 3 has LOS to [ANT 4, ANT 5, REL 2, REL 4, COL 7, COL 8, COL 9]
[2014-Mar-11 11:20:31] : REL 3 has no LOS to target COL 2.. REL 3 forwards [MSN 2] to REL 2. 
[2014-Mar-11 11:20:31] : [MSN 4] gets relayed to REL 2. 
)[2014-Mar-11 11:20:31] : REL 2 has LOS to [ANT 2, ANT 3, REL 1, REL 3, COL 4, COL 5, COL 6]
[2014-Mar-11 11:20:31] : REL 2 has no LOS to target COL 2.. REL 2 forwards [MSN 4] to REL 3. 
[2014-Mar-11 11:20:32] : [MSN 5] gets relayed to REL 3. 
)[2014-Mar-11 11:20:32] : REL 3 has LOS to [ANT 4, ANT 5, REL 2, REL 4, COL 7, COL 8, COL 9]
[2014-Mar-11 11:20:32] : REL 3 has no LOS to target COL 1.. REL 3 forwards [MSN 5] to REL 2. 
[2014-Mar-11 11:20:32] : [MSN 1] gets relayed to REL 2. 
)[2014-Mar-11 11:20:32] : REL 2 has LOS to [ANT 2, ANT 3, REL 1, REL 3, COL 4, COL 5, COL 6]
[2014-Mar-11 11:20:32] : REL 2 has no LOS to target COL 1.. REL 2 forwards [MSN 1] to REL 3. 
[2014-Mar-11 11:20:33] : [MSN 3] gets relayed to REL 3. 
)[2014-Mar-11 11:20:33] : REL 3 has LOS to [ANT 4, ANT 5, REL 2, REL 4, COL 7, COL 8, COL 9]
[2014-Mar-11 11:20:33] : REL 3 has no LOS to target COL 1.. REL 3 forwards [MSN 3] to REL 2. 
[2014-Mar-11 11:20:33] : [MSN 2] gets relayed to REL 2. 
)[2014-Mar-11 11:20:33] : REL 2 has LOS to [ANT 2, ANT 3, REL 1, REL 3, COL 4, COL 5, COL 6]
[2014-Mar-11 11:20:33] : REL 2 has no LOS to target COL 2.. REL 2 forwards [MSN 2] to REL 3. 
[2014-Mar-11 11:20:34] : [MSN 4] gets relayed to REL 3. 
)[2014-Mar-11 11:20:34] : REL 3 has LOS to [ANT 4, ANT 5, REL 2, REL 4, COL 7, COL 8, COL 9]
[2014-Mar-11 11:20:34] : REL 3 has no LOS to target COL 2.. REL 3 forwards [MSN 4] to REL 2. 
[2014-Mar-11 11:20:34] : [MSN 5] gets relayed to REL 2. 
)[2014-Mar-11 11:20:34] : REL 2 has LOS to [ANT 2, ANT 3, REL 1, REL 3, COL 4, COL 5, COL 6]
[2014-Mar-11 11:20:34] : REL 2 has no LOS to target COL 1.. REL 2 forwards [MSN 5] to REL 3. 
[2014-Mar-11 11:20:35] : [MSN 1] gets relayed to REL 3. 
)[2014-Mar-11 11:20:35] : REL 3 has LOS to [ANT 4, ANT 5, REL 2, REL 4, COL 7, COL 8, COL 9]
[2014-Mar-11 11:20:35] : REL 3 has no LOS to target COL 1.. REL 3 forwards [MSN 1] to REL 2. 
[2014-Mar-11 11:20:35] : [MSN 3] gets relayed to REL 2. 
)[2014-Mar-11 11:20:35] : REL 2 has LOS to [ANT 2, ANT 3, REL 1, REL 3, COL 4, COL 5, COL 6]
[2014-Mar-11 11:20:35] : REL 2 has no LOS to target COL 1.. REL 2 forwards [MSN 3] to REL 3. 
[2014-Mar-11 11:20:36] : [MSN 2] gets relayed to REL 3. 
)[2014-Mar-11 11:20:36] : REL 3 has LOS to [ANT 4, ANT 5, REL 2, REL 4, COL 7, COL 8, COL 9]
[2014-Mar-11 11:20:36] : REL 3 has no LOS to target COL 2.. REL 3 forwards [MSN 2] to REL 2. 
[2014-Mar-11 11:20:36] : [MSN 4] gets relayed to REL 2. 
)[2014-Mar-11 11:20:36] : REL 2 has LOS to [ANT 2, ANT 3, REL 1, REL 3, COL 4, COL 5, COL 6]
[2014-Mar-11 11:20:36] : REL 2 has no LOS to target COL 2.. REL 2 forwards [MSN 4] to REL 3. 
[2014-Mar-11 11:20:37] : [MSN 5] gets relayed to REL 3. 
)[2014-Mar-11 11:20:37] : REL 3 has LOS to [ANT 4, ANT 5, REL 2, REL 4, COL 7, COL 8, COL 9]
[2014-Mar-11 11:20:37] : REL 3 has no LOS to target COL 1.. REL 3 forwards [MSN 5] to REL 2. 
[2014-Mar-11 11:20:37] : [MSN 1] gets relayed to REL 2. 
)[2014-Mar-11 11:20:37] : REL 2 has LOS to [ANT 2, ANT 3, REL 1, REL 3, COL 4, COL 5, COL 6]
[2014-Mar-11 11:20:37] : REL 2 has no LOS to target COL 1.. REL 2 forwards [MSN 1] to REL 3. 
[2014-Mar-11 11:20:38] : [MSN 3] gets relayed to REL 3. 
)[2014-Mar-11 11:20:38] : REL 3 has LOS to [ANT 4, ANT 5, REL 2, REL 4, COL 7, COL 8, COL 9]
[2014-Mar-11 11:20:38] : REL 3 has no LOS to target COL 1.. REL 3 forwards [MSN 3] to REL 2. 
[2014-Mar-11 11:20:38] : [MSN 2] gets relayed to REL 2. 
)[2014-Mar-11 11:20:38] : REL 2 has LOS to [ANT 2, ANT 3, REL 1, REL 3, COL 4, COL 5, COL 6]
[2014-Mar-11 11:20:38] : REL 2 has no LOS to target COL 2.. REL 2 forwards [MSN 2] to REL 3. 
[2014-Mar-11 11:20:39] : [MSN 4] gets relayed to REL 3. 
)[2014-Mar-11 11:20:39] : REL 3 has LOS to [ANT 4, ANT 5, REL 2, REL 4, COL 7, COL 8, COL 9]
[2014-Mar-11 11:20:39] : REL 3 has no LOS to target COL 2.. REL 3 forwards [MSN 4] to REL 2. 
[2014-Mar-11 11:20:39] : [MSN 5] gets relayed to REL 2. 
)[2014-Mar-11 11:20:39] : REL 2 has LOS to [ANT 2, ANT 3, REL 1, REL 3, COL 4, COL 5, COL 6]
[2014-Mar-11 11:20:39] : REL 2 has no LOS to target COL 1.. REL 2 forwards [MSN 5] to REL 3. 
