[2014-Mar-09 17:51:00] : Preparing Dynamic Window Table.. DONE! 

[2014-Mar-09 17:51:00] : COM 1 has started.. 
[2014-Mar-09 17:51:00] : COM 2 has started.. 
[2014-Mar-09 17:51:00] : ANT 5 has started.. 
[2014-Mar-09 17:51:00] : REL 3 has started.. 
[2014-Mar-09 17:51:00] : COL 4 has started.. 
[2014-Mar-09 17:51:00] : COL 7 has started.. 
[2014-Mar-09 17:51:00] : COL 8 has started.. 
[2014-Mar-09 17:51:00] : COL 10 has started.. 
[2014-Mar-09 17:51:00] : COL 9 has started.. 
[2014-Mar-09 17:51:00] : COL 6 has started.. 
[2014-Mar-09 17:51:00] : COL 5 has started.. 
[2014-Mar-09 17:51:00] : COL 3 has started.. 
[2014-Mar-09 17:51:00] : COL 2 has started.. 
[2014-Mar-09 17:51:00] : COL 1 has started.. 
[2014-Mar-09 17:51:00] : REL 4 has started.. 
[2014-Mar-09 17:51:00] : REL 2 has started.. 
[2014-Mar-09 17:51:00] : REL 1 has started.. 
[2014-Mar-09 17:51:00] : ANT 6 has started.. 
[2014-Mar-09 17:51:00] : ANT 4 has started.. 
[2014-Mar-09 17:51:00] : ANT 3 has started.. 
[2014-Mar-09 17:51:00] : COL 11 has started.. 
[2014-Mar-09 17:51:00] : ANT 2 has started.. 
[2014-Mar-09 17:51:00] : ANT 1 has started.. 
[2014-Mar-09 17:51:00] : COM 3 has started.. 
[2014-Mar-09 17:51:00] : COL 12 has started.. 
[2014-Mar-09 17:51:01] : MPL has started.. 
[2014-Mar-09 17:51:01] : New Mission arrived.. MSN 1 [Target: COL 1, Duration: 12000] has been created. 
[2014-Mar-09 17:51:01] : MPL sends [MSN 1] to COM 1.
[2014-Mar-09 17:51:01] : New Mission arrived.. MSN 2 [Target: COL 2, Duration: 15000] has been created. 
[2014-Mar-09 17:51:01] : MPL sends [MSN 2] to COM 2.
[2014-Mar-09 17:51:02] : COM 1 receives [MSN 1] from MPL. 
)[2014-Mar-09 17:51:02] : COM 1 forwards [MSN 1] to ANT 1. 
[2014-Mar-09 17:51:02] : COM 2 receives [MSN 2] from MPL. 
)[2014-Mar-09 17:51:02] : COM 2 forwards [MSN 2] to ANT 1. 
[2014-Mar-09 17:51:03] : ANT 1 receives [MSN 1] from COM 1. 
)[2014-Mar-09 17:51:03] : ANT 1 has LOS to [REL 1, COL 1, COL 2]
[2014-Mar-09 17:51:03] : ANT 1 has LOS to target COL 1.. ANT 1 forwards [MSN 1] to COL 1. 
[2014-Mar-09 17:51:04] : ANT 1 receives [MSN 2] from COM 2. 
)[2014-Mar-09 17:51:04] : ANT 1 has LOS to [REL 1, COL 1, COL 2]
[2014-Mar-09 17:51:04] : ANT 1 has LOS to target COL 2.. ANT 1 forwards [MSN 2] to COL 2. 
[2014-Mar-09 17:51:04] : COL 1 receives [MSN 1]. 
)[2014-Mar-09 17:51:05] : SGN 1 [Target: ANT 1] has been created. 
[2014-Mar-09 17:51:05] : COL 1 has LOS to [ANT 1, REL 1]
[2014-Mar-09 17:51:05] : COL 1 has LOS to target ANT 1.. COL 1 forwards [SGN 1] to ANT 1. 
[2014-Mar-09 17:51:05] : COL 2 receives [MSN 2]. 
)[2014-Mar-09 17:51:06] : ANT 1 receives [SGN 1]. 
)[2014-Mar-09 17:51:06] : SGN 2 [Target: ANT 1] has been created. 
[2014-Mar-09 17:51:06] : COL 2 has LOS to [ANT 1, REL 1]
[2014-Mar-09 17:51:06] : COL 2 has LOS to target ANT 1.. COL 2 forwards [SGN 2] to ANT 1. 
[2014-Mar-09 17:51:06] : COL 1 has LOS to [ANT 1, REL 1]
[2014-Mar-09 17:51:06] : COL 1 has LOS to target ANT 1.. COL 1 forwards [SGN 1] to ANT 1. 
[2014-Mar-09 17:51:07] : COL 2 has LOS to [ANT 1, [2014-Mar-09 17:51:07] : ANT 1 receives [SGN 2]. 
)REL 1]
[2014-Mar-09 17:51:07] : COL 2 has LOS to target ANT 1.. [2014-Mar-09 17:51:07] : ANT 1 receives [SGN 1]. 
)COL 2 forwards [SGN 2] to ANT 1. 
[2014-Mar-09 17:51:08] : COL 1 has LOS to [ANT 1, REL 1]
[2014-Mar-09 17:51:08] : COL 1 has LOS to target ANT 1.. COL 1 forwards [SGN 1] to ANT 1. 
[2014-Mar-09 17:51:09] : COL 2 has LOS to [ANT 1, REL 1]
[2014-Mar-09 17:51:09] : COL 2 has LOS to target ANT 1.. COL 2 forwards [SGN 2] to ANT 1. 
[2014-Mar-09 17:51:09] : ANT 1 receives [SGN 2]. 
)[2014-Mar-09 17:51:09] : COL 1 has LOS to [ANT 1, REL 1]
[2014-Mar-09 17:51:09] : COL 1 has LOS to target ANT 1.. COL 1 forwards [SGN 1] to ANT 1. 
[2014-Mar-09 17:51:09] : ANT 1 receives [SGN 1]. 
)[2014-Mar-09 17:51:10] : COL 2 has LOS to [ANT 1, [2014-Mar-09 17:51:10] : ANT 1 receives [SGN 2]. 
)REL 1]
[2014-Mar-09 17:51:10] : COL 2 has LOS to target ANT 1.. COL 2 forwards [SGN 2] to ANT 1. 
[2014-Mar-09 17:51:10] : COL 1 has LOS to [ANT 2, REL 4]
[2014-Mar-09 17:51:10] : COL 1 has no LOS to target ANT 1.. COL 1 forwards [SGN 1] to COL 1. 
[2014-Mar-09 17:51:11] : COL 2 has LOS to [ANT 2, REL 4]
[2014-Mar-09 17:51:11] : COL 2 has no LOS to target ANT 1.. COL 2 forwards [SGN 2] to COL 2. 
[2014-Mar-09 17:51:11] : COL 1 has LOS to [ANT 2, REL 4]
[2014-Mar-09 17:51:11] : COL 1 has no LOS to target ANT 1.. COL 1 forwards [SGN 1] to COL 1. 
[2014-Mar-09 17:51:12] : COL 2 has LOS to [ANT 2, REL 4]
[2014-Mar-09 17:51:12] : COL 2 has no LOS to target ANT 1.. COL 2 forwards [SGN 2] to COL 2. 
[2014-Mar-09 17:51:12] : COL 1 has LOS to [ANT 2, REL 4]
[2014-Mar-09 17:51:12] : COL 1 has no LOS to target ANT 1.. COL 1 forwards [SGN 1] to COL 1. 
[2014-Mar-09 17:51:13] : New Mission arrived.. MSN 3 [Target: COL 1, Duration: 8000] has been created. 
[2014-Mar-09 17:51:13] : MPL sends [MSN 3] to COM 3.
[2014-Mar-09 17:51:13] : COL 2 has LOS to [ANT 2, REL 4]
[2014-Mar-09 17:51:13] : COL 2 has no LOS to target ANT 1.. COL 2 forwards [SGN 2] to COL 2. 
[2014-Mar-09 17:51:13] : COL 1 has LOS to [ANT 2, REL 4]
[2014-Mar-09 17:51:13] : COL 1 has no LOS to target ANT 1.. COL 1 forwards [SGN 1] to COL 1. 
[2014-Mar-09 17:51:14] : COM 3 receives [MSN 3] from MPL. 
)[2014-Mar-09 17:51:14] : COM 3 forwards [MSN 3] to ANT 4. 
[2014-Mar-09 17:51:14] : COL 2 has LOS to [ANT 2, REL 4]
[2014-Mar-09 17:51:14] : COL 2 has no LOS to target ANT 1.. COL 2 forwards [SGN 2] to COL 2. 
[2014-Mar-09 17:51:14] : COL 1 has LOS to [ANT 2, REL 4]
[2014-Mar-09 17:51:14] : COL 1 has no LOS to target ANT 1.. COL 1 forwards [SGN 1] to COL 1. 
[2014-Mar-09 17:51:15] : ANT 4 receives [MSN 3] from COM 3. 
)[2014-Mar-09 17:51:15] : ANT 4 has LOS to [REL 3, COL 5, COL 6]
[2014-Mar-09 17:51:15] : ANT 4 has no LOS to target COL 1.. ANT 4 forwards [MSN 3] to REL 3. 
[2014-Mar-09 17:51:15] : COL 2 has LOS to [ANT 2, REL 4]
[2014-Mar-09 17:51:15] : COL 2 has no LOS to target ANT 1.. COL 2 forwards [SGN 2] to COL 2. 
[2014-Mar-09 17:51:15] : COL 1 has LOS to [ANT 2, REL 4]
[2014-Mar-09 17:51:15] : COL 1 has no LOS to target ANT 1.. COL 1 forwards [SGN 1] to COL 1. 
[2014-Mar-09 17:51:16] : New Mission arrived.. MSN 4 [Target: COL 2, Duration: 10200] has been created. 
[2014-Mar-09 17:51:16] : MPL sends [MSN 4] to COM 1.
[2014-Mar-09 17:51:16] : [MSN 3] gets relayed to REL 3. 
)[2014-Mar-09 17:51:16] : REL 3 has LOS to [ANT 4, ANT 5, REL 2, REL 4, COL 9, COL 10, COL 11]
[2014-Mar-09 17:51:16] : REL 3 has no LOS to target COL 1.. REL 3 forwards [MSN 3] to REL 4. 
[2014-Mar-09 17:51:16] : COL 2 has LOS to [ANT 2, REL 4]
[2014-Mar-09 17:51:16] : COL 2 has no LOS to target ANT 1.. COL 2 forwards [SGN 2] to COL 2. 
[2014-Mar-09 17:51:16] : COL 1 has LOS to [ANT 2, REL 4]
[2014-Mar-09 17:51:16] : COL 1 has no LOS to target ANT 1.. COL 1 forwards [SGN 1] to COL 1. 
[2014-Mar-09 17:51:17] : COM 1 receives [MSN 4] from MPL. 
)[2014-Mar-09 17:51:17] : COM 1 forwards [MSN 4] to ANT 6. 
[2014-Mar-09 17:51:17] : [MSN 3] gets relayed to REL 4. 
)[2014-Mar-09 17:51:17] : COL 2 has LOS to [ANT 2, REL 4]
[2014-Mar-09 17:51:17] : COL 2 has no LOS to target ANT 1.. COL 2 forwards [SGN 2] to COL 2. 
[2014-Mar-09 17:51:17] : REL 4 has LOS to [ANT 6, REL 3, REL 1, COL 1, COL 2, COL 12]
[2014-Mar-09 17:51:17] : REL 4 has LOS to target COL 1.. REL 4 forwards [MSN 3] to COL 1. 
[2014-Mar-09 17:51:17] : COL 1 has LOS to [ANT 2, REL 4]
[2014-Mar-09 17:51:17] : COL 1 has no LOS to target ANT 1.. COL 1 forwards [SGN 1] to COL 1. 
[2014-Mar-09 17:51:18] : ANT 6 receives [MSN 4] from COM 1. 
)[2014-Mar-09 17:51:18] : ANT 6 has LOS to [REL 4, COL 9, COL 10]
[2014-Mar-09 17:51:18] : ANT 6 has no LOS to target COL 2.. ANT 6 forwards [MSN 4] to REL 4. 
[2014-Mar-09 17:51:18] : COL 2 has LOS to [ANT 2, REL 4]
[2014-Mar-09 17:51:18] : COL 2 has no LOS to target ANT 1.. COL 2 forwards [SGN 2] to COL 2. 
[2014-Mar-09 17:51:19] : [MSN 4] gets relayed to REL 4. 
)[2014-Mar-09 17:51:19] : REL 4 has LOS to [ANT 6, REL 3, REL 1, COL 1, COL 2, COL 12]
[2014-Mar-09 17:51:19] : REL 4 has LOS to target COL 2.. REL 4 forwards [MSN 4] to COL 2. 
[2014-Mar-09 17:51:19] : COL 2 has LOS to [ANT 2, REL 4]
[2014-Mar-09 17:51:19] : COL 2 has no LOS to target ANT 1.. COL 2 forwards [SGN 2] to COL 2. 
[2014-Mar-09 17:51:19] : COL 1 receives [MSN 3]. 
)[2014-Mar-09 17:51:20] : SGN 3 [Target: ANT 4] has been created. 
[2014-Mar-09 17:51:20] : COL 2 has LOS to [ANT 3, REL 4]
[2014-Mar-09 17:51:20] : COL 2 has no LOS to target ANT 1.. COL 2 forwards [SGN 2] to COL 2. 
[2014-Mar-09 17:51:21] : COL 1 has LOS to [ANT 3, REL 3]
[2014-Mar-09 17:51:21] : COL 1 has no LOS to target ANT 1.. COL 1 forwards [SGN 1] to COL 1. 
[2014-Mar-09 17:51:21] : New Mission arrived.. MSN 5 [Target: COL 1, Duration: 9300] has been created. 
[2014-Mar-09 17:51:21] : MPL sends [MSN 5] to COM 2.

[2014-Mar-09 17:51:21] : MPL is done loading missions. 

[2014-Mar-09 17:51:21] : COM 3 is done forwarding missions. 

[2014-Mar-09 17:51:21] : COM 1 is done forwarding missions. 

[2014-Mar-09 17:51:22] : COL 2 has LOS to [ANT 3, REL 4]
[2014-Mar-09 17:51:22] : COL 2 has no LOS to target ANT 1.. COL 2 forwards [SGN 2] to COL 2. 
[2014-Mar-09 17:51:22] : COL 1 has LOS to [ANT 3, REL 3]
[2014-Mar-09 17:51:22] : COL 1 has no LOS to target ANT 1.. COL 1 forwards [SGN 1] to COL 1. 
[2014-Mar-09 17:51:22] : COM 2 receives [MSN 5] from MPL. 
)[2014-Mar-09 17:51:22] : COM 2 forwards [MSN 5] to ANT 2. 
[2014-Mar-09 17:51:22] : COM 2 is done forwarding missions. 

[2014-Mar-09 17:51:23] : COL 1 has LOS to [ANT 3, REL 3]
[2014-Mar-09 17:51:23] : COL 1 has no LOS to target ANT 1.. COL 1 forwards [SGN 1] to COL 1. 
[2014-Mar-09 17:51:23] : ANT 2 receives [MSN 5] from COM 2. 
)[2014-Mar-09 17:51:23] : ANT 2 has LOS to [REL 2, COL 11, COL 12]
[2014-Mar-09 17:51:23] : ANT 2 has no LOS to target COL 1.. ANT 2 forwards [MSN 5] to ANT 2. 
[2014-Mar-09 17:51:24] : COL 2 receives [MSN 4]. 
)[2014-Mar-09 17:51:24] : ANT 2 receives [MSN 5] from ANT 2. 
)[2014-Mar-09 17:51:24] : ANT 2 has LOS to [REL 2, COL 11, COL 12]
[2014-Mar-09 17:51:24] : ANT 2 has no LOS to target COL 1.. ANT 2 forwards [MSN 5] to ANT 2. 
[2014-Mar-09 17:51:25] : SGN 4 [Target: ANT 6] has been created. 
[2014-Mar-09 17:51:25] : COL 1 has LOS to [ANT 3, REL 3]
[2014-Mar-09 17:51:25] : COL 1 has no LOS to target ANT 1.. COL 1 forwards [SGN 1] to COL 1. 
[2014-Mar-09 17:51:25] : COL 2 has LOS to [ANT 3, REL 4]
[2014-Mar-09 17:51:25] : COL 2 has no LOS to target ANT 1.. COL 2 forwards [SGN 2] to COL 2. 
[2014-Mar-09 17:51:25] : ANT 2 receives [MSN 5] from ANT 2. 
)[2014-Mar-09 17:51:25] : ANT 2 has LOS to [REL 2, COL 11, COL 12]
[2014-Mar-09 17:51:25] : ANT 2 has no LOS to target COL 1.. ANT 2 forwards [MSN 5] to ANT 2. 
[2014-Mar-09 17:51:26] : COL 1 has LOS to [ANT 3, REL 3]
[2014-Mar-09 17:51:26] : COL 1 has no LOS to target ANT 1.. COL 1 forwards [SGN 1] to COL 1. 
[2014-Mar-09 17:51:26] : COL 2 has LOS to [ANT 3, REL 4]
[2014-Mar-09 17:51:26] : COL 2 has no LOS to target ANT 1.. COL 2 forwards [SGN 2] to COL 2. 
[2014-Mar-09 17:51:26] : ANT 2 receives [MSN 5] from ANT 2. 
)[2014-Mar-09 17:51:26] : ANT 2 has LOS to [REL 2, COL 11, COL 12]
[2014-Mar-09 17:51:26] : ANT 2 has no LOS to target COL 1.. ANT 2 forwards [MSN 5] to ANT 2. 
[2014-Mar-09 17:51:27] : COL 1 has LOS to [ANT 3, REL 3]
[2014-Mar-09 17:51:27] : COL 1 has no LOS to target ANT 1.. COL 1 forwards [SGN 1] to COL 1. 
[2014-Mar-09 17:51:27] : COL 2 has LOS to [ANT 3, REL 4]
[2014-Mar-09 17:51:27] : COL 2 has no LOS to target ANT 1.. COL 2 forwards [SGN 2] to COL 2. 
[2014-Mar-09 17:51:27] : ANT 2 receives [MSN 5] from ANT 2. 
)[2014-Mar-09 17:51:27] : ANT 2 has LOS to [REL 2, COL 11, COL 12]
[2014-Mar-09 17:51:27] : ANT 2 has no LOS to target COL 1.. ANT 2 forwards [MSN 5] to ANT 2. 
[2014-Mar-09 17:51:28] : COL 1 has LOS to [ANT 3, REL 3]
[2014-Mar-09 17:51:28] : COL 1 has no LOS to target ANT 1.. COL 1 forwards [SGN 1] to COL 1. 
[2014-Mar-09 17:51:28] : COL 2 has LOS to [ANT 3, REL 4]
[2014-Mar-09 17:51:28] : COL 2 has no LOS to target ANT 1.. COL 2 forwards [SGN 2] to COL 2. 
[2014-Mar-09 17:51:28] : ANT 2 receives [MSN 5] from ANT 2. 
)[2014-Mar-09 17:51:28] : ANT 2 has LOS to [REL 2, COL 11, COL 12]
[2014-Mar-09 17:51:28] : ANT 2 has no LOS to target COL 1.. ANT 2 forwards [MSN 5] to ANT 2. 
[2014-Mar-09 17:51:29] : COL 1 has LOS to [ANT 3, REL 3]
[2014-Mar-09 17:51:29] : COL 1 has no LOS to target ANT 1.. COL 1 forwards [SGN 1] to COL 1. 
[2014-Mar-09 17:51:29] : COL 2 has LOS to [ANT 3, REL 4]
[2014-Mar-09 17:51:29] : COL 2 has no LOS to target ANT 1.. COL 2 forwards [SGN 2] to COL 2. 
[2014-Mar-09 17:51:29] : ANT 2 receives [MSN 5] from ANT 2. 
)[2014-Mar-09 17:51:29] : ANT 2 has LOS to [REL 2, COL 11, COL 12]
[2014-Mar-09 17:51:29] : ANT 2 has no LOS to target COL 1.. ANT 2 forwards [MSN 5] to ANT 2. 
[2014-Mar-09 17:51:30] : COL 1 has LOS to [ANT 4, REL 3]
[2014-Mar-09 17:51:30] : COL 1 has no LOS to target ANT 1.. COL 1 forwards [SGN 1] to COL 1. 
[2014-Mar-09 17:51:30] : COL 2 has LOS to [ANT 4, REL 3]
[2014-Mar-09 17:51:30] : COL 2 has no LOS to target ANT 1.. COL 2 forwards [SGN 2] to COL 2. 
[2014-Mar-09 17:51:30] : ANT 2 receives [MSN 5] from ANT 2. 
)[2014-Mar-09 17:51:31] : ANT 2 has LOS to [REL 2, COL 9, COL 10]
[2014-Mar-09 17:51:31] : ANT 2 has no LOS to target COL 1.. ANT 2 forwards [MSN 5] to ANT 2. 
[2014-Mar-09 17:51:31] : COL 1 has LOS to [ANT 4, REL 3]
[2014-Mar-09 17:51:31] : COL 1 has no LOS to target ANT 1.. COL 1 forwards [SGN 1] to COL 1. 
[2014-Mar-09 17:51:31] : COL 2 has LOS to [ANT 4, REL 3]
[2014-Mar-09 17:51:31] : COL 2 has no LOS to target ANT 1.. COL 2 forwards [SGN 2] to COL 2. 
[2014-Mar-09 17:51:32] : ANT 2 receives [MSN 5] from ANT 2. 
)[2014-Mar-09 17:51:32] : ANT 2 has LOS to [REL 2, COL 9, COL 10]
[2014-Mar-09 17:51:32] : ANT 2 has no LOS to target COL 1.. ANT 2 forwards [MSN 5] to ANT 2. 
[2014-Mar-09 17:51:32] : COL 1 has LOS to [ANT 4, REL 3]
[2014-Mar-09 17:51:32] : COL 1 has no LOS to target ANT 1.. COL 1 forwards [SGN 1] to COL 1. 
[2014-Mar-09 17:51:32] : COL 2 has LOS to [ANT 4, REL 3]
[2014-Mar-09 17:51:32] : COL 2 has no LOS to target ANT 1.. COL 2 forwards [SGN 2] to COL 2. 
[2014-Mar-09 17:51:33] : ANT 2 receives [MSN 5] from ANT 2. 
)[2014-Mar-09 17:51:33] : ANT 2 has LOS to [REL 2, COL 9, COL 10]
[2014-Mar-09 17:51:33] : ANT 2 has no LOS to target COL 1.. ANT 2 forwards [MSN 5] to ANT 2. 
[2014-Mar-09 17:51:33] : COL 1 has LOS to [ANT 4, REL 3]
[2014-Mar-09 17:51:33] : COL 1 has no LOS to target ANT 1.. COL 1 forwards [SGN 1] to COL 1. 
[2014-Mar-09 17:51:33] : COL 2 has LOS to [ANT 4, REL 3]
[2014-Mar-09 17:51:33] : COL 2 has no LOS to target ANT 1.. COL 2 forwards [SGN 2] to COL 2. 
[2014-Mar-09 17:51:34] : ANT 2 receives [MSN 5] from ANT 2. 
)[2014-Mar-09 17:51:34] : ANT 2 has LOS to [REL 2, COL 9, COL 10]
[2014-Mar-09 17:51:34] : ANT 2 has no LOS to target COL 1.. ANT 2 forwards [MSN 5] to ANT 2. 
[2014-Mar-09 17:51:34] : COL 1 has LOS to [ANT 4, REL 3]
[2014-Mar-09 17:51:34] : COL 1 has no LOS to target ANT 1.. COL 1 forwards [SGN 1] to COL 1. 
[2014-Mar-09 17:51:34] : COL 2 has LOS to [ANT 4, REL 3]
[2014-Mar-09 17:51:34] : COL 2 has no LOS to target ANT 1.. COL 2 forwards [SGN 2] to COL 2. 
[2014-Mar-09 17:51:35] : ANT 2 receives [MSN 5] from ANT 2. 
)[2014-Mar-09 17:51:35] : ANT 2 has LOS to [REL 2, COL 9, COL 10]
[2014-Mar-09 17:51:35] : ANT 2 has no LOS to target COL 1.. ANT 2 forwards [MSN 5] to ANT 2. 
[2014-Mar-09 17:51:35] : COL 1 has LOS to [ANT 4, REL 3]
[2014-Mar-09 17:51:35] : COL 1 has no LOS to target ANT 1.. COL 1 forwards [SGN 1] to COL 1. 
[2014-Mar-09 17:51:35] : COL 2 has LOS to [ANT 4, REL 3]
[2014-Mar-09 17:51:35] : COL 2 has no LOS to target ANT 1.. COL 2 forwards [SGN 2] to COL 2. 
[2014-Mar-09 17:51:36] : ANT 2 receives [MSN 5] from ANT 2. 
)[2014-Mar-09 17:51:36] : ANT 2 has LOS to [REL 2, COL 9, COL 10]
[2014-Mar-09 17:51:36] : ANT 2 has no LOS to target COL 1.. ANT 2 forwards [MSN 5] to ANT 2. 
[2014-Mar-09 17:51:36] : COL 1 has LOS to [ANT 4, REL 3]
[2014-Mar-09 17:51:36] : COL 1 has no LOS to target ANT 1.. COL 1 forwards [SGN 1] to COL 1. 
[2014-Mar-09 17:51:36] : COL 2 has LOS to [ANT 4, REL 3]
[2014-Mar-09 17:51:36] : COL 2 has no LOS to target ANT 1.. COL 2 forwards [SGN 2] to COL 2. 
[2014-Mar-09 17:51:37] : ANT 2 receives [MSN 5] from ANT 2. 
)[2014-Mar-09 17:51:37] : ANT 2 has LOS to [REL 2, COL 9, COL 10]
[2014-Mar-09 17:51:37] : ANT 2 has no LOS to target COL 1.. ANT 2 forwards [MSN 5] to ANT 2. 
[2014-Mar-09 17:51:37] : COL 1 has LOS to [ANT 4, REL 3]
[2014-Mar-09 17:51:37] : COL 1 has no LOS to target ANT 1.. COL 1 forwards [SGN 1] to COL 1. 
[2014-Mar-09 17:51:37] : COL 2 has LOS to [ANT 4, REL 3]
[2014-Mar-09 17:51:37] : COL 2 has no LOS to target ANT 1.. COL 2 forwards [SGN 2] to COL 2. 
[2014-Mar-09 17:51:38] : ANT 2 receives [MSN 5] from ANT 2. 
)[2014-Mar-09 17:51:38] : ANT 2 has LOS to [REL 2, COL 9, COL 10]
[2014-Mar-09 17:51:38] : ANT 2 has no LOS to target COL 1.. ANT 2 forwards [MSN 5] to ANT 2. 
[2014-Mar-09 17:51:38] : COL 1 has LOS to [ANT 4, REL 3]
[2014-Mar-09 17:51:38] : COL 1 has no LOS to target ANT 1.. COL 1 forwards [SGN 1] to COL 1. 
[2014-Mar-09 17:51:38] : COL 2 has LOS to [ANT 4, REL 3]
[2014-Mar-09 17:51:38] : COL 2 has no LOS to target ANT 1.. COL 2 forwards [SGN 2] to COL 2. 
[2014-Mar-09 17:51:39] : ANT 2 receives [MSN 5] from ANT 2. 
)[2014-Mar-09 17:51:39] : ANT 2 has LOS to [REL 2, COL 9, COL 10]
[2014-Mar-09 17:51:39] : ANT 2 has no LOS to target COL 1.. ANT 2 forwards [MSN 5] to ANT 2. 
[2014-Mar-09 17:51:39] : COL 1 has LOS to [ANT 4, REL 3]
[2014-Mar-09 17:51:39] : COL 1 has no LOS to target ANT 1.. COL 1 forwards [SGN 1] to COL 1. 
[2014-Mar-09 17:51:39] : COL 2 has LOS to [ANT 4, REL 3]
[2014-Mar-09 17:51:39] : COL 2 has no LOS to target ANT 1.. COL 2 forwards [SGN 2] to COL 2. 
[2014-Mar-09 17:51:40] : ANT 2 receives [MSN 5] from ANT 2. 
)[2014-Mar-09 17:51:40] : ANT 2 has LOS to [REL 2, COL 7, COL 8]
[2014-Mar-09 17:51:40] : ANT 2 has no LOS to target COL 1.. ANT 2 forwards [MSN 5] to ANT 2. 
[2014-Mar-09 17:51:40] : COL 1 has LOS to [ANT 5, REL 2]
[2014-Mar-09 17:51:40] : COL 1 has no LOS to target ANT 1.. COL 1 forwards [SGN 1] to COL 1. 
[2014-Mar-09 17:51:40] : COL 2 has LOS to [ANT 5, REL 2]
[2014-Mar-09 17:51:40] : COL 2 has no LOS to target ANT 1.. COL 2 forwards [SGN 2] to COL 2. 
[2014-Mar-09 17:51:41] : ANT 2 receives [MSN 5] from ANT 2. 
)[2014-Mar-09 17:51:41] : ANT 2 has LOS to [REL 2, COL 7, COL 8]
[2014-Mar-09 17:51:41] : ANT 2 has no LOS to target COL 1.. ANT 2 forwards [MSN 5] to ANT 2. 
[2014-Mar-09 17:51:41] : COL 1 has LOS to [ANT 5, REL 2]
[2014-Mar-09 17:51:41] : COL 1 has no LOS to target ANT 1.. COL 1 forwards [SGN 1] to COL 1. 
[2014-Mar-09 17:51:42] : COL 2 has LOS to [ANT 5, REL 2]
[2014-Mar-09 17:51:42] : COL 2 has no LOS to target ANT 1.. COL 2 forwards [SGN 2] to COL 2. 
[2014-Mar-09 17:51:42] : ANT 2 receives [MSN 5] from ANT 2. 
)[2014-Mar-09 17:51:43] : ANT 2 has LOS to [REL 2, COL 7, COL 8]
[2014-Mar-09 17:51:43] : ANT 2 has no LOS to target COL 1.. ANT 2 forwards [MSN 5] to ANT 2. 
[2014-Mar-09 17:51:43] : COL 1 has LOS to [ANT 5, REL 2]
[2014-Mar-09 17:51:43] : COL 1 has no LOS to target ANT 1.. COL 1 forwards [SGN 1] to COL 1. 
[2014-Mar-09 17:51:43] : COL 2 has LOS to [ANT 5, REL 2]
[2014-Mar-09 17:51:43] : COL 2 has no LOS to target ANT 1.. COL 2 forwards [SGN 2] to COL 2. 
[2014-Mar-09 17:51:44] : ANT 2 receives [MSN 5] from ANT 2. 
)[2014-Mar-09 17:51:44] : COL 1 has LOS to [ANT 5, REL 2]
[2014-Mar-09 17:51:44] : COL 1 has no LOS to target ANT 1.. COL 1 forwards [SGN 1] to COL 1. 
[2014-Mar-09 17:51:44] : ANT 2 has LOS to [REL 2, COL 7, COL 8]
[2014-Mar-09 17:51:44] : ANT 2 has no LOS to target COL 1.. ANT 2 forwards [MSN 5] to ANT 2. 
[2014-Mar-09 17:51:44] : COL 2 has LOS to [ANT 5, REL 2]
[2014-Mar-09 17:51:44] : COL 2 has no LOS to target ANT 1.. COL 2 forwards [SGN 2] to COL 2. 
[2014-Mar-09 17:51:45] : COL 1 has LOS to [ANT 5, REL 2]
[2014-Mar-09 17:51:45] : COL 1 has no LOS to target ANT 1.. COL 1 forwards [SGN 1] to COL 1. 
[2014-Mar-09 17:51:45] : ANT 2 receives [MSN 5] from ANT 2. 
)[2014-Mar-09 17:51:45] : COL 2 has LOS to [ANT 5, REL 2]
[2014-Mar-09 17:51:45] : COL 2 has no LOS to target ANT 1.. COL 2 forwards [SGN 2] to COL 2. 
[2014-Mar-09 17:51:45] : ANT 2 has LOS to [REL 2, COL 7, COL 8]
[2014-Mar-09 17:51:45] : ANT 2 has no LOS to target COL 1.. ANT 2 forwards [MSN 5] to ANT 2. 
[2014-Mar-09 17:51:46] : COL 1 has LOS to [ANT 5, REL 2]
[2014-Mar-09 17:51:46] : COL 1 has no LOS to target ANT 1.. COL 1 forwards [SGN 1] to COL 1. 
[2014-Mar-09 17:51:46] : COL 2 has LOS to [ANT 5, REL 2]
[2014-Mar-09 17:51:46] : COL 2 has no LOS to target ANT 1.. [2014-Mar-09 17:51:46] : ANT 2 receives [MSN 5] from ANT 2. 
)COL 2 forwards [SGN 2] to COL 2. 
[2014-Mar-09 17:51:46] : ANT 2 has LOS to [REL 2, COL 7, COL 8]
[2014-Mar-09 17:51:46] : ANT 2 has no LOS to target COL 1.. ANT 2 forwards [MSN 5] to ANT 2. 
[2014-Mar-09 17:51:47] : COL 1 has LOS to [ANT 5, REL 2]
[2014-Mar-09 17:51:47] : COL 1 has no LOS to target ANT 1.. COL 1 forwards [SGN 1] to COL 1. 
[2014-Mar-09 17:51:47] : COL 2 has LOS to [ANT 5, REL 2]
[2014-Mar-09 17:51:47] : COL 2 has no LOS to target ANT 1.. COL 2 forwards [SGN 2] to COL 2. 
[2014-Mar-09 17:51:47] : ANT 2 receives [MSN 5] from ANT 2. 
)[2014-Mar-09 17:51:47] : ANT 2 has LOS to [REL 2, COL 7, COL 8]
[2014-Mar-09 17:51:47] : ANT 2 has no LOS to target COL 1.. ANT 2 forwards [MSN 5] to ANT 2. 
[2014-Mar-09 17:51:48] : COL 1 has LOS to [ANT 5, REL 2]
[2014-Mar-09 17:51:48] : COL 1 has no LOS to target ANT 1.. COL 1 forwards [SGN 1] to COL 1. 
[2014-Mar-09 17:51:48] : COL 2 has LOS to [ANT 5, REL 2]
[2014-Mar-09 17:51:48] : COL 2 has no LOS to target ANT 1.. COL 2 forwards [SGN 2] to COL 2. 
[2014-Mar-09 17:51:48] : ANT 2 receives [MSN 5] from ANT 2. 
)[2014-Mar-09 17:51:48] : ANT 2 has LOS to [REL 2, COL 7, COL 8]
[2014-Mar-09 17:51:48] : ANT 2 has no LOS to target COL 1.. ANT 2 forwards [MSN 5] to ANT 2. 
[2014-Mar-09 17:51:49] : COL 1 has LOS to [ANT 5, REL 2]
[2014-Mar-09 17:51:49] : COL 1 has no LOS to target ANT 1.. COL 1 forwards [SGN 1] to COL 1. 
[2014-Mar-09 17:51:49] : COL 2 has LOS to [ANT 5, REL 2]
[2014-Mar-09 17:51:49] : COL 2 has no LOS to target ANT 1.. COL 2 forwards [SGN 2] to COL 2. 
[2014-Mar-09 17:51:49] : ANT 2 receives [MSN 5] from ANT 2. 
)[2014-Mar-09 17:51:49] : ANT 2 has LOS to [REL 2, COL 7, COL 8]
[2014-Mar-09 17:51:49] : ANT 2 has no LOS to target COL 1.. ANT 2 forwards [MSN 5] to ANT 2. 
[2014-Mar-09 17:51:50] : COL 1 has LOS to [ANT 6, REL 1]
[2014-Mar-09 17:51:50] : COL 1 has no LOS to target ANT 1.. COL 1 forwards [SGN 1] to COL 1. 
[2014-Mar-09 17:51:50] : COL 2 has LOS to [ANT 6, REL 2]
[2014-Mar-09 17:51:50] : COL 2 has no LOS to target ANT 1.. COL 2 forwards [SGN 2] to COL 2. 
[2014-Mar-09 17:51:50] : ANT 2 receives [MSN 5] from ANT 2. 
)[2014-Mar-09 17:51:50] : ANT 2 has LOS to [REL 2, COL 5, COL 6]
[2014-Mar-09 17:51:50] : ANT 2 has no LOS to target COL 1.. ANT 2 forwards [MSN 5] to ANT 2. 
[2014-Mar-09 17:51:51] : COL 1 has LOS to [ANT 6, REL 1]
[2014-Mar-09 17:51:51] : COL 1 has no LOS to target ANT 1.. COL 1 forwards [SGN 1] to COL 1. 
[2014-Mar-09 17:51:51] : COL 2 has LOS to [ANT 6, REL 2]
[2014-Mar-09 17:51:51] : COL 2 has no LOS to target ANT 1.. COL 2 forwards [SGN 2] to COL 2. 
[2014-Mar-09 17:51:51] : ANT 2 receives [MSN 5] from ANT 2. 
)[2014-Mar-09 17:51:51] : ANT 2 has LOS to [REL 2, COL 5, COL 6]
[2014-Mar-09 17:51:51] : ANT 2 has no LOS to target COL 1.. ANT 2 forwards [MSN 5] to ANT 2. 
[2014-Mar-09 17:51:52] : COL 1 has LOS to [ANT 6, REL 1]
[2014-Mar-09 17:51:52] : COL 1 has no LOS to target ANT 1.. COL 1 forwards [SGN 1] to COL 1. 
[2014-Mar-09 17:51:52] : COL 2 has LOS to [ANT 6, REL 2]
[2014-Mar-09 17:51:52] : COL 2 has no LOS to target ANT 1.. COL 2 forwards [SGN 2] to COL 2. 
[2014-Mar-09 17:51:52] : ANT 2 receives [MSN 5] from ANT 2. 
)[2014-Mar-09 17:51:52] : ANT 2 has LOS to [REL 2, COL 5, COL 6]
[2014-Mar-09 17:51:52] : ANT 2 has no LOS to target COL 1.. ANT 2 forwards [MSN 5] to ANT 2. 
[2014-Mar-09 17:51:53] : COL 1 has LOS to [ANT 6, REL 1]
[2014-Mar-09 17:51:53] : COL 1 has no LOS to target ANT 1.. COL 1 forwards [SGN 1] to COL 1. 
[2014-Mar-09 17:51:53] : COL 2 has LOS to [ANT 6, REL 2]
[2014-Mar-09 17:51:53] : COL 2 has no LOS to target ANT 1.. COL 2 forwards [SGN 2] to COL 2. 
[2014-Mar-09 17:51:53] : ANT 2 receives [MSN 5] from ANT 2. 
)[2014-Mar-09 17:51:53] : ANT 2 has LOS to [REL 2, COL 5, COL 6]
[2014-Mar-09 17:51:53] : ANT 2 has no LOS to target COL 1.. ANT 2 forwards [MSN 5] to ANT 2. 
[2014-Mar-09 17:51:54] : COL 1 has LOS to [ANT 6, REL 1]
[2014-Mar-09 17:51:54] : COL 1 has no LOS to target ANT 1.. COL 1 forwards [SGN 1] to COL 1. 
[2014-Mar-09 17:51:54] : COL 2 has LOS to [ANT 6, REL 2]
[2014-Mar-09 17:51:54] : COL 2 has no LOS to target ANT 1.. COL 2 forwards [SGN 2] to COL 2. 
[2014-Mar-09 17:51:55] : ANT 2 receives [MSN 5] from ANT 2. 
)[2014-Mar-09 17:51:55] : ANT 2 has LOS to [REL 2, COL 5, COL 6]
[2014-Mar-09 17:51:55] : ANT 2 has no LOS to target COL 1.. ANT 2 forwards [MSN 5] to ANT 2. 
[2014-Mar-09 17:51:55] : COL 1 has LOS to [ANT 6, REL 1]
[2014-Mar-09 17:51:55] : COL 1 has no LOS to target ANT 1.. COL 1 forwards [SGN 1] to COL 1. 
[2014-Mar-09 17:51:55] : COL 2 has LOS to [ANT 6, REL 2]
[2014-Mar-09 17:51:55] : COL 2 has no LOS to target ANT 1.. COL 2 forwards [SGN 2] to COL 2. 
[2014-Mar-09 17:51:56] : ANT 2 receives [MSN 5] from ANT 2. 
)[2014-Mar-09 17:51:56] : ANT 2 has LOS to [REL 2, COL 5, COL 6]
[2014-Mar-09 17:51:56] : ANT 2 has no LOS to target COL 1.. ANT 2 forwards [MSN 5] to ANT 2. 
[2014-Mar-09 17:51:56] : COL 1 has LOS to [ANT 6, REL 1]
[2014-Mar-09 17:51:56] : COL 1 has no LOS to target ANT 1.. COL 1 forwards [SGN 1] to COL 1. 
[2014-Mar-09 17:51:56] : COL 2 has LOS to [ANT 6, REL 2]
[2014-Mar-09 17:51:56] : COL 2 has no LOS to target ANT 1.. COL 2 forwards [SGN 2] to COL 2. 
[2014-Mar-09 17:51:57] : ANT 2 receives [MSN 5] from ANT 2. 
)[2014-Mar-09 17:51:57] : ANT 2 has LOS to [REL 2, COL 5, COL 6]
[2014-Mar-09 17:51:57] : ANT 2 has no LOS to target COL 1.. ANT 2 forwards [MSN 5] to ANT 2. 
[2014-Mar-09 17:51:57] : COL 1 has LOS to [ANT 6, REL 1]
[2014-Mar-09 17:51:57] : COL 1 has no LOS to target ANT 1.. COL 1 forwards [SGN 1] to COL 1. 
[2014-Mar-09 17:51:57] : COL 2 has LOS to [ANT 6, REL 2]
[2014-Mar-09 17:51:57] : COL 2 has no LOS to target ANT 1.. COL 2 forwards [SGN 2] to COL 2. 
[2014-Mar-09 17:51:58] : ANT 2 receives [MSN 5] from ANT 2. 
)[2014-Mar-09 17:51:58] : ANT 2 has LOS to [REL 2, COL 5, COL 6]
[2014-Mar-09 17:51:58] : ANT 2 has no LOS to target COL 1.. ANT 2 forwards [MSN 5] to ANT 2. 
[2014-Mar-09 17:51:58] : COL 1 has LOS to [ANT 6, REL 1]
[2014-Mar-09 17:51:58] : COL 1 has no LOS to target ANT 1.. COL 1 forwards [SGN 1] to COL 1. 
[2014-Mar-09 17:51:58] : COL 2 has LOS to [ANT 6, REL 2]
[2014-Mar-09 17:51:58] : COL 2 has no LOS to target ANT 1.. COL 2 forwards [SGN 2] to COL 2. 
[2014-Mar-09 17:51:59] : ANT 2 receives [MSN 5] from ANT 2. 
)[2014-Mar-09 17:51:59] : ANT 2 has LOS to [REL 2, COL 5, COL 6]
[2014-Mar-09 17:51:59] : ANT 2 has no LOS to target COL 1.. ANT 2 forwards [MSN 5] to ANT 2. 
[2014-Mar-09 17:51:59] : COL 1 has LOS to [ANT 6, REL 1]
[2014-Mar-09 17:51:59] : COL 1 has no LOS to target ANT 1.. COL 1 forwards [SGN 1] to COL 1. 
[2014-Mar-09 17:51:59] : COL 2 has LOS to [ANT 6, REL 2]
[2014-Mar-09 17:51:59] : COL 2 has no LOS to target ANT 1.. COL 2 forwards [SGN 2] to COL 2. 
[2014-Mar-09 17:52:00] : ANT 2 receives [MSN 5] from ANT 2. 
)[2014-Mar-09 17:52:00] : ANT 2 has LOS to [REL 2, COL 3, COL 4]
[2014-Mar-09 17:52:00] : ANT 2 has no LOS to target COL 1.. ANT 2 forwards [MSN 5] to ANT 2. 
[2014-Mar-09 17:52:00] : COL 1 has LOS to [ANT 1, REL 1]
[2014-Mar-09 17:52:00] : COL 1 has LOS to target ANT 1.. COL 1 forwards [SGN 1] to ANT 1. 
[2014-Mar-09 17:52:00] : ANT 1 receives [SGN 1]. 
)[2014-Mar-09 17:52:00] : ANT 1 receives [SGN 1]. 
)[2014-Mar-09 17:52:00] : ANT 1 receives [SGN 1]. 
)[2014-Mar-09 17:52:00] : ANT 1 receives [SGN 1]. 
)[2014-Mar-09 17:52:00] : ANT 1 receives [SGN 1]. 
)[2014-Mar-09 17:52:00] : ANT 1 receives [SGN 1]. 
)[2014-Mar-09 17:52:00] : ANT 1 receives [SGN 1]. 
)[2014-Mar-09 17:52:00] : ANT 1 receives [SGN 1]. 
)[2014-Mar-09 17:52:00] : ANT 1 receives [SGN 1]. 
)[2014-Mar-09 17:52:00] : COL 2 has LOS to [ANT 1, REL 1]
[2014-Mar-09 17:52:00] : COL 2 has LOS to target ANT 1.. [2014-Mar-09 17:52:00] : ANT 1 receives [SGN 1]. 
)[2014-Mar-09 17:52:00] : ANT 1 receives [SGN 1]. 
)COL 2 forwards [SGN 2] to ANT 1. 
[2014-Mar-09 17:52:01] : ANT 1 receives [SGN 1]. 
)[2014-Mar-09 17:52:01] : ANT 1 receives [SGN 1]. 
)[2014-Mar-09 17:52:01] : ANT 1 receives [SGN 1]. 
)[2014-Mar-09 17:52:01] : ANT 1 receives [SGN 1]. 
)[2014-Mar-09 17:52:01] : ANT 1 receives [SGN 1]. 
)[2014-Mar-09 17:52:01] : ANT 1 receives [SGN 1]. 
)[2014-Mar-09 17:52:01] : ANT 1 receives [SGN 1]. 
)[2014-Mar-09 17:52:01] : ANT 1 receives [SGN 1]. 
)[2014-Mar-09 17:52:01] : ANT 1 receives [SGN 1]. 
)[2014-Mar-09 17:52:01] : ANT 1 receives [SGN 1]. 
)[2014-Mar-09 17:52:01] : ANT 1 receives [SGN 1]. 
)[2014-Mar-09 17:52:01] : ANT 1 receives [SGN 1]. 
)[2014-Mar-09 17:52:01] : ANT 1 receives [SGN 1]. 
)[2014-Mar-09 17:52:01] : ANT 1 receives [SGN 1]. 
)[2014-Mar-09 17:52:01] : ANT 1 receives [SGN 1]. 
)[2014-Mar-09 17:52:01] : ANT 1 receives [SGN 1]. 
)[2014-Mar-09 17:52:01] : ANT 1 receives [SGN 1]. 
)[2014-Mar-09 17:52:01] : ANT 1 receives [SGN 1]. 
)[2014-Mar-09 17:52:01] : ANT 1 receives [SGN 1]. 
)[2014-Mar-09 17:52:01] : ANT 1 receives [SGN 1]. 
)[2014-Mar-09 17:52:01] : ANT 1 receives [SGN 1]. 
)[2014-Mar-09 17:52:01] : ANT 1 receives [SGN 1]. 
)[2014-Mar-09 17:52:01] : ANT 1 receives [SGN 1]. 
)[2014-Mar-09 17:52:01] : ANT 1 receives [SGN 1]. 
)[2014-Mar-09 17:52:01] : ANT 1 receives [SGN 1]. 
)[2014-Mar-09 17:52:01] : ANT 1 receives [SGN 1]. 
)[2014-Mar-09 17:52:01] : ANT 1 receives [SGN 2]. 
)[2014-Mar-09 17:52:01] : ANT 1 receives [SGN 2]. 
)[2014-Mar-09 17:52:01] : ANT 1 receives [SGN 2]. 
)[2014-Mar-09 17:52:01] : ANT 1 receives [SGN 2]. 
)[2014-Mar-09 17:52:01] : ANT 1 receives [SGN 2]. 
)[2014-Mar-09 17:52:01] : ANT 1 receives [SGN 2]. 
)[2014-Mar-09 17:52:01] : ANT 1 receives [SGN 2]. 
)[2014-Mar-09 17:52:01] : ANT 1 receives [SGN 2]. 
)[2014-Mar-09 17:52:01] : ANT 1 receives [SGN 2]. 
)[2014-Mar-09 17:52:01] : ANT 1 receives [SGN 2]. 
)[2014-Mar-09 17:52:01] : ANT 1 receives [SGN 2]. 
)[2014-Mar-09 17:52:01] : ANT 1 receives [SGN 2]. 
)[2014-Mar-09 17:52:01] : ANT 1 receives [SGN 2]. 
)[2014-Mar-09 17:52:01] : ANT 1 receives [SGN 2]. 
)[2014-Mar-09 17:52:01] : ANT 1 receives [SGN 2]. 
)[2014-Mar-09 17:52:01] : ANT 1 receives [SGN 2]. 
)[2014-Mar-09 17:52:01] : ANT 1 receives [SGN 2]. 
)[2014-Mar-09 17:52:01] : ANT 1 receives [SGN 2]. 
)[2014-Mar-09 17:52:01] : ANT 1 receives [SGN 2]. 
)[2014-Mar-09 17:52:01] : ANT 1 receives [SGN 2]. 
)[2014-Mar-09 17:52:01] : ANT 1 receives [SGN 2]. 
)[2014-Mar-09 17:52:01] : ANT 1 receives [SGN 2]. 
)[2014-Mar-09 17:52:01] : ANT 1 receives [SGN 2]. 
)[2014-Mar-09 17:52:01] : ANT 1 receives [SGN 2]. 
)[2014-Mar-09 17:52:01] : ANT 1 receives [SGN 2]. 
)[2014-Mar-09 17:52:01] : COL 1 has LOS to [[2014-Mar-09 17:52:01] : ANT 1 receives [SGN 2]. 
)ANT 1, REL 1]
[2014-Mar-09 17:52:01] : COL 1 has LOS to target ANT 1.. [2014-Mar-09 17:52:01] : ANT 1 receives [SGN 2]. 
)[2014-Mar-09 17:52:01] : ANT 1 receives [SGN 2]. 
)COL 1 forwards [SGN 1] to ANT 1. 
[2014-Mar-09 17:52:01] : ANT 1 receives [SGN 2]. 
)[2014-Mar-09 17:52:02] : ANT 1 receives [SGN 2]. 
)[2014-Mar-09 17:52:02] : COL 2 has LOS to [ANT 1, REL 1]
[2014-Mar-09 17:52:02] : ANT 1 receives [SGN 2]. 
)[2014-Mar-09 17:52:02] : ANT 1 receives [SGN 2]. 
)[2014-Mar-09 17:52:02] : ANT 1 receives [SGN 2]. 
)[2014-Mar-09 17:52:02] : ANT 1 receives [SGN 2]. 
)[2014-Mar-09 17:52:02] : COL 2 has LOS to target ANT 1.. COL 2 forwards [SGN 2] to ANT 1. 
[2014-Mar-09 17:52:02] : ANT 2 receives [MSN 5] from ANT 2. 
)[2014-Mar-09 17:52:02] : ANT 2 has LOS to [REL 2, COL 3, COL 4]
[2014-Mar-09 17:52:02] : ANT 2 has no LOS to target COL 1.. ANT 2 forwards [MSN 5] to ANT 2. 
[2014-Mar-09 17:52:02] : ANT 1 receives [SGN 1]. 
)[2014-Mar-09 17:52:02] : ANT 1 receives [SGN 2]. 
)[2014-Mar-09 17:52:02] : COL 1 has LOS to [[2014-Mar-09 17:52:02] : ANT 1 receives [SGN 1]. 
)ANT 1, REL 1]
[2014-Mar-09 17:52:03] : COL 1 has LOS to target ANT 1.. COL 1 forwards [SGN 1] to ANT 1. 
[2014-Mar-09 17:52:03] : COL 2 has LOS to [ANT 1, [2014-Mar-09 17:52:03] : ANT 1 receives [SGN 2]. 
)REL 1]
[2014-Mar-09 17:52:03] : COL 2 has LOS to target ANT 1.. COL 2 forwards [SGN 2] to ANT 1. 
[2014-Mar-09 17:52:03] : ANT 2 receives [MSN 5] from ANT 2. 
)[2014-Mar-09 17:52:03] : ANT 2 has LOS to [REL 2, COL 3, COL 4]
[2014-Mar-09 17:52:03] : ANT 2 has no LOS to target COL 1.. ANT 2 forwards [MSN 5] to ANT 2. 
[2014-Mar-09 17:52:04] : COL 1 has LOS to [ANT 1, REL 1]
[2014-Mar-09 17:52:04] : ANT 1 receives [SGN 1]. 
)[2014-Mar-09 17:52:04] : COL 1 has LOS to target ANT 1.. COL 1 forwards [SGN 1] to ANT 1. 
[2014-Mar-09 17:52:04] : COL 2 has LOS to [ANT 1, REL 1]
[2014-Mar-09 17:52:04] : ANT 1 receives [SGN 2]. 
)[2014-Mar-09 17:52:04] : COL 2 has LOS to target ANT 1.. COL 2 forwards [SGN 2] to ANT 1. 
[2014-Mar-09 17:52:04] : ANT 2 receives [MSN 5] from ANT 2. 
)[2014-Mar-09 17:52:04] : ANT 2 has LOS to [REL 2, COL 3, COL 4]
[2014-Mar-09 17:52:04] : ANT 2 has no LOS to target COL 1.. ANT 2 forwards [MSN 5] to ANT 2. 
[2014-Mar-09 17:52:05] : COL 1 has LOS to [ANT 1, REL 1]
[2014-Mar-09 17:52:05] : ANT 1 receives [SGN 1]. 
)[2014-Mar-09 17:52:05] : COL 1 has LOS to target ANT 1.. COL 1 forwards [SGN 1] to ANT 1. 
[2014-Mar-09 17:52:05] : COL 2 has LOS to [ANT 1, REL 1]
[2014-Mar-09 17:52:05] : COL 2 has LOS to target ANT 1.. [2014-Mar-09 17:52:05] : ANT 1 receives [SGN 2]. 
)COL 2 forwards [SGN 2] to ANT 1. 
[2014-Mar-09 17:52:05] : ANT 2 receives [MSN 5] from ANT 2. 
)[2014-Mar-09 17:52:05] : ANT 2 has LOS to [REL 2, COL 3, COL 4]
[2014-Mar-09 17:52:05] : ANT 2 has no LOS to target COL 1.. ANT 2 forwards [MSN 5] to ANT 2. 
[2014-Mar-09 17:52:06] : COL 1 has LOS to [ANT 1, REL 1]
[2014-Mar-09 17:52:06] : COL 1 has LOS to target ANT 1.. COL 1 forwards [SGN 1] to ANT 1. 
[2014-Mar-09 17:52:06] : ANT 1 receives [SGN 1]. 
)[2014-Mar-09 17:52:06] : COL 2 has LOS to [ANT 1, REL 1]
[2014-Mar-09 17:52:06] : COL 2 has LOS to target ANT 1.. [2014-Mar-09 17:52:06] : ANT 1 receives [SGN 2]. 
)COL 2 forwards [SGN 2] to ANT 1. 
[2014-Mar-09 17:52:06] : ANT 2 receives [MSN 5] from ANT 2. 
)[2014-Mar-09 17:52:06] : ANT 2 has LOS to [REL 2, COL 3, COL 4]
[2014-Mar-09 17:52:06] : ANT 2 has no LOS to target COL 1.. ANT 2 forwards [MSN 5] to ANT 2. 
[2014-Mar-09 17:52:07] : COL 1 has LOS to [ANT 1, REL 1]
[2014-Mar-09 17:52:07] : COL 1 has LOS to target ANT 1.. COL 1 forwards [SGN 1] to ANT 1. 
[2014-Mar-09 17:52:07] : ANT 1 receives [SGN 1]. 
)[2014-Mar-09 17:52:07] : COL 2 has LOS to [ANT 1, REL 1]
[2014-Mar-09 17:52:07] : COL 2 has LOS to target ANT 1.. [2014-Mar-09 17:52:07] : ANT 1 receives [SGN 2]. 
)COL 2 forwards [SGN 2] to ANT 1. 
[2014-Mar-09 17:52:07] : ANT 2 receives [MSN 5] from ANT 2. 
)[2014-Mar-09 17:52:07] : ANT 2 has LOS to [REL 2, COL 3, COL 4]
[2014-Mar-09 17:52:07] : ANT 2 has no LOS to target COL 1.. ANT 2 forwards [MSN 5] to ANT 2. 
[2014-Mar-09 17:52:08] : COL 1 has LOS to [ANT 1, REL 1]
[2014-Mar-09 17:52:08] : ANT 1 receives [SGN 1]. 
)[2014-Mar-09 17:52:08] : COL 1 has LOS to target ANT 1.. COL 1 forwards [SGN 1] to ANT 1. 
[2014-Mar-09 17:52:08] : COL 2 has LOS to [[2014-Mar-09 17:52:08] : ANT 1 receives [SGN 2]. 
)ANT 1, REL 1]
[2014-Mar-09 17:52:08] : COL 2 has LOS to target ANT 1.. COL 2 forwards [SGN 2] to ANT 1. 
[2014-Mar-09 17:52:08] : ANT 2 receives [MSN 5] from ANT 2. 
)[2014-Mar-09 17:52:08] : ANT 2 has LOS to [REL 2, COL 3, COL 4]
[2014-Mar-09 17:52:08] : ANT 2 has no LOS to target COL 1.. ANT 2 forwards [MSN 5] to ANT 2. 
[2014-Mar-09 17:52:09] : COL 1 has LOS to [[2014-Mar-09 17:52:09] : ANT 1 receives [SGN 1]. 
)ANT 1, REL 1]
[2014-Mar-09 17:52:09] : COL 1 has LOS to target ANT 1.. COL 1 forwards [SGN 1] to ANT 1. 
[2014-Mar-09 17:52:09] : COL 2 has LOS to [ANT 1, REL 1]
[2014-Mar-09 17:52:09] : COL 2 has LOS to target ANT 1.. [2014-Mar-09 17:52:09] : ANT 1 receives [SGN 2]. 
)COL 2 forwards [SGN 2] to ANT 1. 
[2014-Mar-09 17:52:09] : ANT 2 receives [MSN 5] from ANT 2. 
)[2014-Mar-09 17:52:09] : ANT 2 has LOS to [REL 2, COL 3, COL 4]
[2014-Mar-09 17:52:09] : ANT 2 has no LOS to target COL 1.. ANT 2 forwards [MSN 5] to ANT 2. 
[2014-Mar-09 17:52:10] : COL 1 has LOS to [ANT 2, REL 4]
[2014-Mar-09 17:52:10] : COL 1 has no LOS to target ANT 1.. [2014-Mar-09 17:52:10] : ANT 1 receives [SGN 1]. 
)COL 1 forwards [SGN 1] to COL 1. 
[2014-Mar-09 17:52:10] : COL 2 has LOS to [ANT 2,