[2014-Mar-04 09:36:57] : Preparing Dynamic Window Table.. DONE! 

[2014-Mar-04 09:36:57] : COM 1 has started.. 
[2014-Mar-04 09:36:57] : COM 2 has started.. 
[2014-Mar-04 09:36:57] : ANT 3 has started.. 
[2014-Mar-04 09:36:57] : ANT 5 has started.. 
[2014-Mar-04 09:36:57] : REL 3 has started.. 
[2014-Mar-04 09:36:57] : COL 3 has started.. 
[2014-Mar-04 09:36:57] : COL 7 has started.. 
[2014-Mar-04 09:36:57] : COL 11 has started.. 
[2014-Mar-04 09:36:57] : COL 10 has started.. 
[2014-Mar-04 09:36:57] : COL 9 has started.. 
[2014-Mar-04 09:36:57] : COL 8 has started.. 
[2014-Mar-04 09:36:57] : COL 6 has started.. 
[2014-Mar-04 09:36:57] : COL 5 has started.. 
[2014-Mar-04 09:36:57] : COL 4 has started.. 
[2014-Mar-04 09:36:57] : COL 2 has started.. 
[2014-Mar-04 09:36:57] : COL 1 has started.. 
[2014-Mar-04 09:36:57] : REL 4 has started.. 
[2014-Mar-04 09:36:57] : REL 2 has started.. 
[2014-Mar-04 09:36:57] : REL 1 has started.. 
[2014-Mar-04 09:36:57] : ANT 6 has started.. 
[2014-Mar-04 09:36:57] : ANT 4 has started.. 
[2014-Mar-04 09:36:57] : ANT 2 has started.. 
[2014-Mar-04 09:36:57] : ANT 1 has started.. 
[2014-Mar-04 09:36:57] : COM 3 has started.. 
[2014-Mar-04 09:36:57] : COL 12 has started.. 
[2014-Mar-04 09:36:58] : MPL has started.. 
[2014-Mar-04 09:36:58] : New Mission arrived.. MSN 1 [Target: COL 2, Duration: 4500] has been created. 
[2014-Mar-04 09:36:58] : MPL sends [MSN 1] to COM 1.
[2014-Mar-04 09:36:58] : New Mission arrived.. MSN 2 [Target: COL 3, Duration: 6700] has been created. 
[2014-Mar-04 09:36:58] : MPL sends [MSN 2] to COM 2.
[2014-Mar-04 09:36:59] : COM 1 receives [MSN 1] from MPL. 
)[2014-Mar-04 09:36:59] : COM 1 forwards [MSN 1] to ANT 1. 
[2014-Mar-04 09:36:59] : COM 2 receives [MSN 2] from MPL. 
)[2014-Mar-04 09:36:59] : COM 2 forwards [MSN 2] to ANT 1. 
[2014-Mar-04 09:37:00] : ANT 1 receives [MSN 1] from COM 1. 
)[2014-Mar-04 09:37:00] : ANT 1 has LOS to [REL 1, COL 1, COL 2]
[2014-Mar-04 09:37:00] : ANT 1 has LOS to target COL 2.. ANT 1 forwards [MSN 1] to COL 2. 
[2014-Mar-04 09:37:01] : COL 2 receives [MSN 1]. 
)[2014-Mar-04 09:37:01] : ANT 1 receives [MSN 2] from COM 2. 
)[2014-Mar-04 09:37:01] : ANT 1 has LOS to [REL 1, COL 1, COL 2]
[2014-Mar-04 09:37:01] : ANT 1 has no LOS to target COL 3.. ANT 1 forwards [MSN 2] to REL 1. 
[2014-Mar-04 09:37:02] : COL 2 has LOS to [ANT 1, REL 1]
[2014-Mar-04 09:37:02] : COL 2 has LOS to target ANT 1.. COL 2 forwards [SGN 1] to ANT 1. 
[2014-Mar-04 09:37:02] : [MSN 2] gets relayed to REL 1. 
)[2014-Mar-04 09:37:02] : REL 1 has LOS to [ANT 1, REL 2, REL 4, COL 1, COL 2, COL 3]
[2014-Mar-04 09:37:02] : REL 1 has LOS to target COL 3.. REL 1 forwards [MSN 2] to COL 3. 
[2014-Mar-04 09:37:03] : New Mission arrived.. MSN 3 [Target: COL 2, Duration: 4000] has been created. 
[2014-Mar-04 09:37:03] : MPL sends [MSN 3] to COM 3.
[2014-Mar-04 09:37:03] : COL 2 has LOS to [ANT 1, REL 1]
[2014-Mar-04 09:37:03] : COL 2 has LOS to target ANT 1.. COL 2 forwards [SGN 1] to ANT 1. 
[2014-Mar-04 09:37:03] : COL 3 receives [MSN 2]. 
)[2014-Mar-04 09:37:04] : COM 3 receives [MSN 3] from MPL. 
)[2014-Mar-04 09:37:04] : COM 3 forwards [MSN 3] to ANT 2. 
[2014-Mar-04 09:37:04] : COL 3 has LOS to [ANT 2, REL 1]
[2014-Mar-04 09:37:04] : COL 3 has no LOS to target ANT 1.. COL 3 forwards [SGN 2] to REL 1. 
[2014-Mar-04 09:37:04] : COL 2 has LOS to [ANT 1, REL 1]
[2014-Mar-04 09:37:04] : COL 2 has LOS to target ANT 1.. COL 2 forwards [SGN 1] to ANT 1. 
[2014-Mar-04 09:37:05] : ANT 2 receives [MSN 3] from COM 3. 
)[2014-Mar-04 09:37:05] : ANT 2 has LOS to [REL 2, COL 3, COL 4]
[2014-Mar-04 09:37:05] : ANT 2 has no LOS to target COL 2.. ANT 2 forwards [MSN 3] to REL 2. 
[2014-Mar-04 09:37:05] : New Mission arrived.. MSN 4 [Target: COL 3, Duration: 5100] has been created. 
[2014-Mar-04 09:37:05] : MPL sends [MSN 4] to COM 1.
[2014-Mar-04 09:37:05] : COL 3 has LOS to [ANT 2, REL 1]
[2014-Mar-04 09:37:05] : COL 3 has no LOS to target ANT 1.. COL 3 forwards [SGN 2] to REL 1. 
[2014-Mar-04 09:37:05] : COL 2 has LOS to [ANT 1, REL 1]
[2014-Mar-04 09:37:05] : COL 2 has LOS to target ANT 1.. COL 2 forwards [SGN 1] to ANT 1. 
[2014-Mar-04 09:37:06] : [MSN 3] gets relayed to REL 2. 
)[2014-Mar-04 09:37:06] : REL 2 has LOS to [ANT 2, ANT 3, REL 1, REL 3, COL 4, COL 5, COL 6]
[2014-Mar-04 09:37:06] : REL 2 has no LOS to target COL 2.. REL 2 forwards [MSN 3] to REL 3. 
[2014-Mar-04 09:37:06] : COM 1 receives [MSN 4] from MPL. 
)[2014-Mar-04 09:37:06] : COM 1 forwards [MSN 4] to ANT 2. 
[2014-Mar-04 09:37:06] : COL 3 has LOS to [ANT 2, REL 1]
[2014-Mar-04 09:37:06] : COL 3 has no LOS to target ANT 1.. COL 3 forwards [SGN 2] to REL 1. 
[2014-Mar-04 09:37:06] : COL 2 has LOS to [ANT 1, REL 1]
[2014-Mar-04 09:37:07] : COL 2 has LOS to target ANT 1.. COL 2 forwards [SGN 1] to ANT 1. 
[2014-Mar-04 09:37:07] : New Mission arrived.. MSN 5 [Target: COL 2, Duration: 4900] has been created. 
[2014-Mar-04 09:37:07] : MPL sends [MSN 5] to COM 2.
[2014-Mar-04 09:37:07] : [MSN 3] gets relayed to REL 3. 
)[2014-Mar-04 09:37:07] : REL 3 has LOS to [ANT 4, ANT 5, REL 2, REL 4, COL 7, COL 8, COL 9]
[2014-Mar-04 09:37:07] : REL 3 has no LOS to target COL 2.. REL 3 forwards [MSN 3] to REL 4. 
[2014-Mar-04 09:37:07] : ANT 2 receives [MSN 4] from COM 1. 
)[2014-Mar-04 09:37:07] : ANT 2 has LOS to [REL 2, COL 3, COL 4]
[2014-Mar-04 09:37:07] : ANT 2 has LOS to target COL 3.. ANT 2 forwards [MSN 4] to COL 3. 
[2014-Mar-04 09:37:07] : COL 3 has LOS to [ANT 2, REL 1]
[2014-Mar-04 09:37:08] : COL 3 has no LOS to target ANT 1.. COL 3 forwards [SGN 2] to REL 1. 
[2014-Mar-04 09:37:08] : COM 2 receives [MSN 5] from MPL. 
)[2014-Mar-04 09:37:08] : COM 2 forwards [MSN 5] to ANT 1. 
[2014-Mar-04 09:37:08] : [MSN 3] gets relayed to REL 4. 
)[2014-Mar-04 09:37:08] : REL 4 has LOS to [ANT 6, REL 3, REL 1, COL 10, COL 11, COL 12]
[2014-Mar-04 09:37:08] : REL 4 has no LOS to target COL 2.. REL 4 forwards [MSN 3] to REL 1. 
[2014-Mar-04 09:37:09] : COL 3 has LOS to [ANT 2, REL 1]
[2014-Mar-04 09:37:09] : COL 3 has no LOS to target ANT 1.. COL 3 forwards [SGN 2] to REL 1. 
[2014-Mar-04 09:37:09] : ANT 1 receives [MSN 5] from COM 2. 
)[2014-Mar-04 09:37:09] : ANT 1 has LOS to [REL 1, COL 1, COL 2]
[2014-Mar-04 09:37:09] : ANT 1 has LOS to target COL 2.. ANT 1 forwards [MSN 5] to COL 2. 
[2014-Mar-04 09:37:09] : [MSN 3] gets relayed to REL 1. 
)[2014-Mar-04 09:37:09] : REL 1 has LOS to [ANT 1, REL 2, REL 4, COL 1, COL 2, COL 3]
[2014-Mar-04 09:37:09] : REL 1 has LOS to target COL 2.. REL 1 forwards [MSN 3] to COL 2. 
[2014-Mar-04 09:37:10] : COL 3 has LOS to [ANT 2, REL 1]
[2014-Mar-04 09:37:10] : COL 3 has no LOS to target ANT 1.. COL 3 forwards [SGN 2] to REL 1. 
[2014-Mar-04 09:37:10] : COL 2 receives [MSN 5]. 
)[2014-Mar-04 09:37:10] : New Mission arrived.. MSN 6 [Target: COL 3, Duration: 3300] has been created. 
[2014-Mar-04 09:37:10] : MPL sends [MSN 6] to COM 3.
[2014-Mar-04 09:37:11] : COL 3 has LOS to [ANT 2, REL 1]
[2014-Mar-04 09:37:11] : COL 3 has no LOS to target ANT 1.. COL 3 forwards [SGN 2] to REL 1. 
[2014-Mar-04 09:37:11] : COL 2 has LOS to [ANT 1, REL 1]
[2014-Mar-04 09:37:11] : COL 2 has LOS to target ANT 1.. COL 2 forwards [SGN 5] to ANT 1. 
[2014-Mar-04 09:37:11] : COM 3 receives [MSN 6] from MPL. 
)[2014-Mar-04 09:37:11] : COM 3 forwards [MSN 6] to ANT 3. 
[2014-Mar-04 09:37:12] : New Mission arrived.. MSN 7 [Target: COL 2, Duration: 4000] has been created. 
[2014-Mar-04 09:37:12] : MPL sends [MSN 7] to COM 1.
[2014-Mar-04 09:37:12] : COL 2 has LOS to [ANT 1, REL 1]
[2014-Mar-04 09:37:12] : COL 2 has LOS to target ANT 1.. COL 2 forwards [SGN 5] to ANT 1. 
[2014-Mar-04 09:37:12] : ANT 3 receives [MSN 6] from COM 3. 
)[2014-Mar-04 09:37:12] : ANT 3 has LOS to [REL 2, COL 5, COL 6]
[2014-Mar-04 09:37:12] : ANT 3 has no LOS to target COL 3.. ANT 3 forwards [MSN 6] to REL 2. 
[2014-Mar-04 09:37:13] : COM 1 receives [MSN 7] from MPL. 
)[2014-Mar-04 09:37:13] : COM 1 forwards [MSN 7] to ANT 3. 
[2014-Mar-04 09:37:13] : COL 3 receives [MSN 4]. 
)[2014-Mar-04 09:37:13] : [MSN 6] gets relayed to REL 2. 
)[2014-Mar-04 09:37:13] : REL 2 has LOS to [ANT 2, ANT 3, REL 1, REL 3, COL 4, COL 5, COL 6]
[2014-Mar-04 09:37:13] : REL 2 has no LOS to target COL 3.. REL 2 forwards [MSN 6] to REL 3. 
[2014-Mar-04 09:37:14] : New Mission arrived.. MSN 8 [Target: COL 3, Duration: 5000] has been created. 
[2014-Mar-04 09:37:14] : MPL sends [MSN 8] to COM 2.
[2014-Mar-04 09:37:14] : ANT 3 receives [MSN 7] from COM 1. 
)[2014-Mar-04 09:37:14] : ANT 3 has LOS to [REL 2, COL 5, COL 6]
[2014-Mar-04 09:37:14] : ANT 3 has no LOS to target COL 2.. ANT 3 forwards [MSN 7] to REL 2. 
[2014-Mar-04 09:37:14] : COL 2 has LOS to [ANT 1, REL 1]
[2014-Mar-04 09:37:14] : COL 2 has LOS to target ANT 1.. COL 2 forwards [SGN 5] to ANT 1. 
[2014-Mar-04 09:37:14] : COL 3 has LOS to [ANT 2, REL 1]
[2014-Mar-04 09:37:14] : COL 3 has LOS to target ANT 2.. COL 3 forwards [SGN 4] to ANT 2. 
[2014-Mar-04 09:37:14] : [MSN 6] gets relayed to REL 3. 
)[2014-Mar-04 09:37:14] : REL 3 has LOS to [ANT 4, ANT 5, REL 2, REL 4, COL 7, COL 8, COL 9]
[2014-Mar-04 09:37:14] : REL 3 has no LOS to target COL 3.. REL 3 forwards [MSN 6] to REL 4. 
[2014-Mar-04 09:37:15] : COM 2 receives [MSN 8] from MPL. 
)[2014-Mar-04 09:37:15] : COM 2 forwards [MSN 8] to ANT 2. 
[2014-Mar-04 09:37:15] : [MSN 7] gets relayed to REL 2. 
)[2014-Mar-04 09:37:15] : REL 2 has LOS to [ANT 2, ANT 3, REL 1, REL 3, COL 4, COL 5, COL 6]
[2014-Mar-04 09:37:15] : REL 2 has no LOS to target COL 2.. REL 2 forwards [MSN 7] to REL 1. 
[2014-Mar-04 09:37:15] : COL 2 has LOS to [ANT 1, REL 1]
[2014-Mar-04 09:37:15] : COL 2 has LOS to target ANT 1.. COL 2 forwards [SGN 5] to ANT 1. 
[2014-Mar-04 09:37:15] : COL 3 has LOS to [ANT 2, REL 1]
[2014-Mar-04 09:37:15] : COL 3 has LOS to target ANT 2.. COL 3 forwards [SGN 4] to ANT 2. 
[2014-Mar-04 09:37:15] : [MSN 6] gets relayed to REL 4. 
)[2014-Mar-04 09:37:15] : REL 4 has LOS to [ANT 6, REL 3, REL 1, COL 10, COL 11, COL 12]
[2014-Mar-04 09:37:15] : REL 4 has no LOS to target COL 3.. REL 4 forwards [MSN 6] to REL 1. 
[2014-Mar-04 09:37:16] : ANT 2 receives [MSN 8] from COM 2. 
)[2014-Mar-04 09:37:16] : ANT 2 has LOS to [REL 2, COL 3, COL 4]
[2014-Mar-04 09:37:16] : ANT 2 has LOS to target COL 3.. ANT 2 forwards [MSN 8] to COL 3. 
[2014-Mar-04 09:37:16] : New Mission arrived.. MSN 9 [Target: COL 2, Duration: 4300] has been created. 
[2014-Mar-04 09:37:16] : MPL sends [MSN 9] to COM 3.
[2014-Mar-04 09:37:16] : [MSN 7] gets relayed to REL 1. 
)[2014-Mar-04 09:37:16] : REL 1 has LOS to [ANT 1, REL 2, REL 4, COL 1, COL 2, COL 3]
[2014-Mar-04 09:37:16] : REL 1 has LOS to target COL 2.. REL 1 forwards [MSN 7] to COL 2. 
[2014-Mar-04 09:37:16] : COL 2 has LOS to [ANT 1, REL 1]
[2014-Mar-04 09:37:16] : COL 2 has LOS to target ANT 1.. COL 2 forwards [SGN 5] to ANT 1. 
[2014-Mar-04 09:37:16] : COL 3 has LOS to [ANT 2, REL 1]
[2014-Mar-04 09:37:16] : COL 3 has LOS to target ANT 2.. COL 3 forwards [SGN 4] to ANT 2. 
[2014-Mar-04 09:37:17] : COM 3 receives [MSN 9] from MPL. 
)[2014-Mar-04 09:37:17] : COM 3 forwards [MSN 9] to ANT 2. 
[2014-Mar-04 09:37:17] : [MSN 6] gets relayed to REL 1. 
)[2014-Mar-04 09:37:17] : REL 1 has LOS to [ANT 1, REL 2, REL 4, COL 1, COL 2, COL 3]
[2014-Mar-04 09:37:17] : REL 1 has LOS to target COL 3.. REL 1 forwards [MSN 6] to COL 3. 
[2014-Mar-04 09:37:17] : COL 3 has LOS to [ANT 2, REL 1]
[2014-Mar-04 09:37:17] : COL 3 has LOS to target ANT 2.. COL 3 forwards [SGN 4] to ANT 2. 
[2014-Mar-04 09:37:18] : ANT 2 receives [MSN 9] from COM 3. 
)[2014-Mar-04 09:37:18] : ANT 2 has LOS to [REL 2, COL 3, COL 4]
[2014-Mar-04 09:37:18] : ANT 2 has no LOS to target COL 2.. ANT 2 forwards [MSN 9] to REL 2. 
[2014-Mar-04 09:37:18] : COL 2 receives [MSN 3]. 
)[2014-Mar-04 09:37:19] : New Mission arrived.. MSN 10 [Target: COL 3, Duration: 3900] has been created. 
[2014-Mar-04 09:37:19] : MPL sends [MSN 10] to COM 1.

[2014-Mar-04 09:37:19] : MPL is done loading missions. 

[2014-Mar-04 09:37:19] : COM 2 is done forwarding missions. 

[2014-Mar-04 09:37:19] : COM 3 is done forwarding missions. 

[2014-Mar-04 09:37:19] : [MSN 9] gets relayed to REL 2. 
)[2014-Mar-04 09:37:19] : REL 2 has LOS to [ANT 2, ANT 3, REL 1, REL 3, COL 4, COL 5, COL 6]
[2014-Mar-04 09:37:19] : REL 2 has no LOS to target COL 2.. REL 2 forwards [MSN 9] to REL 1. 
[2014-Mar-04 09:37:19] : COL 3 has LOS to [ANT 2, REL 1]
[2014-Mar-04 09:37:19] : COL 3 has LOS to target ANT 2.. COL 3 forwards [SGN 4] to ANT 2. 
[2014-Mar-04 09:37:20] : COM 1 receives [MSN 10] from MPL. 
)[2014-Mar-04 09:37:20] : COM 1 forwards [MSN 10] to ANT 4. 
[2014-Mar-04 09:37:20] : COM 1 is done forwarding missions. 

[2014-Mar-04 09:37:20] : [MSN 9] gets relayed to REL 1. 
)[2014-Mar-04 09:37:20] : REL 1 has LOS to [ANT 1, REL 2, REL 4, COL 1, COL 2, COL 3]
[2014-Mar-04 09:37:20] : REL 1 has LOS to target COL 2.. REL 1 forwards [MSN 9] to COL 2. 
[2014-Mar-04 09:37:20] : COL 2 receives [MSN 7]. 
)[2014-Mar-04 09:37:21] : ANT 4 receives [MSN 10] from COM 1. 
)[2014-Mar-04 09:37:21] : ANT 4 has LOS to [REL 3, COL 7, COL 8]
[2014-Mar-04 09:37:21] : ANT 4 has no LOS to target COL 3.. ANT 4 forwards [MSN 10] to REL 3. 
[2014-Mar-04 09:37:21] : COL 2 has LOS to [ANT 1, REL 1]
[2014-Mar-04 09:37:21] : COL 2 has no LOS to target ANT 2.. COL 2 forwards [SGN 3] to REL 1. 
[2014-Mar-04 09:37:21] : COL 3 has LOS to [ANT 2, REL 1]
[2014-Mar-04 09:37:21] : COL 3 has LOS to target ANT 2.. COL 3 forwards [SGN 4] to ANT 2. 
[2014-Mar-04 09:37:22] : [MSN 10] gets relayed to REL 3. 
)[2014-Mar-04 09:37:22] : REL 3 has LOS to [ANT 4, ANT 5, REL 2, REL 4, COL 7, COL 8, COL 9]
[2014-Mar-04 09:37:22] : REL 3 has no LOS to target COL 3.. REL 3 forwards [MSN 10] to REL 2. 
[2014-Mar-04 09:37:22] : COL 2 has LOS to [ANT 1, REL 1]
[2014-Mar-04 09:37:22] : COL 2 has no LOS to target ANT 2.. COL 2 forwards [SGN 3] to REL 1. 
[2014-Mar-04 09:37:23] : [MSN 10] gets relayed to REL 2. 
)[2014-Mar-04 09:37:23] : REL 2 has LOS to [ANT 2, ANT 3, REL 1, REL 3, COL 4, COL 5, COL 6]
[2014-Mar-04 09:37:23] : REL 2 has no LOS to target COL 3.. REL 2 forwards [MSN 10] to REL 3. 
[2014-Mar-04 09:37:23] : COL 3 receives [MSN 8]. 
)[2014-Mar-04 09:37:24] : [MSN 10] gets relayed to REL 3. 
)[2014-Mar-04 09:37:24] : REL 3 has LOS to [ANT 4, ANT 5, REL 2, REL 4, COL 7, COL 8, COL 9]
[2014-Mar-04 09:37:24] : REL 3 has no LOS to target COL 3.. REL 3 forwards [MSN 10] to REL 2. 
[2014-Mar-04 09:37:24] : COL 2 has LOS to [ANT 1, REL 1]
[2014-Mar-04 09:37:24] : COL 2 has no LOS to target ANT 2.. COL 2 forwards [SGN 3] to REL 1. 
[2014-Mar-04 09:37:25] : [MSN 10] gets relayed to REL 2. 
)[2014-Mar-04 09:37:25] : REL 2 has LOS to [ANT 2, ANT 3, REL 1, REL 3, COL 4, COL 5, COL 6]
[2014-Mar-04 09:37:25] : REL 2 has no LOS to target COL 3.. REL 2 forwards [MSN 10] to REL 1. 
[2014-Mar-04 09:37:25] : COL 3 receives [MSN 6]. 
)[2014-Mar-04 09:37:26] : [MSN 10] gets relayed to REL 1. 
)[2014-Mar-04 09:37:26] : REL 1 has LOS to [ANT 1, REL 2, REL 4, COL 1, COL 2, COL 3]
[2014-Mar-04 09:37:26] : REL 1 has LOS to target COL 3.. REL 1 forwards [MSN 10] to COL 3. 
[2014-Mar-04 09:37:26] : COL 3 has LOS to [ANT 2, REL 1]
[2014-Mar-04 09:37:26] : COL 3 has LOS to target ANT 2.. COL 3 forwards [SGN 8] to ANT 2. 
[2014-Mar-04 09:37:26] : COL 2 has LOS to [ANT 1, REL 1]
[2014-Mar-04 09:37:26] : COL 2 has no LOS to target ANT 2.. COL 2 forwards [SGN 3] to REL 1. 
[2014-Mar-04 09:37:27] : COL 3 has LOS to [ANT 2, REL 1]
[2014-Mar-04 09:37:27] : COL 3 has LOS to target ANT 2.. COL 3 forwards [SGN 8] to ANT 2. 
[2014-Mar-04 09:37:27] : COL 2 has LOS to [ANT 1, REL 1]
[2014-Mar-04 09:37:27] : COL 2 has no LOS to target ANT 3.. COL 2 forwards [SGN 7] to REL 1. 
[2014-Mar-04 09:37:28] : COL 3 has LOS to [ANT 2, REL 1]
[2014-Mar-04 09:37:28] : COL 3 has LOS to target ANT 2.. COL 3 forwards [SGN 8] to ANT 2. 
[2014-Mar-04 09:37:28] : COL 2 has LOS to [ANT 1, REL 1]
[2014-Mar-04 09:37:28] : COL 2 has no LOS to target ANT 3.. COL 2 forwards [SGN 7] to REL 1. 
[2014-Mar-04 09:37:29] : COL 3 has LOS to [ANT 2, REL 1]
[2014-Mar-04 09:37:29] : COL 3 has LOS to target ANT 2.. COL 3 forwards [SGN 8] to ANT 2. 
[2014-Mar-04 09:37:29] : COL 2 has LOS to [ANT 1, REL 1]
[2014-Mar-04 09:37:29] : COL 2 has no LOS to target ANT 3.. COL 2 forwards [SGN 7] to REL 1. 
[2014-Mar-04 09:37:30] : COL 3 has LOS to [ANT 2, REL 1]
[2014-Mar-04 09:37:30] : COL 3 has LOS to target A