[2014-Mar-06 14:34:48] : Preparing Dynamic Window Table.. DONE! 

[2014-Mar-06 14:34:48] : COM 1 has started.. 
[2014-Mar-06 14:34:48] : COM 2 has started.. 
[2014-Mar-06 14:35:36] : COM 3 has started.. 
[2014-Mar-06 14:35:42] : MPL has started.. 
[2014-Mar-06 14:35:43] : ANT 5 has started.. 
[2014-Mar-06 14:35:48] : New Mission arrived.. MSN 1 [Target: COL 1, Duration: 12000] has been created. 
[2014-Mar-06 14:35:53] : COL 4 has started.. 
[2014-Mar-06 14:35:57] : MPL sends [MSN 1] to COM 1.
[2014-Mar-06 14:35:59] : COL 10 has started.. 
[2014-Mar-06 14:36:02] : New Mission arrived.. MSN 2 [Target: COL 2, Duration: 15000] has been created. 
[2014-Mar-06 14:36:02] : COL 12 has started.. 
[2014-Mar-06 14:36:03] : COL 11 has started.. 
[2014-Mar-06 14:36:04] : COM 1 receives [MSN 1] from MPL. 
)[2014-Mar-06 14:36:04] : MPL sends [MSN 2] to COM 2.
[2014-Mar-06 14:36:04] : COL 9 has started.. 
[2014-Mar-06 14:36:05] : COL 8 has started.. 
[2014-Mar-06 14:36:06] : COM 1 forwards [MSN 1] to ANT 1. 
[2014-Mar-06 14:36:06] : COM 2 receives [MSN 2] from MPL. 
)[2014-Mar-06 14:36:06] : COL 7 has started.. 
[2014-Mar-06 14:36:07] : COL 6 has started.. 
[2014-Mar-06 14:36:08] : COM 2 forwards [MSN 2] to ANT 5. 
[2014-Mar-06 14:36:08] : COL 5 has started.. 
[2014-Mar-06 14:36:09] : COL 3 has started.. 
[2014-Mar-06 14:36:10] : COL 2 has started.. 
[2014-Mar-06 14:36:11] : COL 1 has started.. 
[2014-Mar-06 14:36:12] : REL 4 has started.. 
[2014-Mar-06 14:36:13] : REL 3 has started.. 
[2014-Mar-06 14:36:32] : REL 2 has started.. 
[2014-Mar-06 14:36:34] : REL 1 has started.. 
[2014-Mar-06 14:36:35] : New Mission arrived.. MSN 3 [Target: COL 1, Duration: 8000] has been created. 
[2014-Mar-06 14:36:35] : ANT 6 has started.. 
[2014-Mar-06 14:36:37] : ANT 5 receives [MSN 2] from COM 2. 
)[2014-Mar-06 14:36:37] : MPL sends [MSN 3] to COM 3.
[2014-Mar-06 14:36:37] : ANT 4 has started.. 
[2014-Mar-06 14:36:38] : COM 3 receives [MSN 3] from MPL. 
)[2014-Mar-06 14:36:38] : ANT 5 has LOS to [[2014-Mar-06 14:36:38] : ANT 3 has started.. 
[2014-Mar-06 14:36:38] : ANT 2 has started.. 
[2014-Mar-06 14:36:40] : COM 3 forwards [MSN 3] to ANT 3. 
[2014-Mar-06 14:36:40] : New Mission arrived.. MSN 4 [Target: COL 2, Duration: 10200] has been created. 
REL 3, COL 7, COL 8[2014-Mar-06 14:36:40] : ANT 1 has started.. 
[2014-Mar-06 14:36:41] : MPL sends [MSN 4] to COM 1.
]
[2014-Mar-06 14:36:41] : ANT 5 has no LOS to target COL 2.. ANT 5 forwards [MSN 2] to REL 3. 
[2014-Mar-06 14:36:41] : ANT 3 receives [MSN 3] from COM 3. 
)[2014-Mar-06 14:36:41] : ANT 3 has LOS to [REL 2, COL 3, COL 4]
[2014-Mar-06 14:36:41] : ANT 3 has no LOS to target COL 1.. ANT 3 forwards [MSN 3] to REL 2. 
[2014-Mar-06 14:36:42] : ANT 1 receives [MSN 1] from COM 1. 
)[2014-Mar-06 14:36:42] : COM 1 receives [MSN 4] from MPL. 
)[2014-Mar-06 14:36:42] : ANT 1 has LOS to [[2014-Mar-06 14:36:42] : COM 1 forwards [MSN 4] to ANT 2. 
[2014-Mar-06 14:36:42] : [MSN 2] gets relayed to REL 3. 
)REL 1, COL 11, COL 12]
[2014-Mar-06 14:36:42] : ANT 1 has no LOS to target COL 1.. ANT 1 forwards [MSN 1] to REL 1. 
[2014-Mar-06 14:36:42] : REL 3 has LOS to [ANT 4, ANT 5, REL 2, REL 4, COL 9, COL 10, COL 11]
[2014-Mar-06 14:36:42] : REL 3 has no LOS to target COL 2.. REL 3 forwards [MSN 2] to REL 4. 
[2014-Mar-06 14:36:42] : [MSN 3] gets relayed to REL 2. 
)[2014-Mar-06 14:36:42] : REL 2 has LOS to [ANT 2, ANT 3, REL 1, REL 3, COL 6, COL 7, COL 8]
[2014-Mar-06 14:36:42] : REL 2 has no LOS to target COL 1.. REL 2 forwards [MSN 3] to REL 3. 
[2014-Mar-06 14:36:43] : ANT 2 receives [MSN 4] from COM 1. 
)[2014-Mar-06 14:36:43] : ANT 2 has LOS to [REL 2, COL 11, COL 12]
[2014-Mar-06 14:36:43] : ANT 2 has no LOS to target COL 2.. ANT 2 forwards [MSN 4] to REL 2. 
[2014-Mar-06 14:36:43] : [MSN 1] gets relayed to REL 1. 
)[2014-Mar-06 14:36:43] : REL 1 has LOS to [ANT 1, REL 2, REL 4, COL 5, COL 6, COL 7]
[2014-Mar-06 14:36:43] : REL 1 has no LOS to target COL 1.. REL 1 forwards [MSN 1] to REL 4. 
[2014-Mar-06 14:36:43] : [MSN 2] gets relayed to REL 4. 
)[2014-Mar-06 14:36:43] : REL 4 has LOS to [ANT 6, REL 3, REL 1, COL 2, COL 3, COL 4]
[2014-Mar-06 14:36:43] : REL 4 has LOS to target COL 2.. REL 4 forwards [MSN 2] to COL 2. 
[2014-Mar-06 14:36:43] : [MSN 3] gets relayed to REL 3. 
)[2014-Mar-06 14:36:43] : REL 3 has LOS to [ANT 4, ANT 5, REL 2, REL 4, COL 1, COL 11, COL 12]
[2014-Mar-06 14:36:43] : REL 3 has LOS to target COL 1.. REL 3 forwards [MSN 3] to COL 1. 
[2014-Mar-06 14:36:44] : [MSN 4] gets relayed to REL 2. 
)[2014-Mar-06 14:36:44] : REL 2 has LOS to [ANT 2, ANT 3, REL 1, REL 3, COL 8, COL 9, COL 10]
[2014-Mar-06 14:36:44] : REL 2 has no LOS to target COL 2.. REL 2 forwards [MSN 4] to REL 3. 
[2014-Mar-06 14:36:44] : COL 2 receives [MSN 2]. 
)[2014-Mar-06 14:36:44] : [MSN 1] gets relayed to REL 4. 
)[2014-Mar-06 14:36:44] : REL 4 has LOS to [ANT 6, REL 3, REL 1, COL 2, COL 3, COL 4]
[2014-Mar-06 14:36:44] : REL 4 has no LOS to target COL 1.. REL 4 forwards [MSN 1] to REL 1. 
[2014-Mar-06 14:36:45] : [MSN 4] gets relayed to REL 3. 
)[2014-Mar-06 14:36:45] : REL 3 has LOS to [ANT 4, ANT 5, REL 2, REL 4, COL 1, COL 11, COL 12]
[2014-Mar-06 14:36:45] : REL 3 has no LOS to target COL 2.. [2014-Mar-06 14:36:45] : SGN 2 [Target: ANT 5] has been created. 
REL 3 forwards [MSN 4] to REL 2. 
[2014-Mar-06 14:36:45] : COL 2 has LOS to [ANT 3, REL 4]
[2014-Mar-06 14:36:45] : [MSN 1] gets relayed to REL 1. 
)[2014-Mar-06 14:36:45] : COL 2 has no LOS to target ANT 5.. COL 2 forwards [SGN 2] to REL 4. 
[2014-Mar-06 14:36:45] : REL 1 has LOS to [[2014-Mar-06 14:36:45] : COL 1 receives [MSN 3]. 
)ANT 1, REL 2, REL 4, COL 5, COL 6, COL 7]
[2014-Mar-06 14:36:45] : REL 1 has no LOS to target COL 1.. REL 1 forwards [MSN 1] to REL 4. 
[2014-Mar-06 14:36:46] : New Mission arrived.. MSN 5 [Target: COL 1, Duration: 9300] has been created. 
[2014-Mar-06 14:36:46] : MPL sends [MSN 5] to COM 2.
[2014-Mar-06 14:36:46] : New Mission arrived.. MSN 5 [Target: COL 1, Duration: 9300] has been created. 
[2014-Mar-06 14:36:46] : MPL sends [MSN 5] to COM 3.

[2014-Mar-06 14:36:46] : MPL is done loading missions. 

[2014-Mar-06 14:36:46] : COM 1 is done forwarding missions. 

[2014-Mar-06 14:36:46] : [MSN 4] gets relayed to REL 2. 
)[2014-Mar-06 14:36:46] : REL 2 has LOS to [ANT 2, ANT 3, REL 1, REL 3, COL 8, COL 9, COL 10]
[2014-Mar-06 14:36:46] : REL 2 has no LOS to target COL 2.. REL 2 forwards [MSN 4] to REL 1. 
[2014-Mar-06 14:36:46] : SGN 3 [Target: ANT 3] has been created. 
[2014-Mar-06 14:36:46] : COL 1 has LOS to [ANT 3, REL 3]
[2014-Mar-06 14:36:46] : COL 1 has LOS to target ANT 3.. [2014-Mar-06 14:36:46] : [MSN 1] gets relayed to REL 4. 
)COL 1 forwards [SGN 3] to ANT 3. 
[2014-Mar-06 14:36:46] : REL 4 has LOS to [ANT 6, REL 3, REL 1, COL 2, COL 3, COL 4]
[2014-Mar-06 14:36:46] : REL 4 has no LOS to target COL 1.. REL 4 forwards [MSN 1] to REL 3. 
[2014-Mar-06 14:36:46] : COL 2 has LOS to [[2014-Mar-06 14:36:46] : [SGN 2] gets relayed to REL 4. 
)ANT 3, REL 4]
[2014-Mar-06 14:36:46] : COL 2 has no LOS to target ANT 5.. COL 2 forwards [SGN 2] to REL 4. 
[2014-Mar-06 14:36:46] : REL 4 has LOS to [ANT 6, REL 3, REL 1, COL 2, COL 3, COL 4]
[2014-Mar-06 14:36:46] : REL 4 has no LOS to target ANT 5.. REL 4 forwards [SGN 2] to REL 3. 
[2014-Mar-06 14:36:47] : COM 2 receives [MSN 5] from MPL. 
)[2014-Mar-06 14:36:47] : COM 2 forwards [MSN 5] to ANT 3. 
[2014-Mar-06 14:36:47] : COM 2 is done forwarding missions. 

[2014-Mar-06 14:36:47] : COM 3 receives [MSN 5] from MPL. 
)[2014-Mar-06 14:36:47] : COM 3 forwards [MSN 5] to ANT 3. 
[2014-Mar-06 14:36:47] : COM 3 is done forwarding missions. 

[2014-Mar-06 14:36:47] : [MSN 4] gets relayed to REL 1. 
)[2014-Mar-06 14:36:47] : REL 1 has LOS to [ANT 1, REL 2, REL 4, COL 5, COL 6, COL 7]
[2014-Mar-06 14:36:47] : REL 1 has no LOS to target COL 2.. REL 1 forwards [MSN 4] to REL 2. 
[2014-Mar-06 14:36:47] : COL 1 has LOS to [ANT 3, REL 3]
[2014-Mar-06 14:36:47] : COL 1 has LOS to target ANT 3.. COL 1 forwards [SGN 3] to ANT 3. 
[2014-Mar-06 14:36:47] : [MSN 1] gets relayed to REL 3. 
)[2014-Mar-06 14:36:47] : REL 3 has LOS to [ANT 4, ANT 5, REL 2, REL 4, COL 1, COL 11, COL 12]
[2014-Mar-06 14:36:47] : REL 3 has LOS to target COL 1.. REL 3 forwards [MSN 1] to COL 1. 
[2014-Mar-06 14:36:47] : COL 2 has LOS to [ANT 3, REL 4]
[2014-Mar-06 14:36:47] : [SGN 2] gets relayed to REL 3. 
)[2014-Mar-06 14:36:47] : COL 2 has no LOS to target ANT 5.. COL 2 forwards [SGN 2] to REL 4. 
[2014-Mar-06 14:36:47] : REL 3 has LOS to [ANT 4, ANT 5, REL 2, REL 4, COL 1, COL 11, COL 12]
[2014-Mar-06 14:36:47] : REL 3 has LOS to target ANT 5.. REL 3 forwards [SGN 2] to ANT 5. 
[2014-Mar-06 14:36:47] : [SGN 2] gets relayed to REL 4. 
)[2014-Mar-06 14:36:47] : REL 4 has LOS to [ANT 6, REL 3, REL 1, COL 2, COL 3, COL 4]
[2014-Mar-06 14:36:47] : REL 4 has no LOS to target ANT 5.. REL 4 forwards [SGN 2] to REL 1. 
[2014-Mar-06 14:36:48] : ANT 3 receives [MSN 5] from COM 2. 
)[2014-Mar-06 14:36:48] : ANT 3 has LOS to [REL 2, COL 1, COL 2]
[2014-Mar-06 14:36:48] : ANT 3 has LOS to target COL 1.. ANT 3 forwards [MSN 5] to COL 1. 
[2014-Mar-06 14:36:48] : ANT 3 receives [SGN 3]. 
)[2014-Mar-06 14:36:48] : [MSN 4] gets relayed to REL 2. 
)[2014-Mar-06 14:36:48] : REL 2 has LOS to [ANT 2, ANT 3, REL 1, REL 3, COL 8, COL 9, COL 10]
[2014-Mar-06 14:36:48] : REL 2 has no LOS to target COL 2.. REL 2 forwards [MSN 4] to REL 1. 
[2014-Mar-06 14:36:48] : COL 1 has LOS to [ANT 3, REL 3]
[2014-Mar-06 14:36:48] : COL 1 has LOS to target ANT 3.. COL 1 forwards [SGN 3] to ANT 3. 
[2014-Mar-06 14:36:48] : COL 2 has LOS to [ANT 3, REL 4]
[2014-Mar-06 14:36:48] : COL 2 has no LOS to target ANT 5.. COL 2 forwards [SGN 2] to REL 4. 
[2014-Mar-06 14:36:48] : [SGN 2] gets relayed to REL 4. 
)[2014-Mar-06 14:36:48] : REL 4 has LOS to [ANT 6, REL 3, REL 1, COL 2, COL 3, COL 4]
[2014-Mar-06 14:36:48] : REL 4 has no LOS to target ANT 5.. REL 4 forwards [SGN 2] to REL 3. 
[2014-Mar-06 14:36:49] : ANT 3 receives [MSN 5] from COM 3. 
)[2014-Mar-06 14:36:49] : ANT 3 has LOS to [REL 2, COL 1, COL 2]
[2014-Mar-06 14:36:49] : ANT 3 has LOS to target COL 1.. ANT 3 forwards [MSN 5] to COL 1. 
[2014-Mar-06 14:36:49] : ANT 3 receives [SGN 3]. 
)[2014-Mar-06 14:36:49] : [MSN 4] gets relayed to REL 1. 
)[2014-Mar-06 14:36:49] : REL 1 has LOS to [ANT 1, REL 2, REL 4, COL 5, COL 6, COL 7]
[2014-Mar-06 14:36:49] : REL 1 has no LOS to target COL 2.. [2014-Mar-06 14:36:49] : ANT 3 receives [SGN 3]. 
)REL 1 forwards [MSN 4] to REL 2. 
[2014-Mar-06 14:36:49] : COL 1 has LOS to [ANT 3, REL 3]
[2014-Mar-06 14:36:49] : COL 1 has LOS to target ANT 3.. COL 1 forwards [SGN 3] to ANT 3. 
[2014-Mar-06 14:36:49] : COL 2 has LOS to [[2014-Mar-06 14:36:49] : [SGN 2] gets relayed to REL 3. 
)ANT 3, REL 4]
[2014-Mar-06 14:36:49] : COL 2 has no LOS to target ANT 5.. COL 2 forwards [SGN 2] to REL 4. 
[2014-Mar-06 14:36:49] : REL 3 has LOS to [ANT 4, ANT 5, REL 2, REL 4, COL 1, COL 11, COL 12]
[2014-Mar-06 14:36:49] : REL 3 has LOS to target ANT 5.. REL 3 forwards [SGN 2] to ANT 5. 
[2014-Mar-06 14:36:49] : [SGN 2] gets relayed to REL 4. 
)[2014-Mar-06 14:36:49] : REL 4 has LOS to [[2014-Mar-06 14:36:49] : ANT 5 receives [SGN 2]. 
)ANT 6, REL 3, REL 1, COL 2, COL 3, COL 4]
[2014-Mar-06 14:36:49] : REL 4 has no LOS to target ANT 5.. REL 4 forwards [SGN 2] to REL 3. 
[2014-Mar-06 14:36:50] : [MSN 4] gets relayed to REL 2. 
)[2014-Mar-06 14:36:50] : REL 2 has LOS to [ANT 2, ANT 3, REL 1, REL 3, [2014-Mar-06 14:36:50] : ANT 3 receives [SGN 3]. 
)COL 8, COL 9, COL 10]
[2014-Mar-06 14:36:50] : REL 2 has no LOS to target COL 2.. REL 2 forwards [MSN 4] to REL 3. 
[2014-Mar-06 14:36:50] : COL 1 has LOS to [ANT 3, REL 3]
[2014-Mar-06 14:36:50] : COL 1 has LOS to target ANT 3.. COL 1 forwards [SGN 3] to ANT 3. 
[2014-Mar-06 14:36:50] : COL 2 has LOS to [ANT 3, REL 4]
[2014-Mar-06 14:36:50] : COL 2 has no LOS to target ANT 5.. COL 2 forwards [SGN 2] to REL 4. 
[2014-Mar-06 14:36:50] : [SGN 2] gets relayed to REL 4. 
)[2014-Mar-06 14:36:50] : REL 4 has LOS to [ANT 6, REL 3, REL 1, COL 2, COL 3, COL 4]
[2014-Mar-06 14:36:50] : REL 4 has no LOS to target ANT 5.. REL 4 forwards [SGN 2] to REL 3. 
[2014-Mar-06 14:36:51] : COL 1 has LOS to [[2014-Mar-06 14:36:51] : ANT 3 receives [SGN 3]. 
)ANT 3, REL 3]
[2014-Mar-06 14:36:51] : COL 1 has LOS to target ANT 3.. COL 1 forwards [SGN 3] to ANT 3. 
[2014-Mar-06 14:36:51] : [MSN 4] gets relayed to REL 3. 
)[2014-Mar-06 14:36:51] : COL 2 has LOS to [ANT 3, REL 4]
[2014-Mar-06 14:36:51] : COL 2 has no LOS to target ANT 5.. COL 2 forwards [SGN 2] to REL 4. 
[2014-Mar-06 14:36:51] : REL 3 has LOS to [ANT 4, ANT 5, REL 2, REL 4, COL 1, COL 11, COL 12]
[2014-Mar-06 14:36:51] : REL 3 has no LOS to target COL 2.. REL 3 forwards [MSN 4] to REL 2. 
[2014-Mar-06 14:36:51] : [SGN 2] gets relayed to REL 4. 
)[2014-Mar-06 14:36:51] : REL 4 has LOS to [ANT 6, REL 3, REL 1, COL 2, COL 3, COL 4]
[2014-Mar-06 14:36:51] : REL 4 has no LOS to target ANT 5.. REL 4 forwards [SGN 2] to REL 3. 
[2014-Mar-06 14:36:52] : COL 1 has LOS to [[2014-Mar-06 14:36:52] : ANT 3 receives [SGN 3]. 
)ANT 3, REL 3]
[2014-Mar-06 14:36:52] : COL 1 has LOS to target ANT 3.. COL 1 forwards [SGN 3] to ANT 3. 
[2014-Mar-06 14:36:52] : COL 2 has LOS to [[2014-Mar-06 14:36:52] : [SGN 2] gets relayed to REL 3. 
)ANT 3, REL 4]
[2014-Mar-06 14:36:52] : COL 2 has no LOS to target ANT 5.. COL 2 forwards [SGN 2] to REL 4. 
[2014-Mar-06 14:36:52] : REL 3 has LOS to [ANT 4, ANT 5, REL 2, REL 4, COL 1, COL 11, COL 12]
[2014-Mar-06 14:36:52] : REL 3 has LOS to target ANT 5.. REL 3 forwards [SGN 2] to ANT 5. 
[2014-Mar-06 14:36:52] : [MSN 4] gets relayed to REL 2. 
)[2014-Mar-06 14:36:52] : REL 2 has LOS to [ANT 2, ANT 3, REL 1, REL 3, COL 10, COL 11, COL 12]
[2014-Mar-06 14:36:52] : REL 2 has no LOS to target COL 2.. REL 2 forwards [MSN 4] to REL 1. 
[2014-Mar-06 14:36:52] : [SGN 2] gets relayed to REL 4. 
)[2014-Mar-06 14:36:52] : ANT 5 receives [SGN 2]. 
)[2014-Mar-06 14:36:52] : REL 4 has LOS to [ANT 6, REL 3, REL 1, COL 4, COL 5, COL 6]
[2014-Mar-06 14:36:52] : REL 4 has no LOS to target ANT 5.. REL 4 forwards [SGN 2] to REL 3. 
[2014-Mar-06 14:36:53] : COL 1 has LOS to [[2014-Mar-06 14:36:53] : ANT 3 receives [SGN 3]. 
)ANT 4, REL 3]
[2014-Mar-06 14:36:53] : COL 1 has no LOS to target ANT 3.. COL 1 forwards [SGN 3] to REL 3. 
[2014-Mar-06 14:36:53] : COL 2 has LOS to [ANT 4, REL 3]
[2014-Mar-06 14:36:53] : COL 2 has no LOS to target ANT 5.. COL 2 forwards [SGN 2] to REL 3. 
[2014-Mar-06 14:36:53] : [SGN 2] gets relayed to REL 3. 
)[2014-Mar-06 14:36:53] : REL 3 has LOS to [ANT 4, ANT 5, REL 2, REL 4, COL 1, COL 2, COL 3]
[2014-Mar-06 14:36:53] : REL 3 has LOS to target ANT 5.. REL 3 forwards [SGN 2] to ANT 5. 
[2014-Mar-06 14:36:53] : [MSN 4] gets relayed to REL 1. 
)[2014-Mar-06 14:36:53] : REL 1 has LOS to [ANT 1, REL 2, REL 4, COL 7, COL 8, COL 9]
[2014-Mar-06 14:36:53] : REL 1 has no LOS to target COL 2.. REL 1 forwards [MSN 4] to REL 4. 
[2014-Mar-06 14:36:53] : [SGN 2] gets relayed to REL 4. 
)[2014-Mar-06 14:36:53] : ANT 5 receives [SGN 2]. 
)[2014-Mar-06 14:36:53] : REL 4 has LOS to [ANT 6, REL 3, REL 1, COL 4, COL 5, COL 6]
[2014-Mar-06 14:36:53] : REL 4 has no LOS to target ANT 5.. REL 4 forwards [SGN 2] to REL 1. 
[2014-Mar-06 14:36:54] : COL 2 has LOS to [ANT 4, [2014-Mar-06 14:36:54] : [SGN 2] gets relayed to REL 1. 
)REL 3]
[2014-Mar-06 14:36:54] : COL 2 has no LOS to target ANT 5.. COL 2 forwards [SGN 2] to REL 3. 
[2014-Mar-06 14:36:54] : REL 1 has LOS to [ANT 1, REL 2, REL 4, COL 7, COL 8, COL 9]
[2014-Mar-06 14:36:54] : REL 1 has no LOS to target ANT 5.. REL 1 forwards [SGN 2] to REL 2. 
[2014-Mar-06 14:36:54] : [SGN 2] gets relayed to REL 3. 
)[2014-Mar-06 14:36:54] : REL 3 has LOS to [ANT 4, ANT 5, REL 2, REL 4, COL 1, COL 2, COL 3]
[2014-Mar-06 14:36:54] : REL 3 has LOS to target ANT 5.. REL 3 forwards [SGN 2] to ANT 5. 
[2014-Mar-06 14:36:54] : [SGN 2] gets relayed to REL 2. 
)[2014-Mar-06 14:36:54] : REL 2 has LOS to [ANT 2, ANT 3, REL 1, REL 3, COL 10, COL 11, COL 12]
[2014-Mar-06 14:36:54] : REL 2 has no LOS to target ANT 5.. REL 2 forwards [SGN 2] to REL 1. 
[2014-Mar-06 14:36:54] : [SGN 2] gets relayed to REL 4. 
)[2014-Mar-06 14:36:54] : REL 4 has LOS to [ANT 6, REL 3, REL 1, COL 4, COL 5, COL 6]
[2014-Mar-06 14:36:54] : REL 4 has no LOS to target ANT 5.. REL 4 forwards [SGN 2] to REL 1. 
[2014-Mar-06 14:36:55] : COL 1 receives [MSN 1]. 
)[2014-Mar-06 14:36:55] : [SGN 2] gets relayed to REL 1. 
)[2014-Mar-06 14:36:55] : REL 1 has LOS to [ANT 1, REL 2, REL 4, COL 7, COL 8, COL 9]
[2014-Mar-06 14:36:55] : REL 1 has no LOS to target ANT 5.. REL 1 forwards [SGN 2] to REL 2. 
[2014-Mar-06 14:36:55] : [SGN 3] gets relayed to REL 3. 
)[2014-Mar-06 14:36:55] : REL 3 has LOS to [ANT 4, ANT 5, REL 2, REL 4, COL 1, COL 2, COL 3]
[2014-Mar-06 14:36:55] : REL 3 has no LOS to target ANT 3.. REL 3 forwards [SGN 3] to REL 4. 
[2014-Mar-06 14:36:55] : [SGN 2] gets relayed to REL 2. 
)[2014-Mar-06 14:36:55] : REL 2 has LOS to [ANT 2, ANT 3, REL 1, REL 3, COL 10, COL 11, COL 12]
[2014-Mar-06 14:36:55] : REL 2 has no LOS to target ANT 5.. REL 2 forwards [SGN 2] to REL 1. 
[2014-Mar-06 14:36:55] : [SGN 2] gets relayed to REL 4. 
)[2014-Mar-06 14:36:55] : REL 4 has LOS to [ANT 6, REL 3, REL 1, COL 4, COL 5, COL 6]
[2014-Mar-06 14:36:55] : REL 4 has no LOS to target ANT 5.. REL 4 forwards [SGN 2] to REL 1. 
[2014-Mar-06 14:36:56] : SGN 1 [Target: ANT 1] has been created. 
[2014-Mar-06 14:36:56] : COL 2 has LOS to [ANT 4, REL 3]
[2014-Mar-06 14:36:56] : COL 2 has no LOS to target ANT 5.. COL 2 forwards [SGN 2] to REL 3. 
[2014-Mar-06 14:36:56] : [SGN 2] gets relayed to REL 1. 
)[2014-Mar-06 14:36:56] : REL 1 has LOS to [ANT 1, REL 2, REL 4, COL 7, COL 8, COL 9]
[2014-Mar-06 14:36:56] : REL 1 has no LOS to target ANT 5.. REL 1 forwards [SGN 2] to REL 2. 
[2014-Mar-06 14:36:56] : [SGN 2] gets relayed to REL 2. 
)[2014-Mar-06 14:36:56] : REL 2 has LOS to [ANT 2, ANT 3, REL 1, REL 3, COL 10, COL 11, COL 12]
[2014-Mar-06 14:36:56] : REL 2 has no LOS to target ANT 5.. REL 2 forwards [SGN 2] to REL 1. 
[2014-Mar-06 14:36:57] : COL 1 receives [MSN 5]. 
)[2014-Mar-06 14:36:57] : [SGN 2] gets relayed to REL 1. 
)[2014-Mar-06 14:36:57] : REL 1 has LOS to [ANT 1, REL 2, REL 4, COL 7, COL 8, COL 9]
[2014-Mar-06 14:36:57] : REL 1 has no LOS to target ANT 5.. REL 1 forwards [SGN 2] to REL 2. 
[2014-Mar-06 14:36:57] : [MSN 4] gets relayed to REL 4. 
)[2014-Mar-06 14:36:57] : REL 4 has LOS to [ANT 6, REL 3, REL 1, COL 4, COL 5, COL 6]
[2014-Mar-06 14:36:57] : REL 4 has no LOS to target COL 2.. REL 4 forwards [MSN 4] to REL 1. 
[2014-Mar-06 14:36:57] : [SGN 2] gets relayed to REL 2. 
)[2014-Mar-06 14:36:57] : REL 2 has LOS to [ANT 2, ANT 3, REL 1, REL 3, COL 10, COL 11, COL 12]
[2014-Mar-06 14:36:57] : REL 2 has no LOS to target ANT 5.. REL 2 forwards [SGN 2] to REL 1. 
[2014-Mar-06 14:36:57] : [SGN 3] gets relayed to REL 4. 
)[2014-Mar-06 14:36:57] : REL 4 has LOS to [ANT 6, REL 3, REL 1, COL 4, COL 5, COL 6]
[2014-Mar-06 14:36:57] : REL 4 has no LOS to target ANT 3.. REL 4 forwards [SGN 3] to REL 1. 
[2014-Mar-06 14:36:58] : SGN 5 [Target: ANT 3] has been created. 
[2014-Mar-06 14:36:58] : COL 2 has LOS to [ANT 4, REL 3]
[2014-Mar-06 14:36:58] : COL 2 has no LOS to target ANT 5.. COL 2 forwards [SGN 2] to REL 3. 
[2014-Mar-06 14:36:58] : [SGN 2] gets relayed to REL 3. 
)[2014-Mar-06 14:36:58] : REL 3 has LOS to [ANT 4, ANT 5, REL 2, REL 4, COL 1, COL 2, COL 3]
[2014-Mar-06 14:36:58] : REL 3 has LOS to target ANT 5.. REL 3 forwards [SGN 2] to ANT 5. 
[2014-Mar-06 14:36:58] : [SGN 2] gets relayed to REL 2. 
)[2014-Mar-06 14:36:58] : ANT 5 receives [SGN 2]. 
)[2014-Mar-06 14:36:58] : REL 2 has LOS to [ANT 2, ANT 3, REL 1, REL 3, COL 10, COL 11, COL 12]
[2014-Mar-06 14:36:58] : REL 2 has no LOS to target ANT 5.. REL 2 forwards [SGN 2] to REL 3. 
[2014-Mar-06 14:36:59] : COL 1 receives [MSN 5]. 
)[2014-Mar-06 14:36:59] : [MSN 4] gets relayed to REL 1. 
)[2014-Mar-06 14:36:59] : REL 1 has LOS to [ANT 1, REL 2, REL 4, COL 7, COL 8, COL 9]
[2014-Mar-06 14:36:59] : REL 1 has no LOS to target COL 2.. REL 1 forwards [MSN 4] to REL 2. 
[2014-Mar-06 14:36:59] : [SGN 3] gets relayed to REL 1. 
)[2014-Mar-06 14:36:59] : REL 1 has LOS to [ANT 1, REL 2, REL 4, COL 7, COL 8, COL 9]
[2014-Mar-06 14:36:59] : REL 1 has no LOS to target ANT 3.. REL 1 forwards [SGN 3] to REL 4. 
[2014-Mar-06 14:36:59] : [SGN 2] gets relayed to REL 3. 
)[2014-Mar-06 14:36:59] : REL 3 has LOS to [ANT 4, ANT 5, REL 2, REL 4, COL 1, COL 2, COL 3]
[2014-Mar-06 14:36:59] : REL 3 has LOS to target ANT 5.. REL 3 forwards [SGN 2] to ANT 5. 
[2014-Mar-06 14:36:59] : [SGN 2] gets relayed to REL 2. 
)[2014-Mar-06 14:36:59] : ANT 5 receives [SGN 2]. 
)[2014-Mar-06 14:36:59] : REL 2 has LOS to [ANT 2, ANT 3, REL 1, REL 3, COL 10, COL 11, COL 12]
[2014-Mar-06 14:36:59] : REL 2 has no LOS to target ANT 5.. REL 2 forwards [SGN 2] to REL 3. 
[2014-Mar-06 14:37:00] : SGN 5 [Target: ANT 3] has been created. 
[2014-Mar-06 14:37:00] : COL 2 has LOS to [ANT 4, REL 3]
[2014-Mar-06 14:37:00] : COL 2 has no LOS to target ANT 5.. COL 2 forwards [SGN 2] to REL 3. 
[2014-Mar-06 14:37:00] : COL 1 has LOS to [ANT 4, REL 3]
[2014-Mar-06 14:37:00] : COL 1 has no LOS to target ANT 1.. COL 1 forwards [SGN 1] to REL 3. 
[2014-Mar-06 14:37:00] : [SGN 3] gets relayed to REL 4. 
)[2014-Mar-06 14:37:00] : REL 4 has LOS to [ANT 6, REL 3, REL 1, COL 4, COL 5, COL 6]
[2014-Mar-06 14:37:00] : REL 4 has no LOS to target ANT 3.. REL 4 forwards [SGN 3] to REL 1. 
[2014-Mar-06 14:37:00] : [SGN 2] gets relayed to REL 3. 
)[2014-Mar-06 14:37:00] : REL 3 has LOS to [ANT 4, ANT 5, REL 2, REL 4, COL 1, COL 2, COL 3]
[2014-Mar-06 14:37:00] : REL 3 has LOS to target ANT 5.. REL 3 forwards [SGN 2] to ANT 5. 
[2014-Mar-06 14:37:00] : ANT 5 receives [SGN 2]. 
)[2014-Mar-06 14:37:00] : [SGN 2] gets relayed to REL 2. 
)[2014-Mar-06 14:37:00] : ANT 5 receives [SGN 2]. 
)[2014-Mar-06 14:37:00] : REL 2 has LOS to [ANT 2, ANT 3, REL 1, REL 3, COL 10, COL 11, COL 12]
[2014-Mar-06 14:37:00] : REL 2 has no LOS to target ANT 5.. REL 2 forwards [SGN 2] to REL 3. 
[2014-Mar-06 14:37:01] : COL 2 has LOS to [ANT 4, REL 3]
[2014-Mar-06 14:37:01] : COL 2 has no LOS to target ANT 5.. COL 2 forwards [SGN 2] to REL 3. 
[2014-Mar-06 14:37:01] : COL 1 has LOS to [ANT 4, REL 3]
[2014-Mar-06 14:37:01] : COL 1 has no LOS to target ANT 1.. COL 1 forwards [SGN 1] to REL 3. 
[2014-Mar-06 14:37:01] : [SGN 3] gets relayed to REL 1. 
)[2014-Mar-06 14:37:01] : REL 1 has LOS to [ANT 1, REL 2, REL 4, COL 7, COL 8, COL 9]
[2014-Mar-06 14:37:01] : REL 1 has no LOS to target ANT 3.. REL 1 forwards [SGN 3] to REL 4. 
[2014-Mar-06 14:37:01] : [SGN 2] gets relayed to REL 3. 
)[2014-Mar-06 14:37:01] : REL 3 has LOS to [ANT 4, ANT 5, REL 2, REL 4, COL 1, COL 2, COL 3]
[2014-Mar-06 14:37:01] : REL 3 has LOS to target ANT 5.. REL 3 forwards [SGN 2] to ANT 5. 
[2014-Mar-06 14:37:01] : [SGN 2] gets relayed to REL 2. 
)[2014-Mar-06 14:37:01] : ANT 5 receives [SGN 2]. 
)[2014-Mar-06 14:37:01] : REL 2 has LOS to [ANT 2, ANT 3, REL 1, REL 3, COL 10, COL 11, COL 12]
[2014-Mar-06 14:37:01] : REL 2 has no LOS to target ANT 5.. REL 2 forwards [SGN 2] to REL 3. 
[2014-Mar-06 14:37:02] : COL 2 has LOS to [ANT 5, REL 2]
[2014-Mar-06 14:37:02] : COL 2 has LOS to target ANT 5.. COL 2 forwards [SGN 2] to ANT 5. 
[2014-Mar-06 14:37:02] : ANT 5 receives [SGN 2]. 
)[2014-Mar-06 14:37:02] : COL 1 has LOS to [ANT 5, REL 2]
[2014-Mar-06 14:37:02] : COL 1 has no LOS to target ANT 1.. COL 1 forwards [SGN 1] to REL 2. 
[2014-Mar-06 14:37:02] : [SGN 3] gets relayed to REL 4. 
)[2014-Mar-06 14:37:02] : REL 4 has LOS to [ANT 6, REL 3, REL 1, COL 6, COL 7, COL 8]
[2014-Mar-06 14:37:02] : REL 4 has no LOS to target ANT 3.. REL 4 forwards [SGN 3] to REL 1. 
[2014-Mar-06 14:37:02] : [SGN 1] gets relayed to REL 3. 
)[2014-Mar-06 14:37:02] : ANT 5 receives [SGN 2]. 
)[2014-Mar-06 14:37:02] : REL 3 has LOS to [ANT 4, ANT 5, REL 2, REL 4, COL 3, COL 4, COL 5]
[2014-Mar-06 14:37:02] : REL 3 has no LOS to target ANT 1.. REL 3 forwards [SGN 1] to REL 4. 
[2014-Mar-06 14:37:02] : [SGN 2] gets relayed to REL 2. 
)[2014-Mar-06 14:37:03] : ANT 5 receives [SGN 2]. 
)[2014-Mar-06 14:37:03] : REL 2 has LOS to [ANT 2, ANT 3, REL 1, REL 3, COL 1, COL 2, COL 12]
[2014-Mar-06 14:37:03] : REL 2 has no LOS to target ANT 5.. REL 2 forwards [SGN 2] to REL 3. 
[2014-Mar-06 14:37:03] : COL 1 has LOS to [ANT 5, REL 2]
[2014-Mar-06 14:37:03] : COL 1 has no LOS to target ANT 1.. COL 1 forwards [SGN 1] to REL 2. 
[2014-Mar-06 14:37:03] : [SGN 3] gets relayed to REL 1. 
)[2014-Mar-06 14:37:03] : REL 1 has LOS to [ANT 1, REL 2, REL 4, COL 9, COL 10, COL 11]
[2014-Mar-06 14:37:03] : REL 1 has no LOS to target ANT 3.. REL 1 forwards [SGN 3] to REL 4. 
[2014-Mar-06 14:37:03] : [SGN 2] gets relayed to REL 3. 
)[2014-Mar-06 14:37:03] : REL 3 has LOS to [ANT 4, ANT 5, REL 2, REL 4, COL 3, COL 4, COL 5]
[2014-Mar-06 14:37:03] : REL 3 has LOS to target ANT 5.. REL 3 forwards [SGN 2] to ANT 5. 
[2014-Mar-06 14:37:03] : ANT 5 receives [SGN 2]. 
)[2014-Mar-06 14:37:04] : [SGN 2] gets relayed to REL 2. 
)[2014-Mar-06 14:37:04] : ANT 5 receives [SGN 2]. 
)[2014-Mar-06 14:37:04] : REL 2 has LOS to [ANT 2, ANT 3, REL 1, REL 3, COL 1, COL 2, COL 12]
[2014-Mar-06 14:37:04] : REL 2 has no LOS to target ANT 5.. REL 2 forwards [SGN 2] to REL 3. 
[2014-Mar-06 14:37:04] : COL 1 has LOS to [ANT 5, REL 2]
[2014-Mar-06 14:37:04] : COL 1 has no LOS to target ANT 1.. COL 1 forwards [SGN 1] to REL 2. 
[2014-Mar-06 14:37:04] : [SGN 3] gets relayed to REL 4. 
)[2014-Mar-06 14:37:04] : REL 4 has LOS to [ANT 6, REL 3, REL 1, COL 6, COL 7, COL 8]
[2014-Mar-06 14:37:04] : REL 4 has no LOS to target ANT 3.. REL 4 forwards [SGN 3] to REL 3. 
[2014-Mar-06 14:37:04] : [SGN 2] gets relayed to REL 3. 
)[2014-Mar-06 14:37:04] : REL 3 has LOS to [ANT 4, ANT 5, REL 2, REL 4, COL 3, COL 4, COL 5]
[2014-Mar-06 14:37:05] : REL 3 has LOS to target ANT 5.. REL 3 forwards [SGN 2] to ANT 5. 
[2014-Mar-06 14:37:05] : ANT 5 receives [SGN 2]. 
)[2014-Mar-06 14:37:05] : COL 1 has LOS to [ANT 5, REL 2]
[2014-Mar-06 14:37:05] : COL 1 has no LOS to target ANT 1.. COL 1 forwards [SGN 1] to REL 2. 
[2014-Mar-06 14:37:06] : ANT 5 receives [SGN 2]. 
)[2014-Mar-06 14:37:06] : [SGN 3] gets relayed to REL 3. 
)[2014-Mar-06 14:37:06] : REL 3 has LOS to [ANT 4, ANT 5, REL 2, REL 4, COL 3, COL 4, COL 5]
[2014-Mar-06 14:37:06] : REL 3 has no LOS to target ANT 3.. REL 3 forwards [SGN 3] to REL 4. 
[2014-Mar-06 14:37:06] : [MSN 4] gets relayed to REL 2. 
)[2014-Mar-06 14:37:06] : REL 2 has LOS to [ANT 2, ANT 3, REL 1, REL 3, COL 1, COL 2, COL 12]
[2014-Mar-06 14:37:06] : REL 2 has LOS to target COL 2.. REL 2 forwards [MSN 4] to COL 2. 
[2014-Mar-06 14:37:06] : [SGN 1] gets relayed to REL 2. 
)[2014-Mar-06 14:37:06] : REL 2 has LOS to [ANT 2, ANT 3, REL 1, REL 3, COL 1, COL 2, COL 12]
[2014-Mar-06 14:37:06] : REL 2 has no LOS to target ANT 1.. REL 2 forwards [SGN 1] to REL 1. 
[2014-Mar-06 14:37:06] : COL 1 has LOS to [[2014-Mar-06 14:37:06] : [SGN 1] gets relayed to REL 1. 
)ANT 5, REL 2]
[2014-Mar-06 14:37:06] : COL 1 has no LOS to target ANT 1.. COL 1 forwards [SGN 1] to REL 2. 
[2014-Mar-06 14:37:06] : REL 1 has LOS to [ANT 1, REL 2, REL 4, COL 9, COL 10, COL 11]
[2014-Mar-06 14:37:06] : REL 1 has LOS to target ANT 1.. REL 1 forwards [SGN 1] to ANT 1. 
[2014-Mar-06 14:37:07] : [SGN 3] gets relayed to REL 4. 
)[2014-Mar-06 14:37:07] : REL 4 has LOS to [ANT 6, REL 3, REL 1, COL 6, COL 7, COL 8]
[2014-Mar-06 14:37:07] : REL 4 has no LOS to target ANT 3.. REL 4 forwards [SGN 3] to REL 1. 
[2014-Mar-06 14:37:07] : COL 2 receives [MSN 4]. 
)[2014-Mar-06 14:37:07] : [SGN 1] gets relayed to REL 2. 
)[2014-Mar-06 14:37:07] : ANT 1 receives [SGN 1]. 
)[2014-Mar-06 14:37:07] : REL 2 has LOS to [ANT 2, ANT 3, REL 1, REL 3, COL 1, COL 2, COL 12]
[2014-Mar-06 14:37:07] : REL 2 has no LOS to target ANT 1.. REL 2 forwards [SGN 1] to REL 3. 
[2014-Mar-06 14:37:07] : [SGN 1] gets relayed to REL 3. 
)[2014-Mar-06 14:37:07] : REL 3 has LOS to [ANT 4, ANT 5, REL 2, REL 4, COL 3, COL 4, COL 5]
[2014-Mar-06 14:37:07] : REL 3 has no LOS to target ANT 1.. REL 3 forwards [SGN 1] to REL 2. 
[2014-Mar-06 14:37:08] : [SGN 3] gets relayed to REL 1. 
)[2014-Mar-06 14:37:08] : REL 1 has LOS to [ANT 1, REL 2, REL 4, COL 9, COL 10, COL 11]
[2014-Mar-06 14:37:08] : REL 1 has no LOS to target ANT 3.. REL 1 forwards [SGN 3] to REL 4. 
[2014-Mar-06 14:37:08] : SGN 4 [Target: ANT 2] has been created. 
[2014-Mar-06 14:37:08] : COL 2 has LOS to [ANT 5, REL 2]
[2014-Mar-06 14:37:08] : COL 2 has no LOS to target ANT 2.. COL 2 forwards [SGN 4] to REL 2. 
[2014-Mar-06 14:37:08] : COL 1 has LOS to [ANT 5, REL 2]
[2014-Mar-06 14:37:08] : COL 1 has no LOS to target ANT 1.. COL 1 forwards [SGN 1] to REL 2. 
[2014-Mar-06 14:37:08] : [SGN 1] gets relayed to REL 2. 
)[2014-Mar-06 14:37:08] : REL 2 has LOS to [ANT 2, ANT 3, REL 1, REL 3, COL 1, COL 2, COL 12]
[2014-Mar-06 14:37:08] : REL 2 has no LOS to target ANT 1.. REL 2 forwards [SGN 1] to REL 1. 
[2014-Mar-06 14:37:09] : [SGN 3] gets relayed to REL 4. 
)[2014-Mar-06 14:37:09] : REL 4 has LOS to [ANT 6, REL 3, REL 1, COL 6, COL 7, COL 8]
[2014-Mar-06 14:37:09] : REL 4 has no LOS to target ANT 3.. REL 4 forwards [SGN 3] to REL 3. 
[2014-Mar-06 14:37:09] : [SGN 1] gets relayed to REL 1. 
)[2014-Mar-06 14:37:09] : REL 1 has LOS to [ANT 1, REL 2, REL 4, COL 9, COL 10, COL 11]
[2014-Mar-06 14:37:09] : REL 1 has LOS to target ANT 1.. REL 1 forwards [SGN 1] to ANT 1. 
[2014-Mar-06 14:37:09] : ANT 1 receives [SGN 1]. 
)[2014-Mar-06 14:37:09] : COL 2 has LOS to [ANT 5, REL 2]
[2014-Mar-06 14:37:09] : COL 2 has no LOS to target ANT 2.. COL 2 forwards [SGN 4] to REL 2. 
[2014-Mar-06 14:37:09] : COL 1 has LOS to [ANT 5, REL 2]
[2014-Mar-06 14:37:09] : COL 1 has no LOS to target ANT 1.. COL 1 forwards [SGN 1] to REL 2. 
[2014-Mar-06 14:37:09] : ANT 1 receives [SGN 1]. 
)[2014-Mar-06 14:37:09] : [SGN 1] gets relayed to REL 2. 
)[2014-Mar-06 14:37:09] : REL 2 has LOS to [ANT 2, ANT 3, REL 1, REL 3, COL 1, COL 2, COL 12]
[2014-Mar-06 14:37:09] : REL 2 has no LOS to target ANT 1.. REL 2 forwards [SGN 1] to REL 3. 
[2014-Mar-06 14:37:10] : [SGN 3] gets relayed to REL 3. 
)[2014-Mar-06 14:37:10] : REL 3 has LOS to [ANT 4, ANT 5, REL 2, REL 4, COL 3, COL 4, COL 5]
[2014-Mar-06 14:37:10] : REL 3 has no LOS to target ANT 3.. REL 3 forwards [SGN 3] to REL 4. 
[2014-Mar-06 14:37:10] : [SGN 1] gets relayed to REL 1. 
)[2014-Mar-06 14:37:10] : REL 1 has LOS to [ANT 1, REL 2, REL 4, COL 9, COL 10, COL 11]
[2014-Mar-06 14:37:10] : REL 1 has LOS to target ANT 1.. REL 1 forwards [SGN 1] to ANT 1. 
[2014-Mar-06 14:37:10] : ANT 1 receives [SGN 1]. 
)[2014-Mar-06 14:37:10] : COL 2 has LOS to [ANT 5, REL 2]
[2014-Mar-06 14:37:10] : COL 2 has no LOS to target ANT 2.. COL 2 forwards [SGN 4] to REL 2. 
[2014-Mar-06 14:37:10] : ANT 1 receives [SGN 1]. 
)[2014-Mar-06 14:37:10] : COL 1 has LOS to [ANT 5, REL 2]
[2014-Mar-06 14:37:10] : COL 1 has no LOS to target ANT 1.. COL 1 forwards [SGN 1] to REL 2. 
[2014-Mar-06 14:37:10] : [SGN 1] gets relayed to REL 2. 
)[2014-Mar-06 14:37:10] : REL 2 has LOS to [ANT 2, ANT 3, REL 1, REL 3, COL 1, COL 2, COL 12]
[2014-Mar-06 14:37:10] : REL 2 has no LOS to target ANT 1.. REL 2 forwards [SGN 1] to REL 1. 
[2014-Mar-06 14:37:11] : [SGN 3] gets relayed to REL 4. 
)[2014-Mar-06 14:37:11] : REL 4 has LOS to [ANT 6, REL 3, REL 1, COL 6, COL 7, COL 8]
[2014-Mar-06 14:37:11] : REL 4 has no LOS to target ANT 3.. REL 4 forwards [SGN 3] to REL 1. 
[2014-Mar-06 14:37:11] : [SGN 1] gets relayed to REL 1. 
)[2014-Mar-06 14:37:11] : REL 1 has LOS to [ANT 1, REL 2, REL 4, COL 9, COL 10, COL 11]
[2014-Mar-06 14:37:11] : REL 1 has LOS to target ANT 1.. REL 1 forwards [SGN 1] to ANT 1. 
[2014-Mar-06 14:37:11] : ANT 1 receives [SGN 1]. 
)[2014-Mar-06 14:37:11] : COL 2 has LOS to [[2014-Mar-06 14:37:11] : ANT 1 receives [SGN 1]. 
)ANT 5, REL 2]
[2014-Mar-06 14:37:11] : ANT 1 receives [SGN 1]. 
)[2014-Mar-06 14:37:11] : COL 2 has no LOS to target ANT 2.. COL 2 forwards [SGN 4] to REL 2. 
[2014-Mar-06 14:37:11] : COL 1 has LOS to [ANT 5, REL 2]
[2014-Mar-06 14:37:11] : COL 1 has no LOS to target ANT 1.. COL 1 forwards [SGN 1] to REL 2. 
[2014-Mar-06 14:37:11] : [SGN 4] gets relayed to REL 2. 
)[2014-Mar-06 14:37:11] : REL 2 has LOS to [ANT 2, ANT 3, REL 1, REL 3, COL 1, COL 2, COL 12]
[2014-Mar-06 14:37:11] : REL 2 has LOS to target ANT 2.. REL 2 forwards [SGN 4] to ANT 2. 
[2014-Mar-06 14:37:12] : [SGN 3] gets relayed to REL 1. 
)[2014-Mar-06 14:37:12] : REL 1 has LOS to [ANT 1, REL 2, REL 4, COL 9, COL 10, COL 11]
[2014-Mar-06 14:37:12] : REL 1 has no LOS to target ANT 3.. REL 1 forwards [SGN 3] to REL 4. 
[2014-Mar-06 14:37:12] : COL 2 has LOS to [[2014-Mar-06 14:37:12] : ANT 2 receives [SGN 4]. 
)ANT 5, REL 2]
[2014-Mar-06 14:37:12] : COL 2 has no LOS to target ANT 2.. COL 2 forwards [SGN 4] to REL 2. 
[2014-Mar-06 14:37:12] : COL 1 has LOS to [ANT 5, REL 2]
[2014-Mar-06 14:37:12] : COL 1 has no LOS to target ANT 1.. COL 1 forwards [SGN 1] to REL 2. 
[2014-Mar-06 14:37:12] : [SGN 4] gets relayed to REL 2. 
)[2014-Mar-06 14:37:12] : REL 2 has LOS to [ANT 2, ANT 3, REL 1, REL 3, COL 1, COL 2, COL 12]
[2014-Mar-06 14:37:12] : REL 2 has LOS to target ANT 2.. REL 2 forwards [SGN 4] to ANT 2. 
[2014-Mar-06 14:37:12] : ANT 2 receives [SGN 4]. 
)[2014-Mar-06 14:37:13] : [SGN 3] gets relayed to REL 4. 
)[2014-Mar-06 14:37:13] : REL 4 has LOS to [ANT 6, REL 3, REL 1, COL 8, COL 9, COL 10]
[2014-Mar-06 14:37:13] : REL 4 has no LOS to target ANT 3.. REL 4 forwards [SGN 3] to REL 3. 
[2014-Mar-06 14:37:13] : ANT 2 receives [SGN 4]. 
)[2014-Mar-06 14:37:13] : COL 2 has LOS to [ANT 6, REL 2]
[2014-Mar-06 14:37:13] : COL 2 has no LOS to target ANT 2.. COL 2 forwards [SGN 4] to REL 2. 
[2014-Mar-06 14:37:13] : COL 1 has LOS to [ANT 6, REL 1]
[2014-Mar-06 14:37:13] : COL 1 has no LOS to target ANT 3.. COL 1 forwards [SGN 5] to REL 1. 
[2014-Mar-06 14:37:13] : [SGN 4] gets relayed to REL 2. 
)[2014-Mar-06 14:37:13] : REL 2 has LOS to [ANT 2, ANT 3, REL 1, REL 3, COL 2, COL 3, COL 4]
[2014-Mar-06 14:37:13] : REL 2 has LOS to target ANT 2.. REL 2 forwards [SGN 4] to ANT 2. 
[2014-Mar-06 14:37:13] : ANT 2 receives [SGN 4]. 
)[2014-Mar-06 14:37:14] : [SGN 3] gets relayed to REL 3. 
)[2014-Mar-06 14:37:14] : REL 3 has LOS to [ANT 4, ANT 5, REL 2, REL 4, COL 5, COL 6, COL 7]
[2014-Mar-06 14:37:14] : REL 3 has no LOS to target ANT 3.. REL 3 forwards [SGN 3] to REL 2. 
[2014-Mar-06 14:37:14] : COL 2 has LOS to [[2014-Mar-06 14:37:14] : ANT 2 receives [SGN 4]. 
)ANT 6, REL 2]
[2014-Mar-06 14:37:14] : COL 2 has no LOS to target ANT 2.. [2014-Mar-06 14:37:14] : [SGN 5] gets relayed to REL 1. 
)COL 2 forwards [SGN 4] to REL 2. 
[2014-Mar-06 14:37:14] : COL 1 has LOS to [ANT 6, REL 1]
[2014-Mar-06 14:37:14] : COL 1 has no LOS to target ANT 3.. COL 1 forwards [SGN 5] to REL 1. 
[2014-Mar-06 14:37:14] : REL 1 has LOS to [ANT 1, REL 2, REL 4, COL 1, COL 11, COL 12]
[2014-Mar-06 14:37:14] : REL 1 has no LOS to target ANT 3.. REL 1 forwards [SGN 5] to REL 2. 
[2014-Mar-06 14:37:14] : [SGN 1] gets relayed to REL 2. 
)[2014-Mar-06 14:37:14] : REL 2 has LOS to [ANT 2, ANT 3, REL 1, REL 3, COL 2, COL 3, COL 4]
[2014-Mar-06 14:37:14] : REL 2 has no LOS to target ANT 1.. REL 2 forwards [SGN 1] to REL 1. 
[2014-Mar-06 14:37:15] : COL 2 has LOS to [ANT 6, REL 2]
[2014-Mar-06 14:37:15] : COL 2 has no LOS to target ANT 2.. COL 2 forwards [SGN 4] to REL 2. 
[2014-Mar-06 14:37:15] : COL 1 has LOS to [ANT 6, REL 1]
[2014-Mar-06 14:37:15] : COL 1 has no LOS to target ANT 3.. COL 1 forwards [SGN 5] to REL 1. 
[2014-Mar-06 14:37:15] : [SGN 1] gets relayed to REL 1. 
)[2014-Mar-06 14:37:15] : REL 1 has LOS to [ANT 1, REL 2, REL 4, COL 1, COL 11, COL 12]
[2014-Mar-06 14:37:15] : REL 1 has LOS to target ANT 1.. REL 1 forwards [SGN 1] to ANT 1. 
[2014-Mar-06 14:37:15] : ANT 1 receives [SGN 1]. 
)[2014-Mar-06 14:37:15] : [SGN 4] gets relayed to REL 2. 
)[2014-Mar-06 14:37:15] : REL 2 has LOS to [ANT 2, ANT 3, REL 1, REL 3, COL 2, COL 3, COL 4]
[2014-Mar-06 14:37:15] : REL 2 has LOS to target ANT 2.. REL 2 forwards [SGN 4] to ANT 2. 
[2014-Mar-06 14:37:16] : COL 2 has LOS to [[2014-Mar-06 14:37:16] : ANT 2 receives [SGN 4]. 
)ANT 6, REL 2]
[2014-Mar-06 14:37:16] : COL 2 has no LOS to target ANT 2.. COL 2 forwards [SGN 4] to REL 2. 
[2014-Mar-06 14:37:16] : COL 1 has LOS to [ANT 6, REL 1]
[2014-Mar-06 14:37:16] : COL 1 has no LOS to target ANT 3.. COL 1 forwards [SGN 5] to REL 1. 
[2014-Mar-06 14:37:16] : [SGN 1] gets relayed to REL 1. 
)[2014-Mar-06 14:37:16] : ANT 1 receives [SGN 1]. 
)[2014-Mar-06 14:37:16] : REL 1 has LOS to [ANT 1, REL 2, REL 4, COL 1, COL 11, COL 12]
[2014-Mar-06 14:37:16] : REL 1 has LOS to target ANT 1.. REL 1 forwards [SGN 1] to ANT 1. 
[2014-Mar-06 14:37:16] : [SGN 3] gets relayed to REL 2. 
)[2014-Mar-06 14:37:16] : REL 2 has LOS to [ANT 2, ANT 3, REL 1, REL 3, COL 2, COL 3, COL 4]
[2014-Mar-06 14:37:16] : REL 2 has LOS to target ANT 3.. REL 2 forwards [SGN 3] to ANT 3. 
[2014-Mar-06 14:37:17] : COL 2 has LOS to [ANT 6, REL 2]
[2014-Mar-06 14:37:17] : COL 2 has no LOS to target ANT 2.. COL 2 forwards [SGN 4] to REL 2. 
[2014-Mar-06 14:37:17] : COL 1 has LOS to [ANT 6, REL 1]
[2014-Mar-06 14:37:17] : COL 1 has no LOS to target ANT 3.. COL 1 forwards [SGN 5] to REL 1. 
[2014-Mar-06 14:37:17] : [SGN 1] gets relayed to REL 1. 
)[2014-Mar-06 14:37:17] : ANT 1 receives [SGN 1]. 
)[2014-Mar-06 14:37:17] : REL 1 has LOS to [ANT 1, REL 2, REL 4, COL 1, COL 11, COL 12]
[2014-Mar-06 14:37:17] : REL 1 has LOS to target ANT 1.. REL 1 forwards [SGN 1] to ANT 1. 
[2014-Mar-06 14:37:17] : [SGN 4] gets relayed to REL 2. 
)[2014-Mar-06 14:37:17] : ANT 3 receives [SGN 3]. 
)[2014-Mar-06 14:37:17] : REL 2 has LOS to [ANT 2, ANT 3, REL 1, REL 3, COL 2, COL 3, COL 4]
[2014-Mar-06 14:37:17] : REL 2 has LOS to target ANT 2.. REL 2 forwards [SGN 4] to ANT 2. 
[2014-Mar-06 14:37:17] : ANT 2 receives [SGN 4]. 
)[2014-Mar-06 14:37:17] : ANT 2 receives [SGN 4]. 
)[2014-Mar-06 14:37:18] : COL 2 has LOS to [[2014-Mar-06 14:37:18] : ANT 2 receives [SGN 4]. 
)ANT 6, REL 2]
[2014-Mar-06 14:37:18] : COL 2 has no LOS to target ANT 2.. COL 2 forwards [SGN 4] to REL 2. 
[2014-Mar-06 14:37:18] : COL 1 has LOS to [ANT 6, REL 1]
[2014-Mar-06 14:37:18] : COL 1 has no LOS to target ANT 3.. COL 1 forwards [SGN 5] to REL 1. 
[2014-Mar-06 14:37:18] : [SGN 5] gets relayed to REL 1. 
)[2014-Mar-06 14:37:18] : ANT 1 receives [SGN 1]. 
)[2014-Mar-06 14:37:18] : REL 1 has LOS to [ANT 1, REL 2, REL 4, COL 1, COL 11, COL 12]
[2014-Mar-06 14:37:18] : REL 1 has no LOS to target ANT 3.. REL 1 forwards [SGN 5] to REL 4. 
[2014-Mar-06 14:37:18] : [SGN 5] gets relayed to REL 4. 
)[2014-Mar-06 14:37:18] : REL 4 has LOS to [ANT 6, REL 3, REL 1, COL 8, COL 9, COL 10]
[2014-Mar-06 14:37:18] : REL 4 has no LOS to target ANT 3.. REL 4 forwards [SGN 5] to REL 3. 
[2014-Mar-06 14:37:18] : [SGN 4] gets relayed to REL 2. 
)[2014-Mar-06 14:37:18] : REL 2 has LOS to [ANT 2, ANT 3, REL 1, REL 3, COL 2, COL 3, COL 4]
[2014-Mar-06 14:37:18] : REL 2 has LOS to target ANT 2.. REL 2 forwards [SGN 4] to ANT 2. 
[2014-Mar-06 14:37:19] : ANT 2 receives [SGN 4]. 
)[2014-Mar-06 14:37:19] : COL 1 has LOS to [[2014-Mar-06 14:37:19] : [SGN 5] gets relayed to REL 3. 
)ANT 6, REL 1]
[2014-Mar-06 14:37:19] : COL 1 has no LOS to target ANT 3.. COL 1 forwards [SGN 5] to REL 1. 
[2014-Mar-06 14:37:19] : REL 3 has LOS to [ANT 4, ANT 5, REL 2, REL 4, COL 5, COL 6, COL 7]
[2014-Mar-06 14:37:19] : REL 3 has no LOS to target ANT 3.. REL 3 forwards [SGN 5] to REL 2. 
[2014-Mar-06 14:37:19] : [SGN 5] gets relayed to REL 1. 
)[2014-Mar-06 14:37:19] : REL 1 has LOS to [ANT 1, REL 2, REL 4, COL 1, COL 11, COL 12]
[2014-Mar-06 14:37:19] : REL 1 has no LOS to target ANT 3.. REL 1 forwards [SGN 5] to REL 2. 
[2014-Mar-06 14:37:19] : [SGN 5] gets relayed to REL 4. 
)[2014-Mar-06 14:37:19] : REL 4 has LOS to [ANT 6, REL 3, REL 1, COL 8, COL 9, COL 10]
[2014-Mar-06 14:37:19] : REL 4 has no LOS to target ANT 3.. REL 4 forwards [SGN 5] to REL 1. 
[2014-Mar-06 14:37:19] : ANT 2 receives [SGN 4]. 
)[2014-Mar-06 14:37:20] : COL 1 has LOS to [ANT 6, REL 1]
[2014-Mar-06 14:37:20] : COL 1 has no LOS to target ANT 3.. COL 1 forwards [SGN 5] to REL 1. 
[2014-Mar-06 14:37:20] : [SGN 5] gets relayed to REL 1. 
)[2014-Mar-06 14:37:20] : REL 1 has LOS to [ANT 1, REL 2, REL 4, COL 1, COL 11, COL 12]
[2014-Mar-06 14:37:20] : REL 1 has no LOS to target ANT 3.. REL 1 forwards [SGN 5] to REL 2. 
[2014-Mar-06 14:37:20] : [SGN 5] gets relayed to REL 4. 
)[2014-Mar-06 14:37:20] : REL 4 has LOS to [ANT 6, REL 3, REL 1, COL 8, COL 9, COL 10]
[2014-Mar-06 14:37:20] : REL 4 has no LOS to target ANT 3.. REL 4 forwards [SGN 5] to REL 3. 
[2014-Mar-06 14:37:20] : [SGN 5] gets relayed to REL 2. 
)[2014-Mar-06 14:37:20] : REL 2 has LOS to [ANT 2, ANT 3, REL 1, REL 3, COL 2, COL 3, COL 4]
[2014-Mar-06 14:37:20] : REL 2 has LOS to target ANT 3.. REL 2 forwards [SGN 5] to ANT 3. 
[2014-Mar-06 14:37:21] : COL 1 has LOS to [[2014-Mar-06 14:37:21] : ANT 3 receives [SGN 5]. 
)ANT 6, REL 1]
[2014-Mar-06 14:37:21] : COL 1 has no LOS to target ANT 3.. COL 1 forwards [SGN 5] to REL 1. 
[2014-Mar-06 14:37:21] : [SGN 5] gets relayed to REL 1. 
)[2014-Mar-06 14:37:21] : REL 1 has LOS to [ANT 1, REL 2, REL 4, COL 1, COL 11, COL 12]
[2014-Mar-06 14:37:21] : REL 1 has no LOS to target ANT 3.. REL 1 forwards [SGN 5] to REL 4. 
[2014-Mar-06 14:37:21] : [SGN 5] gets relayed to REL 4. 
)[2014-Mar-06 14:37:21] : REL 4 has LOS to [ANT 6, REL 3, REL 1, COL 8, COL 9, COL 10]
[2014-Mar-06 14:37:21] : REL 4 has no LOS to target ANT 3.. REL 4 forwards [SGN 5] to REL 3. 
[2014-Mar-06 14:37:21] : [SGN 5] gets relayed to REL 3. 
)[2014-Mar-06 14:37:21] : REL 3 has LOS to [ANT 4, ANT 5, REL 2, REL 4, COL 5, COL 6, COL 7]
[2014-Mar-06 14:37:21] : REL 3 has no LOS to target ANT 3.. REL 3 forwards [SGN 5] to REL 4. 
[2014-Mar-06 14:37:22] : COL 1 has LOS to [ANT 6, REL 1]
[2014-Mar-06 14:37:22] : COL 1 has no LOS to target ANT 3.. COL 1 forwards [SGN 5] to REL 1. 
[2014-Mar-06 14:37:22] : [SGN 5] gets relayed to REL 1. 
)[2014-Mar-06 14:37:22] : REL 1 has LOS to [ANT 1, REL 2, REL 4, COL 1, COL 2, COL 3]
[2014-Mar-06 14:37:22] : REL 1 has no LOS to target ANT 3.. REL 1 forwards [SGN 5] to REL 2. 
[2014-Mar-06 14:37:22] : [SGN 5] gets relayed to REL 2. 
)[2014-Mar-06 14:37:22] : REL 2 has LOS to [ANT 2, ANT 3, REL 1, REL 3, COL 4, COL 5, COL 6]
[2014-Mar-06 14:37:22] : REL 2 has LOS to target ANT 3.. REL 2 forwards [SGN 5] to ANT 3. 
[2014-Mar-06 14:37:22] : ANT 3 receives [SGN 5]. 
)[2014-Mar-06 14:37:22] : [SGN 5] gets relayed to REL 4. 
)[2014-Mar-06 14:37:22] : ANT 3 receives [SGN 5]. 
)[2014-Mar-06 14:37:22] : REL 4 has LOS to [ANT 6, REL 3, REL 1, COL 10, COL 11, COL 12]
[2014-Mar-06 14:37:22] : REL 4 has no LOS to target ANT 3.. REL 4 forwards [SGN 5] to REL 1. 
[2014-Mar-06 14:37:23] : COL 1 has LOS to [ANT 1, REL 1]
[2014-Mar-06 14:37:23] : COL 1 has no LOS to target ANT 3.. COL 1 forwards [SGN 5] to REL 1. 
[2014-Mar-06 14:37:23] : [SGN 5] gets relayed to REL 1. 
)[2014-Mar-06 14:37:23] : REL 1 has LOS to [ANT 1, REL 2, REL 4, COL 1, COL 2, COL 3]
[2014-Mar-06 14:37:23] : REL 1 has no LOS to target ANT 3.. REL 1 forwards [SGN 5] to REL 2. 
[2014-Mar-06 14:37:23] : [SGN 5] gets relayed to REL 2. 
)[2014-Mar-06 14:37:23] : REL 2 has LOS to [ANT 2, ANT 3, REL 1, REL 3, COL 4, COL 5, COL 6]
[2014-Mar-06 14:37:23] : REL 2 has LOS to target ANT 3.. REL 2 forwards [SGN 5] to ANT 3. 
[2014-Mar-06 14:37:23] : ANT 3 receives [SGN 5]. 
)[2014-Mar-06 14:37:23] : ANT 3 receives [SGN 5]. 
)[2014-Mar-06 14:37:23] : ANT 3 receives [SGN 5]. 
)[2014-Mar-06 14:37:23] : ANT 3 receives [SGN 5]. 
)[2014-Mar-06 14:37:24] : COL 1 has LOS to [ANT 1, REL 1]
[2014-Mar-06 14:37:24] : COL 1 has no LOS to target ANT 3.. COL 1 forwards [SGN 5] to REL 1. 
[2014-Mar-06 14:37:24] : [SGN 5] gets relayed to REL 1. 
)[2014-Mar-06 14:37:24] : ANT 3 receives [SGN 5]. 
)[2014-Mar-06 14:37:24] : REL 1 has LOS to [ANT 1, REL 2, REL 4, COL 1, COL 2, COL 3]
[2014-Mar-06 14:37:24] : REL 1 has no LOS to target ANT 3.. REL 1 forwards [SGN 5] to REL 4. 
[2014-Mar-06 14:37:24] : [SGN 5] gets relayed to REL 4. 
)[2014-Mar-06 14:37:24] : REL 4 has LOS to [ANT 6, REL 3, REL 1, COL 10, COL 11, COL 12]
[2014-Mar-06 14:37:24] : REL 4 has no LOS to target ANT 3.. REL 4 forwards [SGN 5] to REL 3. 
[2014-Mar-06 14:37:25] : COL 1 has LOS to [ANT 1, REL 1]
[2014-Mar-06 14:37:25] : COL 1 has no LOS to target ANT 3.. COL 1 forwards [SGN 5] to REL 1. 
[2014-Mar-06 14:37:25] : [SGN 5] gets relayed to REL 3. 
)[2014-Mar-06 14:37:25] : REL 3 has LOS to [ANT 4, ANT 5, REL 2, REL 4, COL 7, COL 8, COL 9]
[2014-Mar-06 14:37:25] : REL 3 has no LOS to target ANT 3.. REL 3 forwards [SGN 5] to REL 2. 
[2014-Mar-06 14:37:25] : [SGN 5] gets relayed to REL 1. 
)[2014-Mar-06 14:37:25] : REL 1 has LOS to [ANT 1, REL 2, REL 4, COL 1, COL 2, COL 3]
[2014-Mar-06 14:37:25] : REL 1 has no LOS to target ANT 3.. REL 1 forwards [SGN 5] to REL 4. 
[2014-Mar-06 14:37:25] : [SGN 5] gets relayed to REL 2. 
)[2014-Mar-06 14:37:25] : REL 2 has LOS to [ANT 2, ANT 3, REL 1, REL 3, COL 4, COL 5, COL 6]
[2014-Mar-06 14:37:25] : REL 2 has LOS to target ANT 3.. REL 2 forwards [SGN 5] to ANT 3. 
[2014-Mar-06 14:37:26] : COL 1 has LOS to [[2014-Mar-06 14:37:26] : [SGN 5] gets relayed to REL 4. 
)ANT 1, REL 1]
[2014-Mar-06 14:37:26] : COL 1 has no LOS to target ANT 3.. COL 1 forwards [SGN 5] to REL 1. 
[2014-Mar-06 14:37:26] : REL 4 has LOS to [ANT 6, REL 3, REL 1, COL 10, COL 11, COL 12]
[2014-Mar-06 14:37:26] : REL 4 has no LOS to target ANT 3.. REL 4 forwards [SGN 5] to REL 3. 
[2014-Mar-06 14:37:26] : ANT 3 receives [SGN 5]. 
)[2014-Mar-06 14:37:26] : [SGN 5] gets relayed to REL 1. 
)[2014-Mar-06 14:37:26] : REL 1 has LOS to [ANT 1, REL 2, REL 4, COL 1, COL 2, COL 3]
[2014-Mar-06 14:37:26] : REL 1 has no LOS to target ANT 3.. REL 1 forwards [SGN 5] to REL 2. 
[2014-Mar-06 14:37:26] : [SGN 5] gets relayed to REL 3. 
)[2014-Mar-06 14:37:26] : ANT 3 receives [SGN 5]. 
)[2014-Mar-06 14:37:26] : REL 3 has LOS to [ANT 4, ANT 5, REL 2, REL 4, COL 7, COL 8, COL 9]
[2014-Mar-06 14:37:26] : REL 3 has no LOS to target ANT 3.. REL 3 forwards [SGN 5] to REL 2. 
[2014-Mar-06 14:37:27] : COL 1 has LOS to [[2014-Mar-06 14:37:27] : [SGN 5] gets relayed to REL 2. 
)ANT 1, REL 1]
[2014-Mar-06 14:37:27] : COL 1 has no LOS to target ANT 3.. COL 1 forwards [SGN 5] to REL 1. 
[2014-Mar-06 14:37:27] : REL 2 has LOS to [ANT 2, ANT 3, REL 1, REL 3, COL 4, COL 5, COL 6]
[2014-Mar-06 14:37:27] : REL 2 has LOS to target ANT 3.. REL 2 forwards [SGN 5] to ANT 3. 
[2014-Mar-06 14:37:27] : ANT 3 receives [SGN 5]. 
)[2014-Mar-06 14:37:27] : ANT 3 receives [SGN 5]. 
)[2014-Mar-06 14:37:27] : ANT 3 receives [SGN 5]. 
)[2014-Mar-06 14:37:28] : COL 1 has LOS to [[2014-Mar-06 14:37:28] : ANT 3 receives [SGN 5]. 
)ANT 1, REL 1]
[2014-Mar-06 14:37:28] : COL 1 has no LOS to target ANT 3.. [2014-Mar-06 14:37:28] : ANT 3 receives [SGN 5]. 
)COL 1 forwards [SGN 5] to REL 1. 
[2014-Mar-06 14:37:29] : COL 1 has LOS to [[2014-Mar-06 14:37:29] : [SGN 5] gets relayed to REL 1. 
)ANT 1, REL 1]
[2014-Mar-06 14:37:29] : COL 1 has no LOS to target ANT 3.. COL 1 forwards [SGN 5] to REL 1. 
[2014-Mar-06 14:37:29] : REL 1 has LOS to [ANT 1, REL 2, REL 4, COL 1, COL 2, COL 3]
[2014-Mar-06 14:37:29] : REL 1 has no LOS to target ANT 3.. REL 1 forwards [SGN 5] to REL 4. 
[2014-Mar-06 14:37:30] : COL 1 has LOS to [[2014-Mar-06 14:37:30] : [SGN 5] gets relayed to REL 4. 
)ANT 1, REL 1]
[2014-Mar-06 14:37:30] : COL 1 has no LOS to target ANT 3.. COL 1 forwards [SGN 5] to REL 1. 
[2014-Mar-06 14:37:30] : REL 4 has LOS to [ANT 6, REL 3, REL 1, COL 10, COL 11, COL 12]
[2014-Mar-06 14:37:30] : REL 4 has no LOS to target ANT 3.. REL 4 forwards [SGN 5] to REL 1. 
[2014-Mar-06 14:37:30] : [SGN 5] gets relayed to REL 1. 
)[2014-Mar-06 14:37:30] : REL 1 has LOS to [ANT 1, REL 2, REL 4, COL 1, COL 2, COL 3]
[2014-Mar-06 14:37:30] : REL 1 has no LOS to target ANT 3.. REL 1 forwards [SGN 5] to REL 2. 
[2014-Mar-06 14:37:31] : COL 1 has LOS to [[2014-Mar-06 14:37:31] : [SGN 5] gets relayed to REL 2. 
)ANT 1, REL 1]
[2014-Mar-06 14:37:31] : COL 1 has no LOS to target ANT 3.. COL 1 forwards [SGN 5] to REL 1. 
[2014-Mar-06 14:37:31] : REL 2 has LOS to [ANT 2, ANT 3, REL 1, REL 3, COL 4, COL 5, COL 6]
[2014-Mar-06 14:37:31] : REL 2 has LOS to target ANT 3.. REL 2 forwards [SGN 5] to ANT 3. 
[2014-Mar-06 14:37:31] : ANT 3 receives [SGN 5]. 
)[2014-Mar-06 14:37:31] : ANT 3 receives [SGN 5]. 
)[2014-Mar-06 14:37:32] : COL 1 has LOS to [[2014-Mar-06 14:37:32] : ANT 3 receives [SGN 5]. 
)ANT 2, REL 4]
[2014-Mar-06 14:37:32] : COL 1 has no LOS to target ANT 3.. [2014-Mar-06 14:37:32] : ANT 3 receives [SGN 5]. 
)COL 1 forwards [SGN 5] to REL 4. 
[2014-Mar-06 14:37:33] : [SGN 5] gets relayed to REL 4. 
)[2014-Mar-06 14:37:33] : REL 4 has LOS to [ANT 6, REL 3, REL 1, COL 1, COL 2, COL 12]
[2014-Mar-06 14:37:33] : REL 4 has no LOS to target ANT 3.. REL 4 forwards [SGN 5] to REL 1. 
[2014-Mar-06 14:37:34] : [SGN 5] gets relayed to REL 1. 
)[2014-Mar-06 14:37:34] : REL 1 has LOS to [ANT 1, REL 2, REL 4, COL 3, COL 4, COL 5]
[2014-Mar-06 14:37:34] : REL 1 has no LOS to target ANT 3.. REL 1 forwards [SGN 5] to REL 4. 
[2014-Mar-06 14:37:35] : [SGN 5] gets relayed to REL 4. 
)[2014-Mar-06 14:37:35] : REL 4 has LOS to [ANT 6, REL 3, REL 1, COL 1, COL 2, COL 12]
[2014-Mar-06 14:37:35] : REL 4 has no LOS to target ANT 3.. REL 4 forwards [SGN 5] to REL 3. 
[2014-Mar-06 14:37:36] : [SGN 5] gets relayed to REL 3. 
)[2014-Mar-06 14:37:36] : REL 3 has LOS to [ANT 4, ANT 5, REL 2, REL 4, COL 9, COL 10, COL 11]
[2014-Mar-06 14:37:36] : REL 3 has no LOS to target ANT 3.. REL 3 forwards [SGN 5] to REL 4. 
[2014-Mar-06 14:37:37] : [SGN 5] gets relayed to REL 4. 
)[2014-Mar-06 14:37:37] : REL 4 has LOS to [ANT 6, REL 3, REL 1, COL 1, COL 2, COL 12]
[2014-Mar-06 14:37:37] : REL 4 has no LOS to target ANT 3.. REL 4 forwards [SGN 5] to REL 1. 
[2014-Mar-06 14:37:39] : [SGN 5] gets relayed to REL 1. 
)[2014-Mar-06 14:37:39] : REL 1 has LOS to [ANT 1, REL 2, REL 4, COL 3, COL 4, COL 5]
[2014-Mar-06 14:37:39] : REL 1 has no LOS to target ANT 3.. REL 1 forwards [SGN 5] to REL 2. 
[2014-Mar-06 14:37:40] : [SGN 5] gets relayed to REL 2. 
)[2014-Mar-06 14:37:40] : REL 2 has LOS to [ANT 2, ANT 3, REL 1, REL 3, COL 6, COL 7, COL 8]
[2014-Mar-06 14:37:40] : REL 2 has LOS to target ANT 3.. REL 2 forwards [SGN 5] to ANT 3. 
[2014-Mar-06 14:37:41] : ANT 3 receives [SGN 5]. 
)