[2014-Mar-09 17:04:50] : Preparing Dynamic Window Table.. DONE! 

[2014-Mar-09 17:04:50] : COM 1 has started.. 
[2014-Mar-09 17:04:50] : COM 2 has started.. 
[2014-Mar-09 17:04:50] : ANT 4 has started.. 
[2014-Mar-09 17:04:50] : ANT 5 has started.. 
[2014-Mar-09 17:04:50] : ANT 6 has started.. 
[2014-Mar-09 17:04:50] : COL 7 has started.. 
[2014-Mar-09 17:04:50] : COL 6 has started.. 
[2014-Mar-09 17:04:50] : COL 8 has started.. 
[2014-Mar-09 17:04:50] : COL 5 has started.. 
[2014-Mar-09 17:04:50] : COL 4 has started.. 
[2014-Mar-09 17:04:50] : COL 3 has started.. 
[2014-Mar-09 17:04:50] : COL 2 has started.. 
[2014-Mar-09 17:04:50] : COL 1 has started.. 
[2014-Mar-09 17:04:50] : REL 4 has started.. 
[2014-Mar-09 17:04:50] : REL 3 has started.. 
[2014-Mar-09 17:04:50] : REL 2 has started.. 
[2014-Mar-09 17:04:50] : REL 1 has started.. 
[2014-Mar-09 17:04:50] : COL 9 has started.. 
[2014-Mar-09 17:04:50] : ANT 3 has started.. 
[2014-Mar-09 17:04:50] : ANT 2 has started.. 
[2014-Mar-09 17:04:50] : ANT 1 has started.. 
[2014-Mar-09 17:04:50] : COM 3 has started.. 
[2014-Mar-09 17:04:50] : COL 12 has started.. 
[2014-Mar-09 17:04:50] : COL 11 has started.. 
[2014-Mar-09 17:04:50] : COL 10 has started.. 
[2014-Mar-09 17:04:51] : MPL has started.. 
[2014-Mar-09 17:04:51] : New Mission arrived.. MSN 1 [Target: COL 1, Duration: 12000] has been created. 
[2014-Mar-09 17:04:51] : MPL sends [MSN 1] to COM 1.
[2014-Mar-09 17:04:51] : New Mission arrived.. MSN 2 [Target: COL 2, Duration: 15000] has been created. 
[2014-Mar-09 17:04:51] : MPL sends [MSN 2] to COM 2.
[2014-Mar-09 17:04:52] : COM 1 receives [MSN 1] from MPL. 
)[2014-Mar-09 17:04:52] : COM 1 forwards [MSN 1] to ANT 5. 
[2014-Mar-09 17:04:52] : COM 2 receives [MSN 2] from MPL. 
)[2014-Mar-09 17:04:52] : COM 2 forwards [MSN 2] to ANT 5. 
[2014-Mar-09 17:04:53] : ANT 5 receives [MSN 1] from COM 1. 
)[2014-Mar-09 17:04:53] : ANT 5 has LOS to [REL 3, COL 9, COL 10]
[2014-Mar-09 17:04:53] : ANT 5 has no LOS to target COL 1.. ANT 5 forwards [MSN 1] to REL 3. 
[2014-Mar-09 17:04:54] : ANT 5 receives [MSN 2] from COM 2. 
)[2014-Mar-09 17:04:54] : ANT 5 has LOS to [REL 3, COL 9, COL 10]
[2014-Mar-09 17:04:54] : ANT 5 has no LOS to target COL 2.. ANT 5 forwards [MSN 2] to REL 3. 
[2014-Mar-09 17:04:54] : [MSN 1] gets relayed to REL 3. 
)[2014-Mar-09 17:04:54] : REL 3 has LOS to [ANT 4, ANT 5, REL 2, REL 4, COL 7, COL 8, COL 9]
[2014-Mar-09 17:04:55] : REL 3 has no LOS to target COL 1.. REL 3 forwards [MSN 1] to REL 2. 
[2014-Mar-09 17:04:56] : [MSN 1] gets relayed to REL 2. 
)[2014-Mar-09 17:04:56] : REL 2 has LOS to [ANT 2, ANT 3, REL 1, REL 3, COL 4, COL 5, COL 6]
[2014-Mar-09 17:04:56] : REL 2 has no LOS to target COL 1.. REL 2 forwards [MSN 1] to REL 1. 
[2014-Mar-09 17:04:56] : [MSN 2] gets relayed to REL 3. 
)[2014-Mar-09 17:04:56] : REL 3 has LOS to [ANT 4, ANT 5, REL 2, REL 4, COL 7, COL 8, COL 9]
[2014-Mar-09 17:04:56] : REL 3 has no LOS to target COL 2.. REL 3 forwards [MSN 2] to REL 2. 
[2014-Mar-09 17:04:57] : [MSN 1] gets relayed to REL 1. 
)[2014-Mar-09 17:04:57] : REL 1 has LOS to [ANT 1, REL 2, REL 4, COL 1, COL 2, COL 3]
[2014-Mar-09 17:04:57] : REL 1 has LOS to target COL 1.. REL 1 forwards [MSN 1] to COL 1. 
[2014-Mar-09 17:04:58] : [MSN 2] gets relayed to REL 2. 
)[2014-Mar-09 17:04:58] : REL 2 has LOS to [ANT 2, ANT 3, REL 1, REL 3, COL 4, COL 5, COL 6]
[2014-Mar-09 17:04:58] : REL 2 has no LOS to target COL 2.. REL 2 forwards [MSN 2] to REL 1. 
[2014-Mar-09 17:04:59] : COL 1 receives [MSN 1]. 
)[2014-Mar-09 17:04:59] : [MSN 2] gets relayed to REL 1. 
)[2014-Mar-09 17:04:59] : REL 1 has LOS to [ANT 1, REL 2, REL 4, COL 1, COL 2, COL 3]
[2014-Mar-09 17:04:59] : REL 1 has LOS to target COL 2.. REL 1 forwards [MSN 2] to COL 2. 
[2014-Mar-09 17:05:00] : SGN 1 [Target: ANT 5] has been created. 
[2014-Mar-09 17:05:00] : COL 1 has LOS to [ANT 1, REL 1]
[2014-Mar-09 17:05:00] : COL 1 has no LOS to target ANT 5.. COL 1 forwards [SGN 1] to REL 1. 
[2014-Mar-09 17:05:00] : COL 2 receives [MSN 2]. 
)[2014-Mar-09 17:05:01] : [SGN 1] gets relayed to REL 1. 
)[2014-Mar-09 17:05:01] : REL 1 has LOS to [ANT 1, REL 2, REL 4, COL 3, COL 4, COL 5]
[2014-Mar-09 17:05:01] : REL 1 has no LOS to target ANT 5.. REL 1 forwards [SGN 1] to REL 2. 
[2014-Mar-09 17:05:01] : SGN 2 [Target: ANT 5] has been created. 
[2014-Mar-09 17:05:01] : COL 2 has LOS to [ANT 2, REL 4]
[2014-Mar-09 17:05:01] : COL 2 has no LOS to target ANT 5.. COL 2 forwards [SGN 2] to REL 1. 
[2014-Mar-09 17:05:01] : COL 1 has LOS to [ANT 2, REL 4]
[2014-Mar-09 17:05:01] : COL 1 has no LOS to target ANT 5.. COL 1 forwards [SGN 1] to REL 1. 
[2014-Mar-09 17:05:02] : COL 2 has LOS to [ANT 2, REL 4]
[2014-Mar-09 17:05:02] : COL 2 has no LOS to target ANT 5.. COL 2 forwards [SGN 2] to REL 1. 
[2014-Mar-09 17:05:02] : COL 1 has LOS to [ANT 2, REL 4]
[2014-Mar-09 17:05:02] : COL 1 has no LOS to target ANT 5.. COL 1 forwards [SGN 1] to REL 1. 
[2014-Mar-09 17:05:02] : [SGN 1] gets relayed to REL 1. 
)[2014-Mar-09 17:05:02] : REL 1 has LOS to [ANT 1, REL 2, REL 4, COL 3, COL 4, COL 5]
[2014-Mar-09 17:05:02] : REL 1 has no LOS to target ANT 5.. REL 1 forwards [SGN 1] to REL 2. 
[2014-Mar-09 17:05:03] : New Mission arrived.. MSN 3 [Target: COL 1, Duration: 8000] has been created. 
[2014-Mar-09 17:05:03] : MPL sends [MSN 3] to COM 3.
[2014-Mar-09 17:05:03] : COL 2 has LOS to [ANT 2, REL 4]
[2014-Mar-09 17:05:03] : COL 2 has no LOS to target ANT 5.. COL 2 forwards [SGN 2] to REL 1. 
[2014-Mar-09 17:05:03] : COL 1 has LOS to [ANT 2, REL 4]
[2014-Mar-09 17:05:03] : COL 1 has no LOS to target ANT 5.. COL 1 forwards [SGN 1] to REL 1. 
[2014-Mar-09 17:05:03] : [SGN 2] gets relayed to REL 1. 
)[2014-Mar-09 17:05:03] : REL 1 has LOS to [ANT 1, REL 2, REL 4, COL 3, COL 4, COL 5]
[2014-Mar-09 17:05:03] : REL 1 has no LOS to target ANT 5.. REL 1 forwards [SGN 2] to REL 2. 
[2014-Mar-09 17:05:04] : [SGN 2] gets relayed to REL 2. 
)[2014-Mar-09 17:05:04] : REL 2 has LOS to [ANT 2, ANT 3, REL 1, REL 3, COL 6, COL 7, COL 8]
[2014-Mar-09 17:05:04] : REL 2 has no LOS to target ANT 5.. REL 2 forwards [SGN 2] to REL 3. 
[2014-Mar-09 17:05:04] : COM 3 receives [MSN 3] from MPL. 
)[2014-Mar-09 17:05:04] : COM 3 forwards [MSN 3] to ANT 1. 
[2014-Mar-09 17:05:04] : COL 2 has LOS to [ANT 2, REL 4]
[2014-Mar-09 17:05:04] : COL 2 has no LOS to target ANT 5.. COL 2 forwards [SGN 2] to REL 1. 
[2014-Mar-09 17:05:04] : COL 1 has LOS to [ANT 2, REL 4]
[2014-Mar-09 17:05:04] : COL 1 has no LOS to target ANT 5.. COL 1 forwards [SGN 1] to REL 1. 
[2014-Mar-09 17:05:05] : [SGN 1] gets relayed to REL 1. 
)[2014-Mar-09 17:05:05] : REL 1 has LOS to [ANT 1, REL 2, REL 4, COL 3, COL 4, COL 5]
[2014-Mar-09 17:05:05] : REL 1 has no LOS to target ANT 5.. REL 1 forwards [SGN 1] to REL 2. 
[2014-Mar-09 17:05:05] : [SGN 1] gets relayed to REL 2. 
)[2014-Mar-09 17:05:05] : REL 2 has LOS to [ANT 2, ANT 3, REL 1, REL 3, COL 6, COL 7, COL 8]
[2014-Mar-09 17:05:05] : REL 2 has no LOS to target ANT 5.. REL 2 forwards [SGN 1] to REL 3. 
[2014-Mar-09 17:05:05] : COL 2 has LOS to [ANT 2, REL 4]
[2014-Mar-09 17:05:05] : COL 2 has no LOS to target ANT 5.. COL 2 forwards [SGN 2] to REL 1. 
[2014-Mar-09 17:05:05] : COL 1 has LOS to [ANT 2, REL 4]
[2014-Mar-09 17:05:05] : COL 1 has no LOS to target ANT 5.. COL 1 forwards [SGN 1] to REL 1. 
[2014-Mar-09 17:05:05] : ANT 1 receives [MSN 3] from COM 3. 
)[2014-Mar-09 17:05:05] : ANT 1 has LOS to [REL 1, COL 11, COL 12]
[2014-Mar-09 17:05:05] : ANT 1 has no LOS to target COL 1.. ANT 1 forwards [MSN 3] to ANT 1. 
[2014-Mar-09 17:05:06] : [SGN 2] gets relayed to REL 1. 
)[2014-Mar-09 17:05:06] : REL 1 has LOS to [ANT 1, REL 2, REL 4, COL 3, COL 4, COL 5]
[2014-Mar-09 17:05:06] : REL 1 has no LOS to target ANT 5.. REL 1 forwards [SGN 2] to REL 2. 
[2014-Mar-09 17:05:06] : New Mission arrived.. MSN 4 [Target: COL 2, Duration: 10200] has been created. 
[2014-Mar-09 17:05:06] : MPL sends [MSN 4] to COM 1.
[2014-Mar-09 17:05:06] : [SGN 1] gets relayed to REL 2. 
)[2014-Mar-09 17:05:06] : REL 2 has LOS to [ANT 2, ANT 3, REL 1, REL 3, COL 6, COL 7, COL 8]
[2014-Mar-09 17:05:06] : REL 2 has no LOS to target ANT 5.. REL 2 forwards [SGN 1] to REL 3. 
[2014-Mar-09 17:05:06] : COL 2 has LOS to [ANT 2, REL 4]
[2014-Mar-09 17:05:06] : COL 2 has no LOS to target ANT 5.. COL 2 forwards [SGN 2] to REL 1. 
[2014-Mar-09 17:05:06] : COL 1 has LOS to [ANT 2, REL 4]
[2014-Mar-09 17:05:06] : COL 1 has no LOS to target ANT 5.. COL 1 forwards [SGN 1] to REL 1. 
[2014-Mar-09 17:05:07] : ANT 1 receives [MSN 3] from ANT 1. 
)[2014-Mar-09 17:05:07] : ANT 1 has LOS to [REL 1, COL 11, COL 12]
[2014-Mar-09 17:05:07] : ANT 1 has no LOS to target COL 1.. ANT 1 forwards [MSN 3] to ANT 1. 
[2014-Mar-09 17:05:07] : [SGN 2] gets relayed to REL 1. 
)[2014-Mar-09 17:05:07] : REL 1 has LOS to [ANT 1, REL 2, REL 4, COL 3, COL 4, COL 5]
[2014-Mar-09 17:05:07] : REL 1 has no LOS to target ANT 5.. REL 1 forwards [SGN 2] to REL 2. 
[2014-Mar-09 17:05:07] : COM 1 receives [MSN 4] from MPL. 
)[2014-Mar-09 17:05:07] : COM 1 forwards [MSN 4] to ANT 4. 
[2014-Mar-09 17:05:07] : [SGN 1] gets relayed to REL 2. 
)[2014-Mar-09 17:05:07] : REL 2 has LOS to [ANT 2, ANT 3, REL 1, REL 3, COL 6, COL 7, COL 8]
[2014-Mar-09 17:05:07] : REL 2 has no LOS to target ANT 5.. REL 2 forwards [SGN 1] to REL 3. 
[2014-Mar-09 17:05:07] : COL 2 has LOS to [ANT 2, REL 4]
[2014-Mar-09 17:05:07] : COL 2 has no LOS to target ANT 5.. COL 2 forwards [SGN 2] to REL 1. 
[2014-Mar-09 17:05:07] : [SGN 1] gets relayed to REL 3. 
)[2014-Mar-09 17:05:07] : COL 1 has LOS to [ANT 2, REL 4]
[2014-Mar-09 17:05:08] : COL 1 has no LOS to target ANT 5.. COL 1 forwards [SGN 1] to REL 1. 
[2014-Mar-09 17:05:08] : REL 3 has LOS to [ANT 4, ANT 5, REL 2, REL 4, COL 9, COL 10, COL 11]
[2014-Mar-09 17:05:08] : REL 3 has LOS to target ANT 5.. REL 3 forwards [SGN 1] to ANT 5. 
[2014-Mar-09 17:05:08] : [SGN 2] gets relayed to REL 1. 
)[2014-Mar-09 17:05:08] : REL 1 has LOS to [ANT 1, REL 2, REL 4, COL 3, COL 4, COL 5]
[2014-Mar-09 17:05:08] : REL 1 has no LOS to target ANT 5.. REL 1 forwards [SGN 2] to REL 2. 
[2014-Mar-09 17:05:08] : ANT 1 receives [MSN 3] from ANT 1. 
)[2014-Mar-09 17:05:08] : ANT 1 has LOS to [REL 1, COL 11, COL 12]
[2014-Mar-09 17:05:08] : ANT 1 has no LOS to target COL 1.. ANT 1 forwards [MSN 3] to ANT 1. 
[2014-Mar-09 17:05:08] : ANT 4 receives [MSN 4] from COM 1. 
)[2014-Mar-09 17:05:08] : ANT 4 has LOS to [REL 3, COL 5, COL 6]
[2014-Mar-09 17:05:08] : ANT 4 has no LOS to target COL 2.. ANT 4 forwards [MSN 4] to REL 3. 
[2014-Mar-09 17:05:09] : COL 2 has LOS to [ANT 2, REL 4]
[2014-Mar-09 17:05:09] : COL 2 has no LOS to target ANT 5.. COL 2 forwards [SGN 2] to REL 1. 
[2014-Mar-09 17:05:09] : [SGN 1] gets relayed to REL 3. 
)[2014-Mar-09 17:05:09] : COL 1 has LOS to [ANT 2, REL 4]
[2014-Mar-09 17:05:09] : COL 1 has no LOS to target ANT 5.. COL 1 forwards [SGN 1] to REL 1. 
[2014-Mar-09 17:05:09] : REL 3 has LOS to [ANT 4, ANT 5, REL 2, REL 4, COL 9, COL 10, COL 11]
[2014-Mar-09 17:05:09] : REL 3 has LOS to target ANT 5.. REL 3 forwards [SGN 1] to ANT 5. 
[2014-Mar-09 17:05:09] : ANT 5 receives [SGN 1]. 
)[2014-Mar-09 17:05:09] : ANT 5 receives [SGN 1]. 
)[2014-Mar-09 17:05:09] : ANT 5 receives [SGN 1]. 
)[2014-Mar-09 17:05:09] : [SGN 2] gets relayed to REL 1. 
)[2014-Mar-09 17:05:09] : REL 1 has LOS to [ANT 1, REL 2, REL 4, COL 3, COL 4, COL 5]
[2014-Mar-09 17:05:09] : REL 1 has no LOS to target ANT 5.. REL 1 forwards [SGN 2] to REL 2. 
[2014-Mar-09 17:05:09] : [SGN 2] gets relayed to REL 2. 
)[2014-Mar-09 17:05:10] : REL 2 has LOS to [ANT 2, ANT 3, REL 1, REL 3, COL 6, COL 7, COL 8]
[2014-Mar-09 17:05:10] : REL 2 has no LOS to target ANT 5.. REL 2 forwards [SGN 2] to REL 3. 
[2014-Mar-09 17:05:10] : COL 2 has LOS to [ANT 2, REL 4]
[2014-Mar-09 17:05:10] : COL 2 has no LOS to target ANT 5.. COL 2 forwards [SGN 2] to REL 1. 
[2014-Mar-09 17:05:10] : ANT 1 receives [MSN 3] from ANT 1. 
)[2014-Mar-09 17:05:10] : ANT 1 has LOS to [REL 1, COL 11, COL 12]
[2014-Mar-09 17:05:10] : ANT 1 has no LOS to target COL 1.. ANT 1 forwards [MSN 3] to ANT 1. 
[2014-Mar-09 17:05:10] : COL 1 has LOS to [ANT 2, REL 4]
[2014-Mar-09 17:05:10] : COL 1 has no LOS to target ANT 5.. [2014-Mar-09 17:05:10] : [SGN 1] gets relayed to REL 3. 
)COL 1 forwards [SGN 1] to REL 1. 
[2014-Mar-09 17:05:10] : REL 3 has LOS to [ANT 4, ANT 5, REL 2, REL 4, COL 9, COL 10, COL 11]
[2014-Mar-09 17:05:10] : REL 3 has LOS to target ANT 5.. REL 3 forwards [SGN 1] to ANT 5. 
[2014-Mar-09 17:05:10] : ANT 5 receives [SGN 1]. 
)[2014-Mar-09 17:05:10] : ANT 5 receives [SGN 1]. 
)[2014-Mar-09 17:05:10] : [SGN 1] gets relayed to REL 1. 
)[2014-Mar-09 17:05:10] : REL 1 has LOS to [ANT 1, REL 2, REL 4, COL 5, COL 6, COL 7]
[2014-Mar-09 17:05:10] : REL 1 has no LOS to target ANT 5.. REL 1 forwards [SGN 1] to REL 2. 
[2014-Mar-09 17:05:11] : [SGN 2] gets relayed to REL 2. 
)[2014-Mar-09 17:05:11] : REL 2 has LOS to [ANT 2, ANT 3, REL 1, REL 3, COL 8, COL 9, COL 10]
[2014-Mar-09 17:05:11] : REL 2 has no LOS to target ANT 5.. REL 2 forwards [SGN 2] to REL 3. 
[2014-Mar-09 17:05:11] : COL 2 has LOS to [ANT 3, REL 4]
[2014-Mar-09 17:05:11] : COL 2 has no LOS to target ANT 5.. COL 2 forwards [SGN 2] to REL 1. 
[2014-Mar-09 17:05:11] : COL 1 has LOS to [ANT 3, REL 3]
[2014-Mar-09 17:05:11] : COL 1 has no LOS to target ANT 5.. COL 1 forwards [SGN 1] to REL 1. 
[2014-Mar-09 17:05:11] : [SGN 1] gets relayed to REL 3. 
)[2014-Mar-09 17:05:11] : REL 3 has LOS to [ANT 4, ANT 5, REL 2, REL 4, COL 1, COL 11, COL 12]
[2014-Mar-09 17:05:11] : REL 3 has LOS to target ANT 5.. REL 3 forwards [SGN 1] to ANT 5. 
[2014-Mar-09 17:05:11] : New Mission arrived.. MSN 5 [Target: COL 1, Duration: 9300] has been created. 
[2014-Mar-09 17:05:11] : MPL sends [MSN 5] to COM 2.

[2014-Mar-09 17:05:11] : MPL is done loading missions. 

[2014-Mar-09 17:05:11] : ANT 1 receives [MSN 3] from ANT 1. 
)[2014-Mar-09 17:05:11] : COM 3 is done forwarding missions. 

[2014-Mar-09 17:05:11] : COM 1 is done forwarding missions. 

[2014-Mar-09 17:05:11] : ANT 1 has LOS to [REL 1, COL 9, COL 10]
[2014-Mar-09 17:05:11] : ANT 1 has no LOS to target COL 1.. ANT 1 forwards [MSN 3] to ANT 1. 
[2014-Mar-09 17:05:11] : ANT 5 receives [SGN 1]. 
)[2014-Mar-09 17:05:11] : ANT 5 receives [SGN 1]. 
)[2014-Mar-09 17:05:11] : [SGN 1] gets relayed to REL 1. 
)[2014-Mar-09 17:05:11] : REL 1 has LOS to [ANT 1, REL 2, REL 4, COL 5, COL 6, COL 7]
[2014-Mar-09 17:05:11] : REL 1 has no LOS to target ANT 5.. REL 1 forwards [SGN 1] to REL 2. 
[2014-Mar-09 17:05:12] : [SGN 2] gets relayed to REL 2. 
)[2014-Mar-09 17:05:12] : REL 2 has LOS to [ANT 2, ANT 3, REL 1, REL 3, COL 8, COL 9, COL 10]
[2014-Mar-09 17:05:12] : REL 2 has no LOS to target ANT 5.. REL 2 forwards [SGN 2] to REL 3. 
[2014-Mar-09 17:05:12] : COL 2 has LOS to [ANT 3, REL 4]
[2014-Mar-09 17:05:12] : COL 2 has no LOS to target ANT 5.. COL 2 forwards [SGN 2] to REL 1. 
[2014-Mar-09 17:05:12] : COL 1 has LOS to [ANT 3, REL 3]
[2014-Mar-09 17:05:12] : COL 1 has no LOS to target ANT 5.. COL 1 forwards [SGN 1] to REL 1. 
[2014-Mar-09 17:05:12] : COM 2 receives [MSN 5] from MPL. 
)[2014-Mar-09 17:05:12] : COM 2 forwards [MSN 5] to ANT 5. 
[2014-Mar-09 17:05:12] : COM 2 is done forwarding missions. 

[2014-Mar-09 17:05:13] : ANT 1 receives [MSN 3] from ANT 1. 
)[2014-Mar-09 17:05:13] : ANT 1 has LOS to [REL 1, COL 9, COL 10]
[2014-Mar-09 17:05:13] : ANT 1 has no LOS to target COL 1.. ANT 1 forwards [MSN 3] to ANT 1. 
[2014-Mar-09 17:05:13] : [SGN 2] gets relayed to REL 2. 
)[2014-Mar-09 17:05:13] : REL 2 has LOS to [ANT 2, ANT 3, REL 1, REL 3, COL 8, COL 9, COL 10]
[2014-Mar-09 17:05:13] : REL 2 has no LOS to target ANT 5.. REL 2 forwards [SGN 2] to REL 3. 
[2014-Mar-09 17:05:13] : COL 2 has LOS to [ANT 3, REL 4[2014-Mar-09 17:05:13] : [SGN 2] gets relayed to REL 1. 
)]
[2014-Mar-09 17:05:13] : COL 2 has no LOS to target ANT 5.. COL 2 forwards [SGN 2] to REL 1. 
[2014-Mar-09 17:05:13] : REL 1 has LOS to [ANT 1, REL 2, REL 4, COL 5, COL 6, COL 7]
[2014-Mar-09 17:05:13] : REL 1 has no LOS to target ANT 5.. REL 1 forwards [SGN 2] to REL 2. 
[2014-Mar-09 17:05:13] : [MSN 4] gets relayed to REL 3. 
)[2014-Mar-09 17:05:13] : REL 3 has LOS to [ANT 4, ANT 5, REL 2, REL 4, COL 1, COL 11, COL 12]
[2014-Mar-09 17:05:13] : REL 3 has no LOS to target COL 2.. REL 3 forwards [MSN 4] to REL 2. 
[2014-Mar-09 17:05:13] : ANT 5 receives [MSN 5] from COM 2. 
)[2014-Mar-09 17:05:13] : ANT 5 has LOS to [REL 3, COL 5, COL 6]
[2014-Mar-09 17:05:13] : ANT 5 has no LOS to target COL 1.. ANT 5 forwards [MSN 5] to REL 3. 
[2014-Mar-09 17:05:14] : [SGN 2] gets relayed to REL 2. 
)[2014-Mar-09 17:05:14] : REL 2 has LOS to [ANT 2, ANT 3, REL 1, REL 3, COL 8, COL 9, COL 10]
[2014-Mar-09 17:05:14] : REL 2 has no LOS to target ANT 5.. REL 2 forwards [SGN 2] to REL 3. 
[2014-Mar-09 17:05:14] : COL 2 has LOS to [ANT 3, REL 4]
[2014-Mar-09 17:05:14] : COL 2 has no LOS to target ANT 5.. COL 2 forwards [SGN 2] to REL 1. 
[2014-Mar-09 17:05:14] : [SGN 2] gets relayed to REL 1. 
)[2014-Mar-09 17:05:14] : REL 1 has LOS to [ANT 1, REL 2, REL 4, COL 5, COL 6, COL 7]
[2014-Mar-09 17:05:14] : REL 1 has no LOS to target ANT 5.. REL 1 forwards [SGN 2] to REL 2. 
[2014-Mar-09 17:05:14] : ANT 1 receives [MSN 3] from ANT 1. 
)[2014-Mar-09 17:05:14] : ANT 1 has LOS to [REL 1, COL 9, COL 10]
[2014-Mar-09 17:05:14] : ANT 1 has no LOS to target COL 1.. ANT 1 forwards [MSN 3] to ANT 1. 
[2014-Mar-09 17:05:15] : [MSN 5] gets relayed to REL 3. 
)[2014-Mar-09 17:05:15] : REL 3 has LOS to [ANT 4, ANT 5, REL 2, REL 4, COL 1, COL 11, COL 12]
[2014-Mar-09 17:05:15] : REL 3 has LOS to target COL 1.. REL 3 forwards [MSN 5] to COL 1. 
[2014-Mar-09 17:05:15] : [SGN 2] gets relayed to REL 2. 
)[2014-Mar-09 17:05:15] : REL 2 has LOS to [ANT 2, ANT 3, REL 1, REL 3, COL 8, COL 9, COL 10]
[2014-Mar-09 17:05:15] : REL 2 has no LOS to target ANT 5.. REL 2 forwards [SGN 2] to REL 3. 
[2014-Mar-09 17:05:15] : COL 2 has LOS to [ANT 3, REL 4]
[2014-Mar-09 17:05:15] : COL 2 has no LOS to target ANT 5.. COL 2 forwards [SGN 2] to REL 1. 
[2014-Mar-09 17:05:15] : [SGN 2] gets relayed to REL 1. 
)[2014-Mar-09 17:05:15] : REL 1 has LOS to [ANT 1, REL 2, REL 4, COL 5, COL 6, COL 7]
[2014-Mar-09 17:05:15] : REL 1 has no LOS to target ANT 5.. REL 1 forwards [SGN 2] to REL 2. 
[2014-Mar-09 17:05:15] : ANT 1 receives [MSN 3] from ANT 1. 
)[2014-Mar-09 17:05:16] : ANT 1 has LOS to [REL 1, COL 9, COL 10]
[2014-Mar-09 17:05:16] : ANT 1 has no LOS to target COL 1.. ANT 1 forwards [MSN 3] to ANT 1. 
[2014-Mar-09 17:05:16] : COL 2 has LOS to [ANT 3, REL 4]
[2014-Mar-09 17:05:16] : COL 2 has no LOS to target ANT 5.. COL 2 forwards [SGN 2] to REL 1. 
[2014-Mar-09 17:05:16] : [SGN 2] gets relayed to REL 1. 
)[2014-Mar-09 17:05:16] : REL 1 has LOS to [ANT 1, REL 2, REL 4, COL 5, COL 6, COL 7]
[2014-Mar-09 17:05:16] : REL 1 has no LOS to target ANT 5.. REL 1 forwards [SGN 2] to REL 2. 
[2014-Mar-09 17:05:16] : COL 1 receives [MSN 5]. 
)[2014-Mar-09 17:05:17] : ANT 1 receives [MSN 3] from ANT 1. 
)[2014-Mar-09 17:05:17] : ANT 1 has LOS to [REL 1, COL 9, COL 10]
[2014-Mar-09 17:05:17] : ANT 1 has no LOS to target COL 1.. ANT 1 forwards [MSN 3] to ANT 1. 
[2014-Mar-09 17:05:17] : [SGN 1] gets relayed to REL 1. 
)[2014-Mar-09 17:05:17] : REL 1 has LOS to [ANT 1, REL 2, REL 4, COL 5, COL 6, COL 7]
[2014-Mar-09 17:05:17] : REL 1 has no LOS to target ANT 5.. REL 1 forwards [SGN 1] to REL 2. 
[2014-Mar-09 17:05:17] : SGN 5 [Target: ANT 5] has been created. 
[2014-Mar-09 17:05:17] : COL 1 has LOS to [ANT 3, REL 3]
[2014-Mar-09 17:05:17] : COL 1 has no LOS to target ANT 5.. COL 1 forwards [SGN 5] to REL 3. 
[2014-Mar-09 17:05:17] : [MSN 4] gets relayed to REL 2. 
)[2014-Mar-09 17:05:17] : REL 2 has LOS to [ANT 2, ANT 3, REL 1, REL 3, COL 8, COL 9, COL 10]
[2014-Mar-09 17:05:18] : REL 2 has no LOS to target COL 2.. REL 2 forwards [MSN 4] to REL 1. 
[2014-Mar-09 17:05:18] : [SGN 2] gets relayed to REL 2. 
)[2014-Mar-09 17:05:18] : REL 2 has LOS to [ANT 2, ANT 3, REL 1, REL 3, COL 8, COL 9, COL 10]
[2014-Mar-09 17:05:18] : REL 2 has no LOS to target ANT 5.. REL 2 forwards [SGN 2] to REL 3. 
[2014-Mar-09 17:05:18] : [SGN 2] gets relayed to REL 1. 
)[2014-Mar-09 17:05:18] : REL 1 has LOS to [ANT 1, REL 2, REL 4, COL 5, COL 6, COL 7]
[2014-Mar-09 17:05:18] : REL 1 has no LOS to target ANT 5.. REL 1 forwards [SGN 2] to REL 2. 
[2014-Mar-09 17:05:18] : COL 1 has LOS to [ANT 3, REL 3]
[2014-Mar-09 17:05:18] : COL 1 has no LOS to target ANT 5.. COL 1 forwards [SGN 5] to REL 3. 
[2014-Mar-09 17:05:18] : ANT 1 receives [MSN 3] from ANT 1. 
)[2014-Mar-09 17:05:18] : ANT 1 has LOS to [REL 1, COL 9, COL 10]
[2014-Mar-09 17:05:18] : ANT 1 has no LOS to target COL 1.. ANT 1 forwards [MSN 3] to ANT 1. 
[2014-Mar-09 17:05:19] : [SGN 1] gets relayed to REL 2. 
)[2014-Mar-09 17:05:19] : REL 2 has LOS to [ANT 2, ANT 3, REL 1, REL 3, COL 8, COL 9, COL 10]
[2014-Mar-09 17:05:19] : REL 2 has no LOS to target ANT 5.. REL 2 forwards [SGN 1] to REL 3. 
[2014-Mar-09 17:05:19] : [SGN 5] gets relayed to REL 3. 
)[2014-Mar-09 17:05:19] : REL 3 has LOS to [ANT 4, ANT 5, REL 2, REL 4, COL 1, COL 11, COL 12]
[2014-Mar-09 17:05:19] : REL 3 has LOS to target ANT 5.. REL 3 forwards [SGN 5] to ANT 5. 
[2014-Mar-09 17:05:19] : [SGN 2] gets relayed to REL 1. 
)[2014-Mar-09 17:05:19] : REL 1 has LOS to [ANT 1, REL 2, REL 4, COL 5, COL 6, COL 7]
[2014-Mar-09 17:05:19] : REL 1 has no LOS to target ANT 5.. REL 1 forwards [SGN 2] to REL 2. 
[2014-Mar-09 17:05:19] : COL 1 has LOS to [ANT 3, REL 3]
[2014-Mar-09 17:05:19] : COL 1 has no LOS to target ANT 5.. COL 1 forwards [SGN 5] to REL 3. 
[2014-Mar-09 17:05:19] : ANT 5 receives [SGN 5]. 
)[2014-Mar-09 17:05:20] : [SGN 2] gets relayed to REL 2. 
)[2014-Mar-09 17:05:20] : REL 2 has LOS to [ANT 2, ANT 3, REL 1, REL 3, COL 8, COL 9, COL 10]
[2014-Mar-09 17:05:20] : REL 2 has no LOS to target ANT 5.. REL 2 forwards [SGN 2] to REL 3. 
[2014-Mar-09 17:05:20] : ANT 1 receives [MSN 3] from ANT 1. 
)[2014-Mar-09 17:05:20] : ANT 1 has LOS to [REL 1, COL 9, COL 10]
[2014-Mar-09 17:05:20] : ANT 1 has no LOS to target COL 1.. ANT 1 forwards [MSN 3] to ANT 1. 
[2014-Mar-09 17:05:20] : [SGN 1] gets relayed to REL 1. 
)[2014-Mar-09 17:05:20] : REL 1 has LOS to [ANT 1, REL 2, REL 4, COL 7, COL 8, COL 9]
[2014-Mar-09 17:05:20] : REL 1 has no LOS to target ANT 5.. REL 1 forwards [SGN 1] to REL 2. 
[2014-Mar-09 17:05:20] : [SGN 2] gets relayed to REL 3. 
)[2014-Mar-09 17:05:20] : REL 3 has LOS to [ANT 4, ANT 5, REL 2, REL 4, COL 1, COL 2, COL 3]
[2014-Mar-09 17:05:20] : REL 3 has LOS to target ANT 5.. REL 3 forwards [SGN 2] to ANT 5. 
[2014-Mar-09 17:05:20] : COL 1 has LOS to [ANT 4, REL 3]
[2014-Mar-09 17:05:20] : COL 1 has no LOS to target ANT 5.. COL 1 forwards [SGN 5] to REL 3. 
[2014-Mar-09 17:05:21] : [SGN 2] gets relayed to REL 2. 
)[2014-Mar-09 17:05:21] : REL 2 has LOS to [ANT 2, ANT 3, REL 1, REL 3, COL 10, COL 11, COL 12]
[2014-Mar-09 17:05:21] : REL 2 has no LOS to target ANT 5.. REL 2 forwards [SGN 2] to REL 3. 
[2014-Mar-09 17:05:21] : [SGN 1] gets relayed to REL 1. 
)[2014-Mar-09 17:05:21] : REL 1 has LOS to [ANT 1, REL 2, REL 4, COL 7, COL 8, COL 9]
[2014-Mar-09 17:05:21] : REL 1 has no LOS to target ANT 5.. REL 1 forwards [SGN 1] to REL 2. 
[2014-Mar-09 17:05:21] : [SGN 2] gets relayed to REL 3. 
)[2014-Mar-09 17:05:21] : REL 3 has LOS to [ANT 4, ANT 5, REL 2, REL 4, COL 1, COL 2, COL 3]
[2014-Mar-09 17:05:21] : REL 3 has LOS to target ANT 5.. REL 3 forwards [SGN 2] to ANT 5. 
[2014-Mar-09 17:05:21] : COL 1 has LOS to [ANT 4, REL 3]
[2014-Mar-09 17:05:21] : ANT 1 receives [MSN 3] from ANT 1. 
)[2014-Mar-09 17:05:21] : COL 1 has no LOS to target ANT 5.. COL 1 forwards [SGN 5] to REL 3. 
[2014-Mar-09 17:05:21] : ANT 1 has LOS to [REL 1, COL 7, COL 8]
[2014-Mar-09 17:05:21] : ANT 1 has no LOS to target COL 1.. ANT 1 forwards [MSN 3] to ANT 1. 
[2014-Mar-09 17:05:22] : ANT 5 receives [SGN 2]. 
)[2014-Mar-09 17:05:22] : ANT 5 receives [SGN 2]. 
)[2014-Mar-09 17:05:22] : [SGN 2] gets relayed to REL 2. 
)[2014-Mar-09 17:05:22] : REL 2 has LOS to [ANT 2, ANT 3, REL 1, REL 3, COL 10, COL 11, COL 12]
[2014-Mar-09 17:05:22] : REL 2 has no LOS to target ANT 5.. REL 2 forwards [SGN 2] to REL 3. 
[2014-Mar-09 17:05:22] : [SGN 1] gets relayed to REL 1. 
)[2014-Mar-09 17:05:22] : REL 1 has LOS to [ANT 1, REL 2, REL 4, COL 7, COL 8, COL 9]
[2014-Mar-09 17:05:22] : REL 1 has no LOS to target ANT 5.. REL 1 forwards [SGN 1] to REL 2. 
[2014-Mar-09 17:05:22] : [SGN 5] gets relayed to REL 3. 
)[2014-Mar-09 17:05:22] : REL 3 has LOS to [ANT 4, ANT 5, REL 2, REL 4, COL 1, COL 2, COL 3]
[2014-Mar-09 17:05:22] : REL 3 has LOS to target ANT 5.. REL 3 forwards [SGN 5] to ANT 5. 
[2014-Mar-09 17:05:22] : COL 1 has LOS to [ANT 4, REL 3]
[2014-Mar-09 17:05:22] : COL 1 has no LOS to target ANT 5.. COL 1 forwards [SGN 5] to REL 3. 
[2014-Mar-09 17:05:23] : [SGN 2] gets relayed to REL 2. 
)[2014-Mar-09 17:05:23] : REL 2 has LOS to [ANT 2, ANT 3, REL 1, REL 3, COL 10, COL 11, COL 12]
[2014-Mar-09 17:05:23] : REL 2 has no LOS to target ANT 5.. REL 2 forwards [SGN 2] to REL 3. 
[2014-Mar-09 17:05:23] : ANT 1 receives [MSN 3] from ANT 1. 
)[2014-Mar-09 17:05:23] : ANT 1 has LOS to [REL 1, COL 7, COL 8]
[2014-Mar-09 17:05:23] : ANT 1 has no LOS to target COL 1.. ANT 1 forwards [MSN 3] to ANT 1. 
[2014-Mar-09 17:05:23] : [SGN 2] gets relayed to REL 1. 
)[2014-Mar-09 17:05:23] : REL 1 has LOS to [ANT 1, REL 2, REL 4, COL 7, COL 8, COL 9]
[2014-Mar-09 17:05:23] : REL 1 has no LOS to target ANT 5.. REL 1 forwards [SGN 2] to REL 2. 
[2014-Mar-09 17:05:23] : [SGN 2] gets relayed to REL 3. 
)[2014-Mar-09 17:05:23] : REL 3 has LOS to [ANT 4, ANT 5, REL 2, REL 4, COL 1, COL 2, COL 3]
[2014-Mar-09 17:05:24] : REL 3 has LOS to target ANT 5.. REL 3 forwards [SGN 2] to ANT 5. 
[2014-Mar-09 17:05:24] : COL 1 has LOS to [ANT 4, REL 3]
[2014-Mar-09 17:05:24] : COL 1 has no LOS to target ANT 5.. COL 1 forwards [SGN 5] to REL 3. 
[2014-Mar-09 17:05:24] : ANT 5 receives [SGN 2]. 
)[2014-Mar-09 17:05:24] : ANT 5 receives [SGN 2]. 
)[2014-Mar-09 17:05:24] : ANT 5 receives [SGN 2]. 
)[2014-Mar-09 17:05:24] : [SGN 2] gets relayed to REL 2. 
)[2014-Mar-09 17:05:24] : REL 2 has LOS to [ANT 2, ANT 3, REL 1, REL 3, COL 10, COL 11, COL 12]
[2014-Mar-09 17:05:24] : REL 2 has no LOS to target ANT 5.. REL 2 forwards [SGN 2] to REL 3. 
[2014-Mar-09 17:05:24] : ANT 1 receives [MSN 3] from ANT 1. 
)[2014-Mar-09 17:05:24] : ANT 1 has LOS to [REL 1, COL 7, COL 8]
[2014-Mar-09 17:05:24] : ANT 1 has no LOS to target COL 1.. ANT 1 forwards [MSN 3] to ANT 1. 
[2014-Mar-09 17:05:25] : COL 1 has LOS to [ANT 4, REL 3]
[2014-Mar-09 17:05:25] : COL 1 has no LOS to target ANT 5.. COL 1 forwards [SGN 5] to REL 3. 
[2014-Mar-09 17:05:25] : [SGN 2] gets relayed to REL 2. 
)[2014-Mar-09 17:05:25] : REL 2 has LOS to [ANT 2, ANT 3, REL 1, REL 3, COL 10, COL 11, COL 12]
[2014-Mar-09 17:05:25] : REL 2 has no LOS to target ANT 5.. REL 2 forwards [SGN 2] to REL 3. 
[2014-Mar-09 17:05:25] : [SGN 5] gets relayed to REL 3. 
)[2014-Mar-09 17:05:25] : REL 3 has LOS to [ANT 4, ANT 5, REL 2, REL 4, COL 1, COL 2, COL 3]
[2014-Mar-09 17:05:25] : REL 3 has LOS to target ANT 5.. REL 3 forwards [SGN 5] to ANT 5. 
[2014-Mar-09 17:05:26] : COL 1 has LOS to [[2014-Mar-09 17:05:26] : ANT 5 receives [SGN 5]. 
)ANT 4, REL 3]
[2014-Mar-09 17:05:26] : COL 1 has no LOS to target ANT 5.. COL 1 forwards [SGN 5] to REL 3. 
[2014-Mar-09 17:05:26] : [MSN 4] gets relayed to REL 1. 
)[2014-Mar-09 17:05:26] : REL 1 has LOS to [[2014-Mar-09 17:05:26] : ANT 1 receives [MSN 3] from ANT 1. 
)ANT 1, REL 2, REL 4, COL 7, COL 8, COL 9]
[2014-Mar-09 17:05:26] : REL 1 has no LOS to target COL 2.. REL 1 forwards [MSN 4] to REL 1. 
[2014-Mar-09 17:05:26] : ANT 1 has LOS to [REL 1, COL 7, [2014-Mar-09 17:05:26] : [SGN 2] gets relayed to REL 2. 
)COL 8]
[2014-Mar-09 17:05:26] : ANT 1 has no LOS to target COL 1.. ANT 1 forwards [MSN 3] to ANT 1. 
[2014-Mar-09 17:05:26] : REL 2 has LOS to [ANT 2, ANT 3, REL 1, REL 3, COL 10, COL 11, COL 12]
[2014-Mar-09 17:05:26] : REL 2 has no LOS to target ANT 5.. REL 2 forwards [SGN 2] to REL 3. 
[2014-Mar-09 17:05:26] : [SGN 5] gets relayed to REL 3. 
)[2014-Mar-09 17:05:26] : REL 3 has LOS to [ANT 4, ANT 5, REL 2, REL 4, COL 1, COL 2, COL 3]
[2014-Mar-09 17:05:26] : REL 3 has LOS to target ANT 5.. REL 3 forwards [SGN 5] to ANT 5. 
[2014-Mar-09 17:05:27] : ANT 5 receives [SGN 5]. 
)[2014-Mar-09 17:05:27] : COL 1 has LOS to [ANT 4, REL 3]
[2014-Mar-09 17:05:27] : COL 1 has no LOS to target ANT 5.. COL 1 forwards [SGN 5] to REL 3. 
[2014-Mar-09 17:05:27] : [SGN 2] gets relayed to REL 2. 
)[2014-Mar-09 17:05:27] : REL 2 has LOS to [ANT 2, ANT 3, REL 1, REL 3, COL 10, COL 11, COL 12]
[2014-Mar-09 17:05:27] : REL 2 has no LOS to target ANT 5.. REL 2 forwards [SGN 2] to REL 3. 
[2014-Mar-09 17:05:27] : [SGN 5] gets relayed to REL 3. 
)[2014-Mar-09 17:05:27] : REL 3 has LOS to [ANT 4, ANT 5, REL 2, REL 4, COL 1, COL 2, COL 3]
[2014-Mar-09 17:05:27] : REL 3 has LOS to target ANT 5.. REL 3 forwards [SGN 5] to ANT 5. 
[2014-Mar-09 17:05:27] : ANT 5 receives [SGN 5]. 
)[2014-Mar-09 17:05:27] : ANT 5 receives [SGN 5]. 
)[2014-Mar-09 17:05:28] : [MSN 4] gets relayed to REL 1. 
)[2014-Mar-09 17:05:28] : REL 1 has LOS to [[2014-Mar-09 17:05:28] : ANT 1 receives [MSN 3] from ANT 1. 
)ANT 1, REL 2, REL 4, COL 7, COL 8, COL 9]
[2014-Mar-09 17:05:28] : REL 1 has no LOS to target COL 2.. REL 1 forwards [MSN 4] to REL 1. 
[2014-Mar-09 17:05:28] : ANT 1 has LOS to [REL 1, COL 7, COL 8]
[2014-Mar-09 17:05:28] : ANT 1 has no LOS to target COL 1.. ANT 1 forwards [MSN 3] to ANT 1. 
[2014-Mar-09 17:05:28] : ANT 5 receives [SGN 5]. 
)[2014-Mar-09 17:05:28] : [SGN 2] gets relayed to REL 2. 
)[2014-Mar-09 17:05:28] : REL 2 has LOS to [ANT 2, ANT 3, REL 1, REL 3, COL 10, COL 11, COL 12]
[2014-Mar-09 17:05:28] : REL 2 has no LOS to target ANT 5.. REL 2 forwards [SGN 2] to REL 3. 
[2014-Mar-09 17:05:28] : [SGN 5] gets relayed to REL 3. 
)[2014-Mar-09 17:05:28] : REL 3 has LOS to [ANT 4, ANT 5, REL 2, REL 4, COL 1, COL 2, COL 3]
[2014-Mar-09 17:05:28] : REL 3 has LOS to target ANT 5.. REL 3 forwards [SGN 5] to ANT 5. 
[2014-Mar-09 17:05:29] : ANT 5 receives [SGN 5]. 
)[2014-Mar-09 17:05:29] : [MSN 4] gets relayed to REL 1. 
)[2014-Mar-09 17:05:29] : REL 1 has LOS to [ANT 1, REL 2, REL 4, COL 7, COL 8, COL 9]
[2014-Mar-09 17:05:29] : REL 1 has no LOS to target COL 2.. [2014-Mar-09 17:05:29] : ANT 1 receives [MSN 3] from ANT 1. 
)REL 1 forwards [MSN 4] to REL 1. 
[2014-Mar-09 17:05:29] : ANT 1 has LOS to [REL 1, COL 7, COL 8]
[2014-Mar-09 17:05:29] : ANT 1 has no LOS to target COL 1.. ANT 1 forwards [MSN 3] to ANT 1. 
[2014-Mar-09 17:05:29] : [SGN 2] gets relayed to REL 2. 
)[2014-Mar-09 17:05:29] : REL 2 has LOS to [ANT 2, ANT 3, REL 1, REL 3, COL 10, COL 11, COL 12]
[2014-Mar-09 17:05:29] : REL 2 has no LOS to target ANT 5.. REL 2 forwards [SGN 2] to REL 3. 
[2014-Mar-09 17:05:29] : [SGN 5] gets relayed to REL 3. 
)[2014-Mar-09 17:05:29] : REL 3 has LOS to [ANT 4, ANT 5, REL 2, REL 4, COL 1, COL 2, COL 3]
[2014-Mar-09 17:05:29] : REL 3 has LOS to target ANT 5.. REL 3 forwards [SGN 5] to ANT 5. 
[2014-Mar-09 17:05:30] : ANT 5 receives [SGN 5]. 
)[2014-Mar-09 17:05:30] : [SGN 2] gets relayed to REL 2. 
)[2014-Mar-09 17:05:30] : REL 2 has LOS to [ANT 2, ANT 3, REL 1, REL 3, COL 1, COL 2, COL 12]
[2014-Mar-09 17:05:30] : REL 2 has no LOS to target ANT 5.. REL 2 forwards [SGN 2] to REL 3. 
[2014-Mar-09 17:05:31] : [SGN 2] gets relayed to REL 3. 
)[2014-Mar-09 17:05:31] : REL 3 has LOS to [ANT 4, ANT 5, REL 2, REL 4, COL 3, COL 4, COL 5]
[2014-Mar-09 17:05:31] : REL 3 has LOS to target ANT 5.. [2014-Mar-09 17:05:31] : ANT 1 receives [MSN 3] from ANT 1. 
)REL 3 forwards [SGN 2] to ANT 5. 
[2014-Mar-09 17:05:31] : ANT 1 has LOS to [REL 1, COL 5, [2014-Mar-09 17:05:31] : [MSN 4] gets relayed to REL 1. 
)COL 6]
[2014-Mar-09 17:05:31] : ANT 1 has no LOS to target COL 1.. ANT 1 forwards [MSN 3] to ANT 1. 
[2014-Mar-09 17:05:31] : REL 1 has LOS to [[2014-Mar-09 17:05:31] : ANT 5 receives [SGN 2]. 
)[2014-Mar-09 17:05:31] : ANT 5 receives [SGN 2]. 
)[2014-Mar-09 17:05:31] : ANT 5 receives [SGN 2]. 
)ANT 1, REL 2, REL 4, [2014-Mar-09 17:05:31] : ANT 5 receives [SGN 2]. 
)COL 9, COL 10, [2014-Mar-09 17:05:31] : ANT 5 receives [SGN 2]. 
)COL 11]
[2014-Mar-09 17:05:31] : REL 1 has no LOS to target COL 2.. [2014-Mar-09 17:05:31] : ANT 5 receives [SGN 5]. 
)REL 1 forwards [MSN 4] to REL 1. 
[2014-Mar-09 17:05:31] : ANT 5 receives [SGN 2]. 
)[2014-Mar-09 17:05:32] : [SGN 2] gets relayed to REL 3. 
)[2014-Mar-09 17:05:32] : REL 3 has LOS to [ANT 4, ANT 5, REL 2, REL 4, COL 3, COL 4, COL 5]
[2014-Mar-09 17:05:32] : REL 3 has LOS to target ANT 5.. REL 3 forwards [SGN 2] to ANT 5. 
[2014-Mar-09 17:05:32] : ANT 5 receives [SGN 2]. 
)[2014-Mar-09 17:05:32] : [SGN 1] gets relayed to REL 2. 
)[2014-Mar-09 17:05:32] : REL 2 has LOS to [ANT 2, ANT 3, REL 1, REL 3, COL 1, COL 2, COL 12]
[2014-Mar-09 17:05:32] : REL 2 has no LOS to target ANT 5.. REL 2 forwards [SGN 1] to REL 3. 
[2014-Mar-09 17:05:32] : ANT 1 receives [MSN 3] from ANT 1. 
)[2014-Mar-09 17:05:32] : ANT 1 has LOS to [REL 1, COL 5, COL 6]
[2014-Mar-09 17:05:32] : ANT 1 has no LOS to target COL 1.. ANT 1 forwards [MSN 3] to ANT 1. 
[2014-Mar-09 17:05:33] : [MSN 4] gets relayed to REL 1. 
)[2014-Mar-09 17:05:33] : REL 1 has LOS to [ANT 1, REL 2, REL 4, COL 9, COL 10, COL 11]
[2014-Mar-09 17:05:33] : REL 1 has no LOS to target COL 2.. REL 1 forwards [MSN 4] to REL 1. 
[2014-Mar-09 17:05:33] : [SGN 2] gets relayed to REL 3. 
)[2014-Mar-09 17:05:33] : REL 3 has LOS to [ANT 4, ANT 5, REL 2, REL 4, COL 3, COL 4, COL 5]
[2014-Mar-09 17:05:33] : REL 3 has LOS to target ANT 5.. [2014-Mar-09 17:05:33] : ANT 5 receives [SGN 2]. 
)REL 3 forwards [SGN 2] to ANT 5. 
[2014-Mar-09 17:05:33] : [SGN 1] gets relayed to REL 2. 
)[2014-Mar-09 17:05:33] : REL 2 has LOS to [ANT 2, ANT 3, REL 1, REL 3, COL 1, COL 2, COL 12]
[2014-Mar-09 17:05:33] : REL 2 has no LOS to target ANT 5.. REL 2 forwards [SGN 1] to REL 3. 
[2014-Mar-09 17:05:34] : ANT 1 receives [MSN 3] from ANT 1. 
)[2014-Mar-09 17:05:34] : ANT 1 has LOS to [REL 1, COL 5, COL 6]
[2014-Mar-09 17:05:34] : ANT 1 has no LOS to target COL 1.. ANT 1 forwards [MSN 3] to ANT 1. 
[2014-Mar-09 17:05:34] : [SGN 5] gets relayed to REL 3. 
)[2014-Mar-09 17:05:34] : REL 3 has LOS to [ANT 4, ANT 5, REL 2, REL 4, COL 3, COL 4, COL 5]
[2014-Mar-09 17:05:34] : REL 3 has LOS to target ANT 5.. REL 3 forwards [SGN 5] to ANT 5. 
[2014-Mar-09 17:05:34] : [MSN 4] gets relayed to REL 1. 
)[2014-Mar-09 17:05:34] : REL 1 has LOS to [ANT 1, REL 2, REL 4, COL 9, COL 10, COL 11]
[2014-Mar-09 17:05:34] : REL 1 has no LOS to target COL 2.. REL 1 forwards [MSN 4] to REL 1. 
[2014-Mar-09 17:05:34] : [SGN 1] gets relayed to REL 2. 
)[2014-Mar-09 17:05:34] : ANT 5 receives [SGN 2]. 
)[2014-Mar-09 17:05:34] : REL 2 has LOS to [ANT 2, ANT 3, REL 1, REL 3, COL 1, COL 2, COL 12]
[2014-Mar-09 17:05:34] : REL 2 has no LOS to target ANT 5.. REL 2 forwards [SGN 1] to REL 3. 
[2014-Mar-09 17:05:35] : [SGN 2] gets relayed to REL 3. 
)[2014-Mar-09 17:05:35] : REL 3 has LOS to [ANT 4, ANT 5, REL 2, REL 4, COL 3, COL 4, COL 5]
[2014-Mar-09 17:05:35] : REL 3 has LOS to target ANT 5.. REL 3 forwards [SGN 2] to ANT 5. 
[2014-Mar-09 17:05:35] : ANT 5 receives [SGN 5]. 
)[2014-Mar-09 17:05:35] : ANT 1 receives [MSN 3] from ANT 1. 
)[2014-Mar-09 17:05:35] : ANT 1 has LOS to [REL 1, COL 5, COL 6]
[2014-Mar-09 17:05:35] : ANT 1 has no LOS to target COL 1.. [2014-Mar-09 17:05:35] : [SGN 1] gets relayed to REL 2. 
)ANT 1 forwards [MSN 3] to ANT 1. 
[2014-Mar-09 17:05:35] : REL 2 has LOS to [ANT 2, ANT 3, REL 1, REL 3, COL 1, COL 2, COL 12]
[2014-Mar-09 17:05:35] : REL 2 has no LOS to target ANT 5.. REL 2 forwards [SGN 1] to REL 3. 
[2014-Mar-09 17:05:36] : [MSN 4] gets relayed to REL 1. 
)[2014-Mar-09 17:05:36] : REL 1 has LOS to [ANT 1, REL 2, REL 4, COL 9, COL 10, COL 11]
[2014-Mar-09 17:05:36] : REL 1 has no LOS to target COL 2.. REL 1 forwards [MSN 4] to REL 1. 
[2014-Mar-09 17:05:36] : [SGN 1] gets relayed to REL 2. 
)[2014-Mar-09 17:05:36] : REL 2 has LOS to [ANT 2, ANT 3, REL 1, REL 3, COL 1, COL 2, COL 12]
[2014-Mar-09 17:05:36] : REL 2 has no LOS to target ANT 5.. REL 2 forwards [SGN 1] to REL 3. 
[2014-Mar-09 17:05:36] : ANT 5 receives [SGN 2]. 
)[2014-Mar-09 17:05:37] : [SGN 1] gets relayed to REL 3. 
)[2014-Mar-09 17:05:37] : REL 3 has LOS to [ANT 4, ANT 5, REL 2, REL 4, COL 3, COL 4, COL 5]
[2014-Mar-09 17:05:37] : REL 3 has LOS to target ANT 5.. REL 3 forwards [SGN 1] to ANT 5. 
[2014-Mar-09 17:05:37] : ANT 1 receives [MSN 3] from ANT 1. 
)[2014-Mar-09 17:05:37] : ANT 1 has LOS to [REL 1, COL 5, COL 6]
[2014-Mar-09 17:05:37] : ANT 1 has no LOS to target COL 1.. ANT 1 forwards [MSN 3] to ANT 1. 
[2014-Mar-09 17:05:37] : [MSN 4] gets relayed to REL 1. 
)[2014-Mar-09 17:05:37] : REL 1 has LOS to [ANT 1, REL 2, REL 4, COL 9, COL 10, COL 11]
[2014-Mar-09 17:05:37] : REL 1 has no LOS to target COL 2.. REL 1 forwards [MSN 4] to REL 1. 
[2014-Mar-09 17:05:38] : [SGN 1] gets relayed to REL 3. 
)[2014-Mar-09 17:05:38] : REL 3 has LOS to [ANT 4, ANT 5, REL 2, REL 4, COL 3, COL 4, COL 5]
[2014-Mar-09 17:05:38] : REL 3 has LOS to target ANT 5.. REL 3 forwards [SGN 1] to ANT 5. 
[2014-Mar-09 17:05:38] : ANT 5 receives [SGN 1]. 
)[2014-Mar-09 17:05:38] : ANT 5 receives [SGN 1]. 
)[2014-Mar-09 17:05:38] : ANT 1 receives [MSN 3] from ANT 1. 
)[2014-Mar-09 17:05:38] : ANT 1 has LOS to [REL 1, COL 5, COL 6]
[2014-Mar-09 17:05:38] : ANT 1 has no LOS to target COL 1.. ANT 1 forwards [MSN 3] to ANT 1. 
[2014-Mar-09 17:05:39] : [MSN 4] gets relayed to REL 1. 
)[2014-Mar-09 17:05:39] : REL 1 has LOS to [ANT 1, REL 2, REL 4, COL 9, COL 10, COL 11]
[2014-Mar-09 17:05:39] : REL 1 has no LOS to target COL 2.. REL 1 forwards [MSN 4] to REL 1. 
[2014-Mar-09 17:05:39] : [SGN 1] gets relayed to REL 3. 
)[2014-Mar-09 17:05:39] : REL 3 has LOS to [ANT 4, ANT 5, REL 2, REL 4, COL 3, COL 4, COL 5]
[2014-Mar-09 17:05:39] : REL 3 has LOS to target ANT 5.. REL 3 forwards [SGN 1] to ANT 5. 
[2014-Mar-09 17:05:39] : ANT 5 receives [SGN 1]. 
)[2014-Mar-09 17:05:40] : ANT 1 receives [MSN 3] from ANT 1. 
)[2014-Mar-09 17:05:40] : ANT 1 has LOS to [REL 1, COL 5, COL 6]
[2014-Mar-09 17:05:40] : ANT 1 has no LOS to target COL 1.. ANT 1 forwards [MSN 3] to ANT 1. 
[2014-Mar-09 17:05:40] : [SGN 1] gets relayed to REL 3. 
)[2014-Mar-09 17:05:40] : REL 3 has LOS to [ANT 4, ANT 5, REL 2, REL 4, COL 3, COL 4, COL 5]
[2014-Mar-09 17:05:40] : REL 3 has LOS to target ANT 5.. REL 3 forwards [SGN 1] to ANT 5. 
[2014-Mar-09 17:05:40] : ANT 5 receives [SGN 1]. 
)[2014-Mar-09 17:05:40] : [MSN 4] gets relayed to REL 1. 
)[2014-Mar-09 17:05:40] : REL 1 has LOS to [ANT 1, REL 2, REL 4, COL 1, COL 11, COL 12]
[2014-Mar-09 17:05:40] : REL 1 has no LOS to target COL 2.. REL 1 forwards [MSN 4] to REL 1. 
[2014-Mar-09 17:05:41] : ANT 5 receives [SGN 1]. 
)[2014-Mar-09 17:05:41] : ANT 1 receives [MSN 3] from ANT 1. 
)[2014-Mar-09 17:05:41] : ANT 1 has LOS to [REL 1, COL 3, COL 4]
[2014-Mar-09 17:05:41] : ANT 1 has no LOS to target COL 1.. ANT 1 forwards [MSN 3] to ANT 1. 
[2014-Mar-09 17:05:42] : [MSN 4] gets relayed to REL 1. 
)[2014-Mar-09 17:05:42] : REL 1 has LOS to [ANT 1, REL 2, REL 4, COL 1, COL 11, COL 12]
[2014-Mar-09 17:05:42] : REL 1 has no LOS to target COL 2.. REL 1 forwards [MSN 4] to REL 1. 
[2014-Mar-09 17:05:43] : ANT 1 receives [MSN 3] from ANT 1. 
)[2014-Mar-09 17:05:43] : ANT 1 has LOS to [REL 1, COL 3, COL 4]
[2014-Mar-09 17:05:43] : ANT 1 has no LOS to target COL 1.. ANT 1 forwards [MSN 3] to ANT 1. 
[2014-Mar-09 17:05:43] : [MSN 4] gets relayed to REL 1. 
)[2014-Mar-09 17:05:43] : REL 1 has LOS to [ANT 1, REL 2, REL 4, COL 1, COL 11, COL 12]
[2014-Mar-09 17:05:43] : REL 1 has no LOS to target COL 2.. REL 1 forwards [MSN 4] to REL 1. 
[2014-Mar-09 17:05:44] : ANT 1 receives [MSN 3] from ANT 1. 
)[2014-Mar-09 17:05:44] : ANT 1 has LOS to [REL 1, COL 3, COL 4]
[2014-Mar-09 17:05:44] : ANT 1 has no LOS to target COL 1.. ANT 1 forwards [MSN 3] to ANT 1. 
[2014-Mar-09 17:05:45] : [MSN 4] gets relayed to REL 1. 
)[2014-Mar-09 17:05:45] : REL 1 has LOS to [ANT 1, REL 2, REL 4, COL 1, COL 11, COL 12]
[2014-Mar-09 17:05:45] : REL 1 has no LOS to target COL 2.. REL 1 forwards [MSN 4] to REL 1. 
[2014-Mar-09 17:05:46] : ANT 1 receives [MSN 3] from ANT 1. 
)[2014-Mar-09 17:05:46] : ANT 1 has LOS to [REL 1, COL 3, COL 4]
[2014-Mar-09 17:05:46] : ANT 1 has no LOS to target COL 1.. ANT 1 forwards [MSN 3] to ANT 1. 
[2014-Mar-09 17:05:47] : [MSN 4] gets relayed to REL 1. 
)[2014-Mar-09 17:05:47] : REL 1 has LOS to [ANT 1, REL 2, REL 4, COL 1, COL 11, COL 12]
[2014-Mar-09 17:05:47] : REL 1 has no LOS to target COL 2.. REL 1 forwards [MSN 4] to REL 1. 
[2014-Mar-09 17:05:47] : ANT 1 receives [MSN 3] from ANT 1. 
)[2014-Mar-09 17:05:47] : ANT 1 has LOS to [REL 1, COL 3, COL 4]
[2014-Mar-09 17:05:47] : ANT 1 has no LOS to target COL 1.. ANT 1 forwards [MSN 3] to ANT 1. 
[2014-Mar-09 17:05:48] : [MSN 4] gets relayed to REL 1. 
)[2014-Mar-09 17:05:48] : REL 1 has LOS to [ANT 1, REL 2, REL 4, COL 1, COL 11, COL 12]
[2014-Mar-09 17:05:48] : REL 1 has no LOS to target COL 2.. REL 1 forwards [MSN 4] to REL 1. 
[2014-Mar-09 17:05:49] : ANT 1 receives [MSN 3] from ANT 1. 
)[2014-Mar-09 17:05:49] : ANT 1 has LOS to [REL 1, COL 3, COL 4]
[2014-Mar-09 17:05:49] : ANT 1 has no LOS to target COL 1.. ANT 1 forwards [MSN 3] to ANT 1. 
[2014-Mar-09 17:05:50] : [MSN 4] gets relayed to REL 1. 
)[2014-Mar-09 17:05:50] : REL 1 has LOS to [ANT 1, REL 2, REL 4, COL 1, COL 11, COL 12]
[2014-Mar-09 17:05:50] : REL 1 has no LOS to target COL 2.. REL 1 forwards [MSN 4] to REL 1. 
[2014-Mar-09 17:05:51] : ANT 1 receives [MSN 3] from ANT 1. 
)[2014-Mar-09 17:05:51] : ANT 1 has LOS to [REL 1, COL 1, COL 2]
[2014-Mar-09 17:05:51] : ANT 1 has LOS to target COL 1.. ANT 1 forwards [MSN 3] to COL 1. 
[2014-Mar-09 17:05:51] : [MSN 4] gets relayed to REL 1. 
)[2014-Mar-09 17:05:51] : REL 1 has LOS to [ANT 1, REL 2, REL 4, COL 1, COL 2, COL 3]
[2014-Mar-09 17:05:51] : REL 1 has LOS to target COL 2.. REL 1 forwards [MSN 4] to COL 2. 
[2014-Mar-09 17:05:52] : COL 1 receives [MSN 3]. 
)[2014-Mar-09 17:05:53] : SGN 3 [Target: ANT 1] has been created. 
[2014-Mar-09 17:05:53] : COL 2 receives [MSN 4]. 
)[2014-Mar-09 17:05:54] : SGN 4 [Target: ANT 4] has been created. 
[2014-Mar-09 17:05:54] : COL 2 has LOS to [ANT 1, REL 1]
[2014-Mar-09 17:05:54] : COL 2 has no LOS to target ANT 4.. COL 2 forwards [SGN 4] to REL 3. 
[2014-Mar-09 17:05:54] : COL 1 has LOS to [ANT 1, REL 1]
[2014-Mar-09 17:05:54] : COL 1 has LOS to target ANT 1.. COL 1 forwards [SGN 3] to ANT 1. 
[2014-Mar-09 17:05:55] : COL 2 has LOS to [ANT 1, REL 1]
[2014-Mar-09 17:05:55] : COL 2 has no LOS to target ANT 4.. COL 2 forwards [SGN 4] to REL 3. 
[2014-Mar-09 17:05:55] : COL 1 has LOS to [ANT 1, REL 1]
[2014-Mar-09 17:05:55] : COL 1 has LOS to target ANT 1.. COL 1 forwards [SGN 3] to ANT 1. 
[2014-Mar-09 17:05:55] : [SGN 4] gets relayed to REL 3. 
)[2014-Mar-09 17:05:55] : ANT 1 receives [SGN 3]. 
)[2014-Mar-09 17:05:55] : REL 3 has LOS to [ANT 4, ANT 5, REL 2, REL 4, COL 7, COL 8, COL 9]
[2014-Mar-09 17:05:55] : REL 3 has LOS to target ANT 4.. REL 3 forwards [SGN 4] to ANT 4. 
[2014-Mar-09 17:05:56] : COL 2 has LOS to [ANT 1, REL 1]
[2014-Mar-09 17:05:56] : COL 2 has no LOS to target ANT 4.. COL 2 forwards [SGN 4] to REL 3. 
[2014-Mar-09 17:05:56] : COL 1 has LOS to [ANT 1, REL 1]
[2014-Mar-09 17:05:56] : COL 1 has LOS to target ANT 1.. COL 1 forwards [SGN 3] to ANT 1. 
[2014-Mar-09 17:05:56] : ANT 1 receives [SGN 3]. 
)[2014-Mar-09 17:05:57] : [SGN 4] gets relayed to REL 3. 
)[2014-Mar-09 17:05:57] : REL 3 has LOS to [ANT 4, ANT 5, REL 2, REL 4, COL 7, COL 8, COL 9]
[2014-Mar-09 17:05:57] : REL 3 has LOS to target ANT 4.. REL 3 forwards [SGN 4] to ANT 4. 
[2014-Mar-09 17:05:57] : COL 2 has LOS to [ANT 1, REL 1]
[2014-Mar-09 17:05:57] : COL 2 has no LOS to target ANT 4.. COL 2 forwards [SGN 4] to REL 3. 
[2014-Mar-09 17:05:57] : COL 1 has LOS to [[2014-Mar-09 17:05:57] : ANT 1 receives [SGN 3]. 
)ANT 1, REL 1]
[2014-Mar-09 17:05:57] : COL 1 has LOS to target ANT 1.. COL 1 forwards [SGN 3] to ANT 1. 
[2014-Mar-09 17:05:58] : [SGN 4] gets relayed to REL 3. 
)[2014-Mar-09 17:05:58] : REL 3 has LOS to [ANT 4, ANT 5, REL 2, REL 4, COL 7, COL 8, COL 9]
[2014-Mar-09 17:05:58] : REL 3 has LOS to target ANT 4.. REL 3 forwards [SGN 4] to ANT 4. 
[2014-Mar-09 17:05:58] : COL 2 has LOS to [ANT 1, REL 1]
[2014-Mar-09 17:05:58] : COL 2 has no LOS to target ANT 4.. COL 2 forwards [SGN 4] to REL 3. 
[2014-Mar-09 17:05:58] : COL 1 has LOS to [ANT 1, REL 1]
[2014-Mar-09 17:05:58] : COL 1 has LOS to target ANT 1.. COL 1 forwards [SGN 3] to ANT 1. 
[2014-Mar-09 17:05:59] : ANT 1 receives [SGN 3]. 
)[2014-Mar-09 17:05:59] : COL 2 has LOS to [ANT 1, REL 1]
[2014-Mar-09 17:05:59] : COL 2 has no LOS to target ANT 4.. COL 2 forwards [SGN 4] to REL 3. 
[2014-Mar-09 17:05:59] : COL 1 has LOS to [ANT 1, REL 1]
[2014-Mar-09 17:05:59] : COL 1 has LOS to target ANT 1.. COL 1 forwards [SGN 3] to ANT 1. 
[2014-Mar-09 17:06:00] : ANT 1 receives [SGN 3]. 
)[2014-Mar-09 17:06:00] : [SGN 4] gets relayed to REL 3. 
)[2014-Mar-09 17:06:00] : REL 3 has LOS to [ANT 4, ANT 5, REL 2, REL 4, COL 7, COL 8, COL 9]
[2014-Mar-09 17:06:00] : REL 3 has LOS to target ANT 4.. REL 3 forwards [SGN 4] to ANT 4. 
[2014-Mar-09 17:06:00] : COL 2 has LOS to [ANT 2, REL 4]
[2014-Mar-09 17:06:00] : COL 2 has no LOS to target ANT 4.. COL 2 forwards [SGN 4] to REL 3. 
[2014-Mar-09 17:06:00] : COL 1 has LOS to [ANT 2, REL 4]
[2014-Mar-09 17:06:00] : COL 1 has no LOS to target ANT 1.. COL 1 forwards [SGN 3] to COL 1. 
[2014-Mar-09 17:06:01] : [SGN 4] gets relayed to REL 3. 
)[2014-Mar-09 17:06:01] : REL 3 has LOS to [ANT 4, ANT 5, REL 2, REL 4, COL 9, COL 10, COL 11]
[2014-Mar-09 17:06:01] : REL 3 has LOS to target ANT 4.. REL 3 forwards [SGN 4] to ANT 4. 
[2014-Mar-09 17:06:01] : ANT 4 receives [SGN 4]. 
)[2014-Mar-09 17:06:01] : ANT 4 receives [SGN 4]. 
)[2014-Mar-09 17:06:01] : COL 2 has LOS to [ANT 2, REL 4]
[2014-Mar-09 17:06:01] : COL 2 has no LOS to target ANT 4.. COL 2 forwards [SGN 4] to REL 3. 
[2014-Mar-09 17:06:01] : COL 1 has LOS to [ANT 2, REL 4]
[2014-Mar-09 17:06:01] : COL 1 has no LOS to target ANT 1.. COL 1 forwards [SGN 3] to COL 1. 
[2014-Mar-09 17:06:02] : [SGN 4] gets relayed to REL 3. 
)[2014-Mar-09 17:06:02] : REL 3 has LOS to [ANT 4, ANT 5, REL 2, REL 4, COL 9, COL 10, COL 11]
[2014-Mar-09 17:06:02] : REL 3 has LOS to target ANT 4.. REL 3 forwards [SGN 4] to ANT 4. 
[2014-Mar-09 17:06:02] : ANT 4 receives [SGN 4]. 
)[2014-Mar-09 17:06:02] : ANT 4 receives [SGN 4]. 
)[2014-Mar-09 17:06:02] : COL 2 has LOS to [ANT 2, REL 4]
[2014-Mar-09 17:06:02] : COL 2 has no LOS to target ANT 4.. COL 2 forwards [SGN 4] to REL 3. 
[2014-Mar-09 17:06:03] : COL 1 has LOS to [ANT 2, REL 4]
[2014-Mar-09 17:06:03] : COL 1 has no LOS to target ANT 1.. COL 1 forwards [SGN 3] to COL 1. 
[2014-Mar-09 17:06:03] : [SGN 4] gets relayed to REL 3. 
)[2014-Mar-09 17:06:03] : REL 3 has LOS to [ANT 4, ANT 5, REL 2, REL 4, COL 9, COL 10, COL 11]
[2014-Mar-09 17:06:03] : REL 3 has LOS to target ANT 4.. REL 3 forwards [SGN 4] to ANT 4. 
[2014-Mar-09 17:06:03] : COL 2 has LOS to [ANT 2, REL 4]
[2014-Mar-09 17:06:03] : COL 2 has no LOS to target ANT 4.. COL 2 forwards [SGN 4] to REL 3. 
[2014-Mar-09 17:06:04] : COL 1 has LOS to [ANT 2, REL 4]
[2014-Mar-09 17:06:04] : COL 1 has no LOS to target ANT 1.. COL 1 forwards [SGN 3] to COL 1. 
[2014-Mar-09 17:06:04] : [SGN 4] gets relayed to REL 3. 
)[2014-Mar-09 17:06:04] : REL 3 has LOS to [ANT 4, ANT 5, REL 2, REL 4, COL 9, COL 10, COL 11]
[2014-Mar-09 17:06:04] : REL 3 has LOS to target ANT 4.. REL 3 forwards [SGN 4] to ANT 4. 
[2014-Mar-09 17:06:04] : COL 2 has LOS to [ANT 2, REL 4]
[2014-Mar-09 17:06:04] : COL 2 has no LOS to target ANT 4.. COL 2 forwards [SGN 4] to REL 3. 
[2014-Mar-09 17:06:05] : COL 1 has LOS to [ANT 2, REL 4]
[2014-Mar-09 17:06:05] : COL 1 has no LOS to target ANT 1.. COL 1 forwards [SGN 3] to COL 1. 
[2014-Mar-09 17:06:06] : [SGN 4] gets relayed to REL 3. 
)[2014-Mar-09 17:06:06] : REL 3 has LOS to [ANT 4, ANT 5, REL 2, REL 4, COL 9, COL 10, COL 11]
[2014-Mar-09 17:06:06] : REL 3 has LOS to target ANT 4.. REL 3 forwards [SGN 4] to ANT 4. 
[2014-Mar-09 17:06:06] : COL 1 has LOS to [ANT 2, REL 4]
[2014-Mar-09 17:06:06] : COL 1 has no LOS to target ANT 1.. COL 1 forwards [SGN 3] to COL 1. 
[2014-Mar-09 17:06:07] : [SGN 4] gets relayed to REL 3. 
)[2014-Mar-09 17:06:07] : REL 3 has LOS to [ANT 4, ANT 5, REL 2, REL 4, COL 9, COL 10, COL 11]
[2014-Mar-09 17:06:07] : REL 3 has LOS to target ANT 4.. REL 3 forwards [SGN 4] to ANT 4. 
[2014-Mar-09 17:06:07] : ANT 4 receives [SGN 4]. 
)[2014-Mar-09 17:06:07] : COL 1 has LOS to [ANT 2, REL 4]
[2014-Mar-09 17:06:07] : COL 1 has no LOS to target ANT 1.. COL 1 forwards [SGN 3] to COL 1. 
[2014-Mar-09 17:06:08] : [SGN 4] gets relayed to REL 3. 
)[2014-Mar-09 17:06:08] : REL 3 has LOS to [ANT 4, ANT 5, REL 2, REL 4, COL 9, COL 10, COL 11]
[2014-Mar-09 17:06:08] : REL 3 has LOS to target ANT 4.. REL 3 forwards [SGN 4] to ANT 4. 
[2014-Mar-09 17:06:08] : ANT 4 receives [SGN 4]. 
)[2014-Mar-09 17:06:08] :