[2014-Mar-04 11:35:49] : Preparing Dynamic Window Table.. DONE! 

[2014-Mar-04 11:35:49] : COM 1 has started.. 
[2014-Mar-04 11:35:49] : COM 2 has started.. 
[2014-Mar-04 11:35:49] : ANT 3 has started.. 
[2014-Mar-04 11:35:49] : ANT 6 has started.. 
[2014-Mar-04 11:35:49] : COL 4 has started.. 
[2014-Mar-04 11:35:49] : COL 6 has started.. 
[2014-Mar-04 11:35:49] : COL 10 has started.. 
[2014-Mar-04 11:35:49] : COL 11 has started.. 
[2014-Mar-04 11:35:49] : COL 9 has started.. 
[2014-Mar-04 11:35:49] : COL 8 has started.. 
[2014-Mar-04 11:35:49] : COL 7 has started.. 
[2014-Mar-04 11:35:49] : COL 5 has started.. 
[2014-Mar-04 11:35:49] : COL 3 has started.. 
[2014-Mar-04 11:35:49] : COL 2 has started.. 
[2014-Mar-04 11:35:49] : COL 1 has started.. 
[2014-Mar-04 11:35:49] : REL 4 has started.. 
[2014-Mar-04 11:35:49] : REL 3 has started.. 
[2014-Mar-04 11:35:49] : REL 2 has started.. 
[2014-Mar-04 11:35:49] : REL 1 has started.. 
[2014-Mar-04 11:35:49] : ANT 5 has started.. 
[2014-Mar-04 11:35:49] : ANT 4 has started.. 
[2014-Mar-04 11:35:49] : ANT 2 has started.. 
[2014-Mar-04 11:35:50] : ANT 1 has started.. 
[2014-Mar-04 11:35:50] : COM 3 has started.. 
[2014-Mar-04 11:35:50] : COL 12 has started.. 
[2014-Mar-04 11:35:50] : MPL has started.. 
[2014-Mar-04 11:35:50] : New Mission arrived.. MSN 1 [Target: COL 2, Duration: 4500] has been created. 
[2014-Mar-04 11:35:50] : MPL sends [MSN 1] to COM 1.
[2014-Mar-04 11:35:50] : New Mission arrived.. MSN 2 [Target: COL 3, Duration: 6700] has been created. 
[2014-Mar-04 11:35:50] : MPL sends [MSN 2] to COM 2.
[2014-Mar-04 11:35:51] : COM 1 receives [MSN 1] from MPL. 
)[2014-Mar-04 11:35:51] : COM 1 forwards [MSN 1] to ANT 3. 
[2014-Mar-04 11:35:51] : COM 2 receives [MSN 2] from MPL. 
)[2014-Mar-04 11:35:51] : COM 2 forwards [MSN 2] to ANT 3. 
[2014-Mar-04 11:35:52] : ANT 3 receives [MSN 1] from COM 1. 
)[2014-Mar-04 11:35:52] : ANT 3 has LOS to [REL 2, COL 5, COL 6]
[2014-Mar-04 11:35:52] : ANT 3 has no LOS to target COL 2.. ANT 3 forwards [MSN 1] to REL 2. 
[2014-Mar-04 11:35:53] : [MSN 1] gets relayed to REL 2. 
)[2014-Mar-04 11:35:53] : ANT 3 receives [MSN 2] from COM 2. 
)[2014-Mar-04 11:35:53] : REL 2 has LOS to [ANT 2, ANT 3, REL 1, REL 3, COL 4, COL 5, COL 6]
[2014-Mar-04 11:35:53] : REL 2 has no LOS to target COL 2.. REL 2 forwards [MSN 1] to REL 3. 
[2014-Mar-04 11:35:53] : ANT 3 has LOS to [REL 2, COL 5, COL 6]
[2014-Mar-04 11:35:54] : ANT 3 has no LOS to target COL 3.. ANT 3 forwards [MSN 2] to REL 2. 
[2014-Mar-04 11:35:54] : [MSN 1] gets relayed to REL 3. 
)[2014-Mar-04 11:35:55] : REL 3 has LOS to [ANT 4, ANT 5, REL 2, REL 4, COL 7, COL 8, COL 9]
[2014-Mar-04 11:35:55] : REL 3 has no LOS to target COL 2.. REL 3 forwards [MSN 1] to REL 4. 
[2014-Mar-04 11:35:55] : [MSN 2] gets relayed to REL 2. 
)[2014-Mar-04 11:35:55] : REL 2 has LOS to [ANT 2, ANT 3, REL 1, REL 3, COL 4, COL 5, COL 6]
[2014-Mar-04 11:35:55] : REL 2 has no LOS to target COL 3.. REL 2 forwards [MSN 2] to REL 3. 
[2014-Mar-04 11:35:55] : New Mission arrived.. MSN 3 [Target: COL 2, Duration: 4000] has been created. 
[2014-Mar-04 11:35:55] : MPL sends [MSN 3] to COM 3.
[2014-Mar-04 11:35:56] : [MSN 1] gets relayed to REL 4. 
)[2014-Mar-04 11:35:56] : REL 4 has LOS to [ANT 6, REL 3, REL 1, COL 10, COL 11, COL 12]
[2014-Mar-04 11:35:56] : REL 4 has no LOS to target COL 2.. REL 4 forwards [MSN 1] to REL 1. 
[2014-Mar-04 11:35:56] : [MSN 2] gets relayed to REL 3. 
)[2014-Mar-04 11:35:56] : REL 3 has LOS to [ANT 4, ANT 5, REL 2, REL 4, COL 7, COL 8, COL 9]
[2014-Mar-04 11:35:56] : REL 3 has no LOS to target COL 3.. REL 3 forwards [MSN 2] to REL 4. 
[2014-Mar-04 11:35:56] : COM 3 receives [MSN 3] from MPL. 
)[2014-Mar-04 11:35:56] : COM 3 forwards [MSN 3] to ANT 4. 
[2014-Mar-04 11:35:57] : [MSN 1] gets relayed to REL 1. 
)[2014-Mar-04 11:35:57] : REL 1 has LOS to [ANT 1, REL 2, REL 4, COL 1, COL 2, COL 3]
[2014-Mar-04 11:35:57] : REL 1 has LOS to target COL 2.. REL 1 forwards [MSN 1] to COL 2. 
[2014-Mar-04 11:35:57] : [MSN 2] gets relayed to REL 4. 
)[2014-Mar-04 11:35:57] : REL 4 has LOS to [ANT 6, REL 3, REL 1, COL 10, COL 11, COL 12]
[2014-Mar-04 11:35:57] : REL 4 has no LOS to target COL 3.. REL 4 forwards [MSN 2] to REL 1. 
[2014-Mar-04 11:35:57] : ANT 4 receives [MSN 3] from COM 3. 
)[2014-Mar-04 11:35:57] : ANT 4 has LOS to [REL 3, COL 7, COL 8]
[2014-Mar-04 11:35:57] : ANT 4 has no LOS to target COL 2.. ANT 4 forwards [MSN 3] to REL 3. 
[2014-Mar-04 11:35:57] : New Mission arrived.. MSN 4 [Target: COL 3, Duration: 5100] has been created. 
[2014-Mar-04 11:35:57] : MPL sends [MSN 4] to COM 1.
[2014-Mar-04 11:35:58] : COL 2 receives [MSN 1]. 
)[2014-Mar-04 11:35:58] : [MSN 2] gets relayed to REL 1. 
)[2014-Mar-04 11:35:58] : REL 1 has LOS to [ANT 1, REL 2, REL 4, COL 1, COL 2, COL 3]
[2014-Mar-04 11:35:58] : REL 1 has LOS to target COL 3.. REL 1 forwards [MSN 2] to COL 3. 
[2014-Mar-04 11:35:58] : [MSN 3] gets relayed to REL 3. 
)[2014-Mar-04 11:35:58] : REL 3 has LOS to [ANT 4, ANT 5, REL 2, REL 4, COL 7, COL 8, COL 9]
[2014-Mar-04 11:35:58] : REL 3 has no LOS to target COL 2.. REL 3 forwards [MSN 3] to REL 2. 
[2014-Mar-04 11:35:58] : COM 1 receives [MSN 4] from MPL. 
)[2014-Mar-04 11:35:58] : COM 1 forwards [MSN 4] to ANT 4. 
[2014-Mar-04 11:35:59] : SGN 1 [Target: ANT 3] has been created. 
[2014-Mar-04 11:35:59] : COL 2 has LOS to [ANT 1, REL 1]
[2014-Mar-04 11:35:59] : COL 2 has no LOS to target ANT 3.. COL 2 forwards [SGN 1] to REL 1. 
[2014-Mar-04 11:35:59] : COL 3 receives [MSN 2]. 
)[2014-Mar-04 11:35:59] : New Mission arrived.. MSN 5 [Target: COL 2, Duration: 4900] has been created. 
[2014-Mar-04 11:35:59] : MPL sends [MSN 5] to COM 2.
[2014-Mar-04 11:35:59] : [MSN 3] gets relayed to REL 2. 
)[2014-Mar-04 11:35:59] : REL 2 has LOS to [ANT 2, ANT 3, REL 1, REL 3, COL 4, COL 5, COL 6]
[2014-Mar-04 11:35:59] : REL 2 has no LOS to target COL 2.. REL 2 forwards [MSN 3] to REL 1. 
[2014-Mar-04 11:35:59] : ANT 4 receives [MSN 4] from COM 1. 
)[2014-Mar-04 11:35:59] : ANT 4 has LOS to [REL 3, COL 7, COL 8]
[2014-Mar-04 11:35:59] : ANT 4 has no LOS to target COL 3.. ANT 4 forwards [MSN 4] to REL 3. 
[2014-Mar-04 11:36:00] : SGN 2 [Target: ANT 3] has been created. 
[2014-Mar-04 11:36:00] : COL 2 has LOS to [ANT 1, REL 1]
[2014-Mar-04 11:36:00] : COL 2 has no LOS to target ANT 3.. COL 2 forwards [SGN 1] to REL 1. 
[2014-Mar-04 11:36:00] : COL 3 has LOS to [ANT 2, REL 1]
[2014-Mar-04 11:36:00] : COL 3 has no LOS to target ANT 3.. COL 3 forwards [SGN 2] to REL 1. 
[2014-Mar-04 11:36:00] : COM 2 receives [MSN 5] from MPL. 
)[2014-Mar-04 11:36:00] : COM 2 forwards [MSN 5] to ANT 3. 
[2014-Mar-04 11:36:00] : [MSN 3] gets relayed to REL 1. 
)[2014-Mar-04 11:36:00] : REL 1 has LOS to [ANT 1, REL 2, REL 4, COL 1, COL 2, COL 3]
[2014-Mar-04 11:36:00] : REL 1 has LOS to target COL 2.. REL 1 forwards [MSN 3] to COL 2. 
[2014-Mar-04 11:36:00] : [SGN 1] gets relayed to REL 1. 
)[2014-Mar-04 11:36:00] : REL 1 has LOS to [ANT 1, REL 2, REL 4, COL 1, COL 2, COL 3]
[2014-Mar-04 11:36:00] : REL 1 has no LOS to target ANT 3.. REL 1 forwards [SGN 1] to REL 2. 
[2014-Mar-04 11:36:00] : [MSN 4] gets relayed to REL 3. 
)[2014-Mar-04 11:36:00] : REL 3 has LOS to [ANT 4, ANT 5, REL 2, REL 4, COL 7, COL 8, COL 9]
[2014-Mar-04 11:36:00] : REL 3 has no LOS to target COL 3.. REL 3 forwards [MSN 4] to REL 2. 
[2014-Mar-04 11:36:01] : COL 2 has LOS to [ANT 1, REL 1]
[2014-Mar-04 11:36:01] : COL 2 has no LOS to target ANT 3.. COL 2 forwards [SGN 1] to REL 1. 
[2014-Mar-04 11:36:01] : COL 3 has LOS to [ANT 2, REL 1]
[2014-Mar-04 11:36:01] : COL 3 has no LOS to target ANT 3.. COL 3 forwards [SGN 2] to REL 1. 
[2014-Mar-04 11:36:01] : ANT 3 receives [MSN 5] from COM 2. 
)[2014-Mar-04 11:36:01] : ANT 3 has LOS to [REL 2, COL 5, COL 6]
[2014-Mar-04 11:36:01] : ANT 3 has no LOS to target COL 2.. ANT 3 forwards [MSN 5] to REL 2. 
[2014-Mar-04 11:36:01] : [SGN 1] gets relayed to REL 1. 
)[2014-Mar-04 11:36:01] : REL 1 has LOS to [ANT 1, REL 2, REL 4, COL 1, COL 2, COL 3]
[2014-Mar-04 11:36:01] : REL 1 has no LOS to target ANT 3.. REL 1 forwards [SGN 1] to REL 4. 
[2014-Mar-04 11:36:01] : [MSN 4] gets relayed to REL 2. 
)[2014-Mar-04 11:36:01] : REL 2 has LOS to [ANT 2, ANT 3, REL 1, REL 3, COL 4, COL 5, COL 6]
[2014-Mar-04 11:36:01] : REL 2 has no LOS to target COL 3.. REL 2 forwards [MSN 4] to REL 1. 
[2014-Mar-04 11:36:02] : COL 2 has LOS to [[2014-Mar-04 11:36:02] : [SGN 1] gets relayed to REL 4. 
)ANT 1, REL 1]
[2014-Mar-04 11:36:02] : COL 2 has no LOS to target ANT 3.. COL 2 forwards [SGN 1] to REL 1. 
[2014-Mar-04 11:36:02] : REL 4 has LOS to [ANT 6, REL 3, REL 1, COL 10, COL 11, COL 12]
[2014-Mar-04 11:36:02] : REL 4 has no LOS to target ANT 3.. REL 4 forwards [SGN 1] to REL 3. 
[2014-Mar-04 11:36:02] : COL 3 has LOS to [ANT 2, REL 1]
[2014-Mar-04 11:36:02] : COL 3 has no LOS to target ANT 3.. COL 3 forwards [SGN 2] to REL 1. 
[2014-Mar-04 11:36:02] : [SGN 2] gets relayed to REL 1. 
)[2014-Mar-04 11:36:02] : REL 1 has LOS to [ANT 1, REL 2, REL 4, COL 1, COL 2, COL 3]
[2014-Mar-04 11:36:02] : REL 1 has no LOS to target ANT 3.. REL 1 forwards [SGN 2] to REL 2. 
[2014-Mar-04 11:36:02] : [SGN 1] gets relayed to REL 3. 
)[2014-Mar-04 11:36:02] : REL 3 has LOS to [ANT 4, ANT 5, REL 2, REL 4, COL 7, COL 8, COL 9]
[2014-Mar-04 11:36:02] : REL 3 has no LOS to target ANT 3.. REL 3 forwards [SGN 1] to REL 4. 
[2014-Mar-04 11:36:02] : New Mission arrived.. MSN 6 [Target: COL 3, Duration: 3300] has been created. 
[2014-Mar-04 11:36:02] : [MSN 5] gets relayed to REL 2. 
)[2014-Mar-04 11:36:02] : MPL sends [MSN 6] to COM 3.
[2014-Mar-04 11:36:02] : REL 2 has LOS to [ANT 2, ANT 3, REL 1, REL 3, COL 4, COL 5, COL 6]
[2014-Mar-04 11:36:02] : REL 2 has no LOS to target COL 2.. REL 2 forwards [MSN 5] to REL 3. 
[2014-Mar-04 11:36:02] : [SGN 2] gets relayed to REL 2. 
)[2014-Mar-04 11:36:02] : REL 2 has LOS to [ANT 2, ANT 3, REL 1, REL 3, COL 4, COL 5, COL 6]
[2014-Mar-04 11:36:02] : REL 2 has LOS to target ANT 3.. REL 2 forwards [SGN 2] to ANT 3. 
[2014-Mar-04 11:36:03] : COL 2 has LOS to [ANT 1, REL 1]
[2014-Mar-04 11:36:03] : COL 2 has no LOS to target ANT 3.. COL 2 forwards [SGN 1] to REL 1. 
[2014-Mar-04 11:36:03] : COL 3 has LOS to [[2014-Mar-04 11:36:03] : ANT 3 receives [SGN 2]. 
)ANT 2, REL 1]
[2014-Mar-04 11:36:03] : COL 3 has no LOS to target ANT 3.. COL 3 forwards [SGN 2] to REL 1. 
[2014-Mar-04 11:36:03] : [SGN 1] gets relayed to REL 1. 
)[2014-Mar-04 11:36:03] : REL 1 has LOS to [ANT 1, REL 2, REL 4, COL 1, COL 2, COL 3]
[2014-Mar-04 11:36:03] : REL 1 has no LOS to target ANT 3.. REL 1 forwards [SGN 1] to REL 2. 
[2014-Mar-04 11:36:03] : COM 3 receives [MSN 6] from MPL. 
)[2014-Mar-04 11:36:03] : COM 3 forwards [MSN 6] to ANT 5. 
[2014-Mar-04 11:36:03] : [SGN 1] gets relayed to REL 2. 
)[2014-Mar-04 11:36:03] : REL 2 has LOS to [ANT 2, ANT 3, REL 1, REL 3, COL 4, COL 5, COL 6]
[2014-Mar-04 11:36:03] : REL 2 has LOS to target ANT 3.. REL 2 forwards [SGN 1] to ANT 3. 
[2014-Mar-04 11:36:04] : ANT 3 receives [SGN 1]. 
)[2014-Mar-04 11:36:04] : COL 3 has LOS to [ANT 2, REL 1]
[2014-Mar-04 11:36:04] : COL 3 has no LOS to target ANT 3.. COL 3 forwards [SGN 2] to REL 1. 
[2014-Mar-04 11:36:04] : New Mission arrived.. MSN 7 [Target: COL 2, Duration: 4000] has been created. 
[2014-Mar-04 11:36:04] : MPL sends [MSN 7] to COM 1.
[2014-Mar-04 11:36:04] : ANT 3 receives [SGN 1]. 
)[2014-Mar-04 11:36:04] : [MSN 5] gets relayed to REL 3. 
)[2014-Mar-04 11:36:04] : REL 3 has LOS to [ANT 4, ANT 5, REL 2, REL 4, COL 7, COL 8, COL 9]
[2014-Mar-04 11:36:04] : REL 3 has no LOS to target COL 2.. REL 3 forwards [MSN 5] to REL 2. 
[2014-Mar-04 11:36:04] : ANT 5 receives [MSN 6] from COM 3. 
)[2014-Mar-04 11:36:04] : ANT 5 has LOS to [REL 3, COL 9, COL 10]
[2014-Mar-04 11:36:04] : ANT 5 has no LOS to target COL 3.. ANT 5 forwards [MSN 6] to REL 3. 
[2014-Mar-04 11:36:04] : [SGN 1] gets relayed to REL 2. 
)[2014-Mar-04 11:36:04] : ANT 3 receives [SGN 1]. 
)[2014-Mar-04 11:36:04] : REL 2 has LOS to [ANT 2, ANT 3, REL 1, REL 3, COL 4, COL 5, COL 6]
[2014-Mar-04 11:36:04] : REL 2 has LOS to target ANT 3.. REL 2 forwards [SGN 1] to ANT 3. 
[2014-Mar-04 11:36:05] : COL 2 receives [MSN 3]. 
)[2014-Mar-04 11:36:05] : COM 1 receives [MSN 7] from MPL. 
)[2014-Mar-04 11:36:05] : COM 1 forwards [MSN 7] to ANT 5. 
[2014-Mar-04 11:36:05] : [MSN 4] gets relayed to REL 1. 
)[2014-Mar-04 11:36:05] : REL 1 has LOS to [ANT 1, REL 2, REL 4, COL 1, COL 2, COL 3]
[2014-Mar-04 11:36:05] : REL 1 has LOS to target COL 3.. REL 1 forwards [MSN 4] to COL 3. 
[2014-Mar-04 11:36:05] : [SGN 2] gets relayed to REL 1. 
)[2014-Mar-04 11:36:05] : REL 1 has LOS to [ANT 1, REL 2, REL 4, COL 1, COL 2, COL 3]
[2014-Mar-04 11:36:05] : REL 1 has no LOS to target ANT 3.. REL 1 forwards [SGN 2] to REL 2. 
[2014-Mar-04 11:36:05] : [MSN 6] gets relayed to REL 3. 
)[2014-Mar-04 11:36:05] : REL 3 has LOS to [ANT 4, ANT 5, REL 2, REL 4, COL 7, COL 8, COL 9]
[2014-Mar-04 11:36:05] : REL 3 has no LOS to target COL 3.. REL 3 forwards [MSN 6] to REL 2. 
[2014-Mar-04 11:36:05] : [SGN 1] gets relayed to REL 2. 
)[2014-Mar-04 11:36:05] : ANT 3 receives [SGN 1]. 
)[2014-Mar-04 11:36:05] : REL 2 has LOS to [ANT 2, ANT 3, REL 1, REL 3, COL 4, COL 5, COL 6]
[2014-Mar-04 11:36:05] : REL 2 has LOS to target ANT 3.. REL 2 forwards [SGN 1] to ANT 3. 
[2014-Mar-04 11:36:06] : New Mission arrived.. MSN 8 [Target: COL 3, Duration: 5000] has been created. 
[2014-Mar-04 11:36:06] : MPL sends [MSN 8] to COM 2.
[2014-Mar-04 11:36:06] : SGN 3 [Target: ANT 4] has been created. 
[2014-Mar-04 11:36:06] : COL 3 has LOS to [ANT 2, REL 1]
[2014-Mar-04 11:36:06] : COL 3 has no LOS to target ANT 3.. COL 3 forwards [SGN 2] to REL 1. 
[2014-Mar-04 11:36:06] : COL 2 has LOS to [ANT 1, REL 1]
[2014-Mar-04 11:36:06] : COL 2 has no LOS to target ANT 4.. COL 2 forwards [SGN 3] to REL 1. 
[2014-Mar-04 11:36:06] : ANT 5 receives [MSN 7] from COM 1. 
)[2014-Mar-04 11:36:06] : ANT 5 has LOS to [REL 3, COL 9, COL 10]
[2014-Mar-04 11:36:06] : ANT 5 has no LOS to target COL 2.. ANT 5 forwards [MSN 7] to REL 3. 
[2014-Mar-04 11:36:06] : [SGN 2] gets relayed to REL 1. 
)[2014-Mar-04 11:36:06] : REL 1 has LOS to [ANT 1, REL 2, REL 4, COL 1, COL 2, COL 3]
[2014-Mar-04 11:36:06] : REL 1 has no LOS to target ANT 3.. REL 1 forwards [SGN 2] to REL 2. 
[2014-Mar-04 11:36:07] : ANT 3 receives [SGN 1]. 
)[2014-Mar-04 11:36:07] : COM 2 receives [MSN 8] from MPL. 
)[2014-Mar-04 11:36:07] : COM 2 forwards [MSN 8] to ANT 4. 
[2014-Mar-04 11:36:07] : COL 3 has LOS to [ANT 2, REL 1]
[2014-Mar-04 11:36:07] : COL 3 has no LOS to target ANT 3.. COL 3 forwards [SGN 2] to REL 1. 
[2014-Mar-04 11:36:07] : COL 2 has LOS to [ANT 1, REL 1]
[2014-Mar-04 11:36:07] : COL 2 has no LOS to target ANT 4.. COL 2 forwards [SGN 3] to REL 1. 
[2014-Mar-04 11:36:07] : [MSN 7] gets relayed to REL 3. 
)[2014-Mar-04 11:36:07] : REL 3 has LOS to [ANT 4, ANT 5, REL 2, REL 4, COL 7, COL 8, COL 9]
[2014-Mar-04 11:36:07] : REL 3 has no LOS to target COL 2.. REL 3 forwards [MSN 7] to REL 2. 
[2014-Mar-04 11:36:07] : [SGN 2] gets relayed to REL 1. 
)[2014-Mar-04 11:36:07] : REL 1 has LOS to [ANT 1, REL 2, REL 4, COL 1, COL 2, COL 3]
[2014-Mar-04 11:36:07] : REL 1 has no LOS to target ANT 3.. REL 1 forwards [SGN 2] to REL 4. 
[2014-Mar-04 11:36:07] : [SGN 2] gets relayed to REL 4. 
)[2014-Mar-04 11:36:07] : REL 4 has LOS to [ANT 6, REL 3, REL 1, COL 10, COL 11, COL 12]
[2014-Mar-04 11:36:07] : REL 4 has no LOS to target ANT 3.. REL 4 forwards [SGN 2] to REL 3. 
[2014-Mar-04 11:36:08] : [MSN 5] gets relayed to REL 2. 
)[2014-Mar-04 11:36:08] : REL 2 has LOS to [ANT 2, ANT 3, REL 1, REL 3, COL 4, COL 5, COL 6]
[2014-Mar-04 11:36:08] : REL 2 has no LOS to target COL 2.. REL 2 forwards [MSN 5] to REL 1. 
[2014-Mar-04 11:36:08] : ANT 4 receives [MSN 8] from COM 2. 
)[2014-Mar-04 11:36:08] : ANT 4 has LOS to [REL 3, COL 7, COL 8]
[2014-Mar-04 11:36:08] : ANT 4 has no LOS to target COL 3.. ANT 4 forwards [MSN 8] to REL 3. 
[2014-Mar-04 11:36:08] : COL 2 has LOS to [ANT 1, REL 1]
[2014-Mar-04 11:36:08] : COL 2 has no LOS to target ANT 4.. COL 2 forwards [SGN 3] to REL 1. 
[2014-Mar-04 11:36:08] : New Mission arrived.. MSN 9 [Target: COL 2, Duration: 4300] has been created. 
[2014-Mar-04 11:36:08] : MPL sends [MSN 9] to COM 3.
[2014-Mar-04 11:36:08] : [SGN 2] gets relayed to REL 1. 
)[2014-Mar-04 11:36:08] : REL 1 has LOS to [ANT 1, REL 2, REL 4, COL 1, COL 2, COL 3]
[2014-Mar-04 11:36:08] : REL 1 has no LOS to target ANT 3.. REL 1 forwards [SGN 2] to REL 4. 
[2014-Mar-04 11:36:08] : [SGN 2] gets relayed to REL 4. 
)[2014-Mar-04 11:36:08] : REL 4 has LOS to [ANT 6, REL 3, REL 1, COL 10, COL 11, COL 12]
[2014-Mar-04 11:36:08] : REL 4 has no LOS to target ANT 3.. REL 4 forwards [SGN 2] to REL 1. 
[2014-Mar-04 11:36:09] : [MSN 6] gets relayed to REL 2. 
)[2014-Mar-04 11:36:09] : REL 2 has LOS to [ANT 2, ANT 3, REL 1, REL 3, COL 4, COL 5, COL 6]
[2014-Mar-04 11:36:09] : REL 2 has no LOS to target COL 3.. REL 2 forwards [MSN 6] to REL 3. 
[2014-Mar-04 11:36:09] : [MSN 8] gets relayed to REL 3. 
)[2014-Mar-04 11:36:09] : REL 3 has LOS to [ANT 4, ANT 5, REL 2, REL 4, COL 7, COL 8, COL 9]
[2014-Mar-04 11:36:09] : REL 3 has no LOS to target COL 3.. REL 3 forwards [MSN 8] to REL 2. 
[2014-Mar-04 11:36:09] : COL 3 receives [MSN 4]. 
)[2014-Mar-04 11:36:09] : COM 3 receives [MSN 9] from MPL. 
)[2014-Mar-04 11:36:09] : COM 3 forwards [MSN 9] to ANT 4. 
[2014-Mar-04 11:36:09] : [SGN 2] gets relayed to REL 4. 
)[2014-Mar-04 11:36:09] : REL 4 has LOS to [ANT 6, REL 3, REL 1, COL 10, COL 11, COL 12]
[2014-Mar-04 11:36:09] : REL 4 has no LOS to target ANT 3.. REL 4 forwards [SGN 2] to REL 3. 
[2014-Mar-04 11:36:10] : [MSN 7] gets relayed to REL 2. 
)[2014-Mar-04 11:36:10] : REL 2 has LOS to [ANT 2, ANT 3, REL 1, REL 3, COL 4, COL 5, COL 6]
[2014-Mar-04 11:36:10] : REL 2 has no LOS to target COL 2.. REL 2 forwards [MSN 7] to REL 3. 
[2014-Mar-04 11:36:10] : [MSN 6] gets relayed to REL 3. 
)[2014-Mar-04 11:36:10] : REL 3 has LOS to [ANT 4, ANT 5, REL 2, REL 4, COL 7, COL 8, COL 9]
[2014-Mar-04 11:36:10] : REL 3 has no LOS to target COL 3.. REL 3 forwards [MSN 6] to REL 2. 
[2014-Mar-04 11:36:10] : [SGN 2] gets relayed to REL 3. 
)[2014-Mar-04 11:36:10] : REL 3 has LOS to [ANT 4, ANT 5, REL 2, REL 4, COL 7, COL 8, COL 9]
[2014-Mar-04 11:36:10] : REL 3 has no LOS to target ANT 3.. REL 3 forwards [SGN 2] to REL 4. 
[2014-Mar-04 11:36:10] : SGN 4 [Target: ANT 4] has been created. 
[2014-Mar-04 11:36:10] : COL 3 has LOS to [ANT 2, REL 1]
[2014-Mar-04 11:36:10] : COL 3 has no LOS to target ANT 4.. COL 3 forwards [SGN 4] to REL 1. 
[2014-Mar-04 11:36:10] : COL 2 has LOS to [ANT 1, REL 1]
[2014-Mar-04 11:36:10] : COL 2 has no LOS to target ANT 4.. COL 2 forwards [SGN 3] to REL 1. 
[2014-Mar-04 11:36:10] : ANT 4 receives [MSN 9] from COM 3. 
)[2014-Mar-04 11:36:10] : ANT 4 has LOS to [REL 3, COL 7, COL 8]
[2014-Mar-04 11:36:10] : ANT 4 has no LOS to target COL 2.. ANT 4 forwards [MSN 9] to REL 3. 
[2014-Mar-04 11:36:10] : [MSN 5] gets relayed to REL 1. 
)[2014-Mar-04 11:36:10] : REL 1 has LOS to [ANT 1, REL 2, REL 4, COL 1, COL 2, COL 3]
[2014-Mar-04 11:36:10] : REL 1 has LOS to target COL 2.. REL 1 forwards [MSN 5] to COL 2. 
[2014-Mar-04 11:36:10] : [SGN 3] gets relayed to REL 1. 
)[2014-Mar-04 11:36:10] : REL 1 has LOS to [ANT 1, REL 2, REL 4, COL 1, COL 2, COL 3]
[2014-Mar-04 11:36:10] : REL 1 has no LOS to target ANT 4.. REL 1 forwards [SGN 3] to REL 4. 
[2014-Mar-04 11:36:10] : [SGN 2] gets relayed to REL 4. 
)[2014-Mar-04 11:36:10] : REL 4 has LOS to [ANT 6, REL 3, REL 1, COL 10, COL 11, COL 12]
[2014-Mar-04 11:36:11] : REL 4 has no LOS to target ANT 3.. REL 4 forwards [SGN 2] to REL 3. 
[2014-Mar-04 11:36:11] : [MSN 8] gets relayed to REL 2. 
)[2014-Mar-04 11:36:11] : REL 2 has LOS to [ANT 2, ANT 3, REL 1, REL 3, COL 4, COL 5, COL 6]
[2014-Mar-04 11:36:11] : REL 2 has no LOS to target COL 3.. REL 2 forwards [MSN 8] to REL 3. 
[2014-Mar-04 11:36:11] : New Mission arrived.. MSN 10 [Target: COL 3, Duration: 3900] has been created. 
[2014-Mar-04 11:36:11] : MPL sends [MSN 10] to COM 1.

[2014-Mar-04 11:36:11] : MPL is done loading missions. 

[2014-Mar-04 11:36:11] : COM 2 is done forwarding missions. 

[2014-Mar-04 11:36:11] : COM 3 is done forwarding missions. 

[2014-Mar-04 11:36:11] : [SGN 2] gets relayed to REL 3. 
)[2014-Mar-04 11:36:11] : REL 3 has LOS to [ANT 4, ANT 5, REL 2, REL 4, COL 7, COL 8, COL 9]
[2014-Mar-04 11:36:11] : REL 3 has no LOS to target ANT 3.. REL 3 forwards [SGN 2] to REL 4. 
[2014-Mar-04 11:36:11] : COL 3 has LOS to [ANT 2, REL 1]
[2014-Mar-04 11:36:11] : COL 3 has no LOS to target ANT 4.. COL 3 forwards [SGN 4] to REL 1. 
[2014-Mar-04 11:36:11] : [SGN 3] gets relayed to REL 1. 
)[2014-Mar-04 11:36:11] : REL 1 has LOS to [ANT 1, REL 2, REL 4, COL 1, COL 2, COL 3]
[2014-Mar-04 11:36:12] : REL 1 has no LOS to target ANT 4.. REL 1 forwards [SGN 3] to REL 4. 
[2014-Mar-04 11:36:12] : [SGN 2] gets relayed to REL 4. 
)[2014-Mar-04 11:36:12] : REL 4 has LOS to [ANT 6, REL 3, REL 1, COL 10, COL 11, COL 12]
[2014-Mar-04 11:36:12] : REL 4 has no LOS to target ANT 3.. REL 4 forwards [SGN 2] to REL 3. 
[2014-Mar-04 11:36:12] : [MSN 6] gets relayed to REL 2. 
)[2014-Mar-04 11:36:12] : REL 2 has LOS to [ANT 2, ANT 3, REL 1, REL 3, COL 4, COL 5, COL 6]
[2014-Mar-04 11:36:12] : REL 2 has no LOS to target COL 3.. REL 2 forwards [MSN 6] to REL 3. 
[2014-Mar-04 11:36:12] : COM 1 receives [MSN 10] from MPL. 
)[2014-Mar-04 11:36:12] : COM 1 forwards [MSN 10] to ANT 6. 
[2014-Mar-04 11:36:12] : COM 1 is done forwarding missions. 

[2014-Mar-04 11:36:12] : [SGN 2] gets relayed to REL 3. 
)[2014-Mar-04 11:36:12] : REL 3 has LOS to [ANT 4, ANT 5, REL 2, REL 4, COL 7, COL 8, COL 9]
[2014-Mar-04 11:36:12] : REL 3 has no LOS to target ANT 3.. REL 3 forwards [SGN 2] to REL 4. 
[2014-Mar-04 11:36:12] : COL 3 has LOS to [ANT 2, REL 1]
[2014-Mar-04 11:36:12] : COL 3 has no LOS to target ANT 4.. COL 3 forwards [SGN 4] to REL 1. 
[2014-Mar-04 11:36:12] : COL 2 receives [MSN 5]. 
)[2014-Mar-04 11:36:13] : [SGN 3] gets relayed to REL 1. 
)[2014-Mar-04 11:36:13] : REL 1 has LOS to [ANT 1, REL 2, REL 4, COL 1, COL 2, COL 3]
[2014-Mar-04 11:36:13] : REL 1 has no LOS to target ANT 4.. REL 1 forwards [SGN 3] to REL 4. 
[2014-Mar-04 11:36:13] : [SGN 3] gets relayed to REL 4. 
)[2014-Mar-04 11:36:13] : REL 4 has LOS to [ANT 6, REL 3, REL 1, COL 10, COL 11, COL 12]
[2014-Mar-04 11:36:13] : REL 4 has no LOS to target ANT 4.. REL 4 forwards [SGN 3] to REL 3. 
[2014-Mar-04 11:36:13] : ANT 6 receives [MSN 10] from COM 1. 
)[2014-Mar-04 11:36:13] : ANT 6 has LOS to [REL 4, COL 11, COL 12]
[2014-Mar-04 11:36:13] : ANT 6 has no LOS to target COL 3.. ANT 6 forwards [MSN 10] to REL 4. 
[2014-Mar-04 11:36:13] : [SGN 2] gets relayed to REL 3. 
)[2014-Mar-04 11:36:13] : REL 3 has LOS to [ANT 4, ANT 5, REL 2, REL 4, COL 7, COL 8, COL 9]
[2014-Mar-04 11:36:13] : REL 3 has no LOS to target ANT 3.. REL 3 forwards [SGN 2] to REL 4. 
[2014-Mar-04 11:36:13] : SGN 5 [Target: ANT 3] has been created. 
[2014-Mar-04 11:36:13] : COL 2 has LOS to [ANT 1, REL 1]
[2014-Mar-04 11:36:13] : COL 2 has no LOS to target ANT 3.. COL 2 forwards [SGN 5] to REL 1. 
[2014-Mar-04 11:36:13] : COL 3 has LOS to [ANT 2, REL 1]
[2014-Mar-04 11:36:13] : COL 3 has no LOS to target ANT 4.. COL 3 forwards [SGN 4] to REL 1. 
[2014-Mar-04 11:36:14] : [SGN 4] gets relayed to REL 1. 
)[2014-Mar-04 11:36:14] : REL 1 has LOS to [ANT 1, REL 2, REL 4, COL 1, COL 2, COL 3]
[2014-Mar-04 11:36:14] : REL 1 has no LOS to target ANT 4.. REL 1 forwards [SGN 4] to REL 4. 
[2014-Mar-04 11:36:14] : [SGN 3] gets relayed to REL 4. 
)[2014-Mar-04 11:36:14] : REL 4 has LOS to [ANT 6, REL 3, REL 1, COL 10, COL 11, COL 12]
[2014-Mar-04 11:36:14] : REL 4 has no LOS to target ANT 4.. REL 4 forwards [SGN 3] to REL 3. 
[2014-Mar-04 11:36:14] : [SGN 2] gets relayed to REL 3. 
)[2014-Mar-04 11:36:14] : REL 3 has LOS to [ANT 4, ANT 5, REL 2, REL 4, COL 7, COL 8, COL 9]
[2014-Mar-04 11:36:14] : REL 3 has no LOS to target ANT 3.. REL 3 forwards [SGN 2] to REL 4. 
[2014-Mar-04 11:36:14] : COL 2 has LOS to [ANT 1, REL 1]
[2014-Mar-04 11:36:14] : COL 2 has no LOS to target ANT 3.. COL 2 forwards [SGN 5] to REL 1. 
[2014-Mar-04 11:36:14] : COL 3 has LOS to [ANT 2, REL 1]
[2014-Mar-04 11:36:14] : COL 3 has no LOS to target ANT 4.. COL 3 forwards [SGN 4] to REL 1. 
[2014-Mar-04 11:36:15] : [SGN 4] gets relayed to REL 1. 
)[2014-Mar-04 11:36:15] : REL 1 has LOS to [ANT 1, REL 2, REL 4, COL 1, COL 2, COL 3]
[2014-Mar-04 11:36:15] : REL 1 has no LOS to target ANT 4.. REL 1 forwards [SGN 4] to REL 2. 
[2014-Mar-04 11:36:15] : [SGN 4] gets relayed to REL 2. 
)[2014-Mar-04 11:36:15] : REL 2 has LOS to [ANT 2, ANT 3, REL 1, REL 3, COL 4, COL 5, COL 6]
[2014-Mar-04 11:36:15] : REL 2 has no LOS to target ANT 4.. REL 2 forwards [SGN 4] to REL 3. 
[2014-Mar-04 11:36:15] : [SGN 2] gets relayed to REL 4. 
)[2014-Mar-04 11:36:15] : REL 4 has LOS to [ANT 6, REL 3, REL 1, COL 10, COL 11, COL 12]
[2014-Mar-04 11:36:15] : REL 4 has no LOS to target ANT 3.. REL 4 forwards [SGN 2] to REL 1. 
[2014-Mar-04 11:36:15] : COL 2 has LOS to [ANT 1, REL 1]
[2014-Mar-04 11:36:15] : COL 2 has no LOS to target ANT 3.. COL 2 forwards [SGN 5] to REL 1. 
[2014-Mar-04 11:36:15] : COL 3 has LOS to [ANT 2, REL 1]
[2014-Mar-04 11:36:15] : COL 3 has no LOS to target ANT 4.. COL 3 forwards [SGN 4] to REL 1. 
[2014-Mar-04 11:36:16] : [SGN 4] gets relayed to REL 1. 
)[2014-Mar-04 11:36:16] : REL 1 has LOS to [ANT 1, REL 2, REL 4, COL 1, COL 2, COL 3]
[2014-Mar-04 11:36:16] : REL 1 has no LOS to target ANT 4.. REL 1 forwards [SGN 4] to REL 4. 
[2014-Mar-04 11:36:16] : [SGN 4] gets relayed to REL 2. 
)[2014-Mar-04 11:36:16] : REL 2 has LOS to [ANT 2, ANT 3, REL 1, REL 3, COL 4, COL 5, COL 6]
[2014-Mar-04 11:36:16] : REL 2 has no LOS to target ANT 4.. REL 2 forwards [SGN 4] to REL 3. 
[2014-Mar-04 11:36:16] : [MSN 7] gets relayed to REL 3. 
)[2014-Mar-04 11:36:16] : REL 3 has LOS to [ANT 4, ANT 5, REL 2, REL 4, COL 7, COL 8, COL 9]
[2014-Mar-04 11:36:16] : REL 3 has no LOS to target COL 2.. REL 3 forwards [MSN 7] to REL 4. 
[2014-Mar-04 11:36:16] : COL 2 has LOS to [ANT 1, REL 1]
[2014-Mar-04 11:36:16] : COL 2 has no LOS to target ANT 3.. COL 2 forwards [SGN 5] to REL 1. 
[2014-Mar-04 11:36:17] : [SGN 2] gets relayed to REL 1. 
)[2014-Mar-04 11:36:17] : REL 1 has LOS to [ANT 1, REL 2, REL 4, COL 1, COL 2, COL 3]
[2014-Mar-04 11:36:17] : REL 1 has no LOS to target ANT 3.. REL 1 forwards [SGN 2] to REL 2. 
[2014-Mar-04 11:36:17] : [MSN 10] gets relayed to REL 4. 
)[2014-Mar-04 11:36:17] : REL 4 has LOS to [ANT 6, REL 3, REL 1, COL 10, COL 11, COL 12]
[2014-Mar-04 11:36:17] : REL 4 has no LOS to target COL 3.. REL 4 forwards [MSN 10] to REL 1. 
[2014-Mar-04 11:36:17] : [MSN 9] gets relayed to REL 3. 
)[2014-Mar-04 11:36:17] : REL 3 has LOS to [ANT 4, ANT 5, REL 2, REL 4, COL 7, COL 8, COL 9]
[2014-Mar-04 11:36:17] : REL 3 has no LOS to target COL 2.. REL 3 forwards [MSN 9] to REL 4. 
[2014-Mar-04 11:36:17] : COL 2 has LOS to [ANT 1, REL 1]
[2014-Mar-04 11:36:17] : COL 2 has no LOS to target ANT 3.. COL 2 forwards [SGN 5] to REL 1. 
[2014-Mar-04 11:36:18] : [SGN 2] gets relayed to REL 1. 
)[2014-Mar-04 11:36:18] : REL 1 has LOS to [ANT 1, REL 2, REL 4, COL 1, COL 2, COL 3]
[2014-Mar-04 11:36:18] : REL 1 has no LOS to target ANT 3.. REL 1 forwards [SGN 2] to REL 4. 
[2014-Mar-04 11:36:18] : [SGN 2] gets relayed to REL 2. 
)[2014-Mar-04 11:36:18] : REL 2 has LOS to [ANT 2, ANT 3, REL 1, REL 3, COL 4, COL 5, COL 6]
[2014-Mar-04 11:36:18] : REL 2 has LOS to target ANT 3.. REL 2 forwards [SGN 2] to ANT 3. 
[2014-Mar-04 11:36:18] : [MSN 7] gets relayed to REL 4. 
)[2014-Mar-04 11:36:18] : REL 4 has LOS to [ANT 6, REL 3, REL 1, COL 10, COL 11, COL 12]
[2014-Mar-04 11:36:18] : REL 4 has no LOS to target COL 2.. REL 4 forwards [MSN 7] to REL 1. 
[2014-Mar-04 11:36:18] : [MSN 8] gets relayed to REL 3. 
)[2014-Mar-04 11:36:18] : REL 3 has LOS to [ANT 4, ANT 5, REL 2, REL 4, COL 7, COL 8, COL 9]
[2014-Mar-04 11:36:18] : REL 3 has no LOS to target COL 3.. REL 3 forwards [MSN 8] to REL 2. 
[2014-Mar-04 11:36:19] : [SGN 2] gets relayed to REL 1. 
)[2014-Mar-04 11:36:19] : ANT 3 receives [SGN 2]. 
)[2014-Mar-04 11:36:19] : REL 1 has LOS to [ANT 1, REL 2, REL 4, COL 1, COL 2, COL 3]
[2014-Mar-04 11:36:19] : REL 1 has no LOS to target ANT 3.. [2014-Mar-04 11:36:19] : ANT 3 receives [SGN 2]. 
)REL 1 forwards [SGN 2] to REL 2. 
[2014-Mar-04 11:36:19] : [MSN 9] gets relayed to REL 4. 
)[2014-Mar-04 11:36:19] : REL 4 has LOS to [ANT 6, REL 3, REL 1, COL 10, COL 11, COL 12]
[2014-Mar-04 11:36:19] : REL 4 has no LOS to target COL 2.. REL 4 forwards [MSN 9] to REL 1. 
[2014-Mar-04 11:36:19] : [MSN 6] gets relayed to REL 3. 
)[2014-Mar-04 11:36:19] : REL 3 has LOS to [ANT 4, ANT 5, REL 2, REL 4, COL 7, COL 8, COL 9]
[2014-Mar-04 11:36:19] : REL 3 has no LOS to target COL 3.. REL 3 forwards [MSN 6] to REL 4. 
[2014-Mar-04 11:36:19] : [SGN 3] gets relayed to REL 3. 
)[2014-Mar-04 11:36:19] : REL 3 has LOS to [ANT 4, ANT 5, REL 2, REL 4, COL 7, COL 8, COL 9]
[2014-Mar-04 11:36:19] : REL 3 has LOS to target ANT 4.. REL 3 forwards [SGN 3] to ANT 4. 
[2014-Mar-04 11:36:20] : [MSN 8] gets relayed to REL 2. 
)[2014-Mar-04 11:36:20] : REL 2 has LOS to [ANT 2, ANT 3, REL 1, REL 3, COL 4, COL 5, COL 6]
[2014-Mar-04 11:36:20] : REL 2 has no LOS to target COL 3.. REL 2 forwards [MSN 8] to REL 1. 
[2014-Mar-04 11:36:20] : [SGN 2] gets relayed to REL 1. 
)[2014-Mar-04 11:36:20] : REL 1 has LOS to [ANT 1, REL 2, REL 4, COL 1, COL 2, COL 3]
[2014-Mar-04 11:36:20] : REL 1 has no LOS to target ANT 3.. REL 1 forwards [SGN 2] to REL 2. 
[2014-Mar-04 11:36:20] : [SGN 2] gets relayed to REL 2. 
)[2014-Mar-04 11:36:20] : REL 2 has LOS to [ANT 2, ANT 3, REL 1, REL 3, COL 4, COL 5, COL 6]
[2014-Mar-04 11:36:20] : REL 2 has LOS to target ANT 3.. REL 2 forwards [SGN 2] to ANT 3. 
[2014-Mar-04 11:36:20] : [MSN 6] gets relayed to REL 4. 
)[2014-Mar-04 11:36:20] : REL 4 has LOS to [ANT 6, REL 3, REL 1, COL 10, COL 11, COL 12]
[2014-Mar-04 11:36:20] : REL 4 has no LOS to target COL 3.. [2014-Mar-04 11:36:20] : ANT 4 receives [SGN 3]. 
)REL 4 forwards [MSN 6] to REL 1. 
[2014-Mar-04 11:36:20] : [SGN 3] gets relayed to REL 3. 
)[2014-Mar-04 11:36:20] : REL 3 has LOS to [ANT 4, ANT 5, REL 2, REL 4, COL 7, COL 8, COL 9]
[2014-Mar-04 11:36:20] : REL 3 has LOS to target ANT 4.. REL 3 forwards [SGN 3] to ANT 4. 
[2014-Mar-04 11:36:21] : [SGN 5] gets relayed to REL 1. 
)[2014-Mar-04 11:36:21] : ANT 3 receives [SGN 2]. 
)[2014-Mar-04 11:36:21] : REL 1 has LOS to [ANT 1, REL 2, REL 4, COL 1, COL 2, COL 3]
[2014-Mar-04 11:36:21] : REL 1 has no LOS to target ANT 3.. [2014-Mar-04 11:36:21] : ANT 3 receives [SGN 2]. 
)REL 1 forwards [SGN 5] to REL 4. 
[2014-Mar-04 11:36:21] : [SGN 5] gets relayed to REL 4. 
)[2014-Mar-04 11:36:21] : REL 4 has LOS to [ANT 6, REL 3, REL 1, COL 10, COL 11, COL 12]
[2014-Mar-04 11:36:21] : REL 4 has no LOS to target ANT 3.. REL 4 forwards [SGN 5] to REL 1. 
[2014-Mar-04 11:36:21] : [SGN 3] gets relayed to REL 3. 
)[2014-Mar-04 11:36:21] : ANT 4 receives [SGN 3]. 
)[2014-Mar-04 11:36:21] : REL 3 has LOS to [ANT 4, ANT 5, REL 2, REL 4, COL 7, COL 8, COL 9]
[2014-Mar-04 11:36:21] : REL 3 has LOS to target ANT 4.. REL 3 forwards [SGN 3] to ANT 4. 
[2014-Mar-04 11:36:22] : [SGN 2] gets relayed to REL 1. 
)[2014-Mar-04 11:36:22] : REL 1 has LOS to [ANT 1, REL 2, REL 4, COL 1, COL 2, COL 3]
[2014-Mar-04 11:36:22] : REL 1 has no LOS to target ANT 3.. REL 1 forwards [SGN 2] to REL 2. 
[2014-Mar-04 11:36:22] : [SGN 5] gets relayed to REL 4. 
)[2014-Mar-04 11:36:22] : REL 4 has LOS to [ANT 6, REL 3, REL 1, COL 10, COL 11, COL 12]
[2014-Mar-04 11:36:22] : REL 4 has no LOS to target ANT 3.. REL 4 forwards [SGN 5] to REL 1. 
[2014-Mar-04 11:36:22] : [SGN 3] gets relayed to REL 3. 
)[2014-Mar-04 11:36:22] : ANT 4 receives [SGN 3]. 
)[2014-Mar-04 11:36:22] : REL 3 has LOS to [ANT 4, ANT 5, REL 2, REL 4, COL 7, COL 8, COL 9]
[2014-Mar-04 11:36:22] : REL 3 has LOS to target ANT 4.. REL 3 forwards [SGN 3] to ANT 4. 
[2014-Mar-04 11:36:23] : [SGN 5] gets relayed to REL 1. 
)[2014-Mar-04 11:36:23] : REL 1 has LOS to [ANT 1, REL 2, REL 4, COL 1, COL 2, COL 3]
[2014-Mar-04 11:36:23] : REL 1 has no LOS to target ANT 3.. REL 1 forwards [SGN 5] to REL 2. 
[2014-Mar-04 11:36:23] : [SGN 2] gets relayed to REL 2. 
)[2014-Mar-04 11:36:23] : REL 2 has LOS to [ANT 2, ANT 3, REL 1, REL 3, COL 4, COL 5, COL 6]
[2014-Mar-04 11:36:23] : REL 2 has LOS to target ANT 3.. REL 2 forwards [SGN 2] to ANT 3. 
[2014-Mar-04 11:36:23] : [SGN 4] gets relayed to REL 3. 
)[2014-Mar-04 11:36:23] : ANT 4 receives [SGN 3]. 
)[2014-Mar-04 11:36:23] : REL 3 has LOS to [ANT 4, ANT 5, REL 2, REL 4, COL 7, COL 8, COL 9]
[2014-Mar-04 11:36:23] : REL 3 has LOS to target ANT 4.. REL 3 forwards [SGN 4] to ANT 4. 
[2014-Mar-04 11:36:24] : [SGN 2] gets relayed to REL 1. 
)[2014-Mar-04 11:36:24] : REL 1 has LOS to [ANT 1, REL 2, REL 4, COL 1, COL 2, COL 3]
[2014-Mar-04 11:36:24] : REL 1 has no LOS to target ANT 3.. [2014-Mar-04 11:36:24] : ANT 3 receives [SGN 2]. 
)REL 1 forwards [SGN 2] to REL 4. 
[2014-Mar-04 11:36:24] : [SGN 5] gets relayed to REL 2. 
)[2014-Mar-04 11:36:24] : REL 2 has LOS to [ANT 2, ANT 3, REL 1, REL 3, COL 4, COL 5, COL 6]
[2014-Mar-04 11:36:24] : REL 2 has LOS to target ANT 3.. REL 2 forwards [SGN 5] to ANT 3. 
[2014-Mar-04 11:36:24] : [SGN 4] gets relayed to REL 3. 
)[2014-Mar-04 11:36:24] : ANT 4 receives [SGN 4]. 
)[2014-Mar-04 11:36:24] : REL 3 has LOS to [ANT 4, ANT 5, REL 2, REL 4, COL 7, COL 8, COL 9]
[2014-Mar-04 11:36:24] : REL 3 has LOS to target ANT 4.. REL 3 forwards [SGN 4] to ANT 4. 
[2014-Mar-04 11:36:25] : [SGN 5] gets relayed to REL 1. 
)[2014-Mar-04 11:36:25] : REL 1 has LOS to [ANT 1, REL 2, REL 4, COL 1, COL 2, COL 3]
[2014-Mar-04 11:36:25] : REL 1 has no LOS to target ANT 3.. REL 1 forwards [SGN 5] to REL 2. 
[2014-Mar-04 11:36:25] : [SGN 2] gets relayed to REL 4. 
)[2014-Mar-04 11:36:25] : REL 4 has LOS to [ANT 6, REL 3, REL 1, COL 10, COL 11, COL 12]
[2014-Mar-04 11:36:25] : REL 4 has no LOS to target ANT 3.. REL 4 forwards [SGN 2] to REL 3. 
[2014-Mar-04 11:36:25] : [SGN 5] gets relayed to REL 2. 
)[2014-Mar-04 11:36:25] : REL 2 has LOS to [ANT 2, ANT 3, REL 1, REL 3, COL 4, COL 5, COL 6]
[2014-Mar-04 11:36:25] : REL 2 has LOS to target ANT 3.. REL 2 forwards [SGN 5] to ANT 3. 
[2014-Mar-04 11:36:25] : ANT 3 receives [SGN 5]. 
)[2014-Mar-04 11:36:25] : [SGN 4] gets relayed to REL 3. 
)[2014-Mar-04 11:36:25] : ANT 4 receives [SGN 4]. 
)[2014-Mar-04 11:36:25] : REL 3 has LOS to [ANT 4, ANT 5, REL 2, REL 4, COL 7, COL 8, COL 9]
[2014-Mar-04 11:36:25] : REL 3 has LOS to target ANT 4.. REL 3 forwards [SGN 4] to ANT 4. 
[2014-Mar-04 11:36:26] : ANT 3 receives [SGN 5]. 
)[2014-Mar-04 11:36:26] : [SGN 5] gets relayed to REL 2. 
)[2014-Mar-04 11:36:26] : ANT 3 receives [SGN 5]. 
)[2014-Mar-04 11:36:26] : REL 2 has LOS to [ANT 2, ANT 3, REL 1, REL 3, COL 4, COL 5, COL 6]
[2014-Mar-04 11:36:26] : REL 2 has LOS to target ANT 3.. REL 2 forwards [SGN 5] to ANT 3. 
[2014-Mar-04 11:36:26] : [SGN 4] gets relayed to REL 3. 
)[2014-Mar-04 11:36:26] : ANT 4 receives [SGN 4]. 
)[2014-Mar-04 11:36:26] : REL 3 has LOS to [ANT 4, ANT 5, REL 2, REL 4, COL 7, COL 8, COL 9]
[2014-Mar-04 11:36:26] : REL 3 has LOS to target ANT 4.. REL 3 forwards [SGN 4] to ANT 4. 
[2014-Mar-04 11:36:27] : [MSN 10] gets relayed to REL 1. 
)[2014-Mar-04 11:36:27] : REL 1 has LOS to [ANT 1, REL 2, REL 4, COL 1, COL 2, COL 3]
[2014-Mar-04 11:36:27] : REL 1 has LOS to target COL 3.. REL 1 forwards [MSN 10] to COL 3. 
[2014-Mar-04 11:36:27] : [SGN 5] gets relayed to REL 2. 
)[2014-Mar-04 11:36:27] : ANT 3 receives [SGN 5]. 
)[2014-Mar-04 11:36:27] : REL 2 has LOS to [ANT 2, ANT 3, REL 1, REL 3, COL 4, COL 5, COL 6]
[2014-Mar-04 11:36:27] : REL 2 has LOS to target ANT 3.. REL 2 forwards [SGN 5] to ANT 3. 
[2014-Mar-04 11:36:27] : [SGN 4] gets relayed to REL 3. 
)[2014-Mar-04 11:36:27] : ANT 4 receives [SGN 4]. 
)[2014-Mar-04 11:36:27] : REL 3 has LOS to [ANT 4, ANT 5, REL 2, REL 4, COL 7, COL 8, COL 9]
[2014-Mar-04 11:36:27] : REL 3 has LOS to target ANT 4.. REL 3 forwards [SGN 4] to ANT 4. 
[2014-Mar-04 11:36:28] : [MSN 7] gets relayed to REL 1. 
)[2014-Mar-04 11:36:28] : COL 3 receives [MSN 10]. 
)[2014-Mar-04 11:36:28] : REL 1 has LOS to [ANT 1, REL 2, REL 4, COL 1, COL 2, COL 3]
[2014-Mar-04 11:36:28] : REL 1 has LOS to target COL 2.. REL 1 forwards [MSN 7] to COL 2. 
[2014-Mar-04 11:36:28] : ANT 3 receives [SGN 5]. 
)[2014-Mar-04 11:36:28] : [SGN 4] gets relayed to REL 3. 
)[2014-Mar-04 11:36:28] : ANT 4 receives [SGN 4]. 
)[2014-Mar-04 11:36:28] : REL 3 has LOS to [ANT 4, ANT 5, REL 2, REL 4, COL 7, COL 8, COL 9]
[2014-Mar-04 11:36:28] : REL 3 has LOS to target ANT 4.. REL 3 forwards [SGN 4] to ANT 4. 
[2014-Mar-04 11:36:29] : SGN 10 [Target: ANT 6] has been created. 
[2014-Mar-04 11:36:29] : COL 3 has LOS to [ANT 2, REL 1]
[2014-Mar-04 11:36:29] : COL 3 has no LOS to target ANT 6.. [2014-Mar-04 11:36:29] : [MSN 9] gets relayed to REL 1. 
)COL 3 forwards [SGN 10] to REL 1. 
[2014-Mar-04 11:36:29] : REL 1 has LOS to [ANT 1, REL 2, [2014-Mar-04 11:36:29] : COL 2 receives [MSN 7]. 
)REL 4, COL 1, COL 2, COL 3]
[2014-Mar-04 11:36:29] : REL 1 has LOS to target COL 2.. REL 1 forwards [MSN 9] to COL 2. 
[2014-Mar-04 11:36:29] : ANT 4 receives [SGN 4]. 
)[2014-Mar-04 11:36:29] : [SGN 2] gets relayed to REL 3. 
)[2014-Mar-04 11:36:29] : REL 3 has LOS to [ANT 4, ANT 5, REL 2, REL 4, COL 7, COL 8, COL 9]
[2014-Mar-04 11:36:30] : REL 3 has no LOS to target ANT 3.. REL 3 forwards [SGN 2] to REL 4. 
[2014-Mar-04 11:36:30] : SGN 7 [Target: ANT 5] has been created. 
[2014-Mar-04 11:36:30] : COL 2 has LOS to [ANT 1, REL 1]
[2014-Mar-04 11:36:30] : [MSN 8] gets relayed to REL 1. 
)[2014-Mar-04 11:36:30] : COL 2 has no LOS to target ANT 5.. COL 2 forwards [SGN 7] to REL 1. 
[2014-Mar-04 11:36:30] : REL 1 has LOS to [ANT 1, REL 2, REL 4, COL 1, COL 2, COL 3]
[2014-Mar-04 11:36:30] : REL 1 has LOS to target COL 3.. REL 1 forwards [MSN 8] to COL 3. 
[2014-Mar-04 11:36:30] : COL 3 has LOS to [ANT 2, REL 1]
[2014-Mar-04 11:36:30] : COL 3 has no LOS to target ANT 6.. COL 3 forwards [SGN 10] to REL 1. 
[2014-Mar-04 11:36:31] : [SGN 2] gets relayed to REL 4. 
)[2014-Mar-04 11:36:31] : REL 4 has LOS to [ANT 6, REL 3, REL 1, COL 10, COL 11, COL 12]
[2014-Mar-04 11:36:31] : REL 4 has no LOS to target ANT 3.. REL 4 forwards [SGN 2] to REL 1. 
[2014-Mar-04 11:36:31] : COL 2 has LOS to [ANT 1, REL 1]
[2014-Mar-04 11:36:31] : COL 2 has no LOS to target ANT 5.. COL 2 forwards [SGN 7] to REL 1. 
[2014-Mar-04 11:36:31] : [MSN 6] gets relayed to REL 1. 
)[2014-Mar-04 11:36:31] : REL 1 has LOS to [ANT 1, REL 2, REL 4, COL 1, COL 2, COL 3]
[2014-Mar-04 11:36:31] : REL 1 has LOS to target COL 3.. REL 1 forwards [MSN 6] to COL 3. 
[2014-Mar-04 11:36:31] : COL 3 has LOS to [[2014-Mar-04 11:36:31] : [SGN 10] gets relayed to REL 1. 
)ANT 2, REL 1]
[2014-Mar-04 11:36:31] : COL 3 has no LOS to target ANT 6.. COL 3 forwards [SGN 10] to REL 1. 
[2014-Mar-04 11:36:31] : REL 1 has LOS to [ANT 1, REL 2, REL 4, COL 1, COL 2, COL 3]
[2014-Mar-04 11:36:31] : REL 1 has no LOS to target ANT 6.. REL 1 forwards [SGN 10] to REL 2. 
[2014-Mar-04 11:36:32] : COL 2 has LOS to [ANT 1, REL 1]
[2014-Mar-04 11:36:32] : COL 2 has no LOS to target ANT 5.. COL 2 forwards [SGN 7] to REL 1. 
[2014-Mar-04 11:36:32] : COL 3 has LOS to [[2014-Mar-04 11:36:32] : [SGN 10] gets relayed to REL 2. 
)ANT 2, REL 1]
[2014-Mar-04 11:36:32] : COL 3 has no LOS to target ANT 6.. COL 3 forwards [SGN 10] to REL 1. 
[2014-Mar-04 11:36:32] : REL 2 has LOS to [ANT 2, ANT 3, REL 1, REL 3, COL 4, COL 5, COL 6]
[2014-Mar-04 11:36:32] : REL 2 has no LOS to target ANT 6.. REL 2 forwards [SGN 10] to REL 1. 
[2014-Mar-04 11:36:32] : [SGN 7] gets relayed to REL 1. 
)[2014-Mar-04 11:36:32] : REL 1 has LOS to [ANT 1, REL 2, REL 4, COL 1, COL 2, COL 3]
[2014-Mar-04 11:36:32] : REL 1 has no LOS to target ANT 5.. REL 1 forwards [SGN 7] to REL 4. 
[2014-Mar-04 11:36:32] : [SGN 7] gets relayed to REL 4. 
)[2014-Mar-04 11:36:32] : REL 4 has LOS to [ANT 6, REL 3, REL 1, COL 10, COL 11, COL 12]
[2014-Mar-04 11:36:32] : REL 4 has no LOS to target ANT 5.. REL 4 forwards [SGN 7] to REL 3. 
[2014-Mar-04 11:36:33] : COL 2 has LOS to [[2014-Mar-04 11:36:33] : [SGN 7] gets relayed to REL 3. 
)ANT 1, REL 1]
[2014-Mar-04 11:36:33] : COL 2 has no LOS to target ANT 5.. COL 2 forwards [SGN 7] to REL 1. 
[2014-Mar-04 11:36:33] : REL 3 has LOS to [ANT 4, ANT 5, REL 2, REL 4, COL 7, COL 8, COL 9]
[2014-Mar-04 11:36:33] : REL 3 has LOS to target ANT 5.. REL 3 forwards [SGN 7] to ANT 5. 
[2014-Mar-04 11:36:33] : [SGN 10] gets relayed to REL 1. 
)[2014-Mar-04 11:36:33] : ANT 5 receives [SGN 7]. 
)[2014-Mar-04 11:36:33] : REL 1 has LOS to [ANT 1, REL 2, REL 4, COL 1, COL 2, COL 3]
[2014-Mar-04 11:36:33] : REL 1 has no LOS to target ANT 6.. [2014-Mar-04 11:36:33] : ANT 5 receives [SGN 7]. 
)REL 1 forwards [SGN 10] to REL 2. 
[2014-Mar-04 11:36:33] : [SGN 10] gets relayed to REL 2. 
)[2014-Mar-04 11:36:33] : REL 2 has LOS to [ANT 2, ANT 3, REL 1, REL 3, COL 4, COL 5, COL 6]
[2014-Mar-04 11:36:33] : REL 2 has no LOS to target ANT 6.. REL 2 forwards [SGN 10] to REL 1. 
[2014-Mar-04 11:36:34] : ANT 5 receives [SGN 7]. 
)[2014-Mar-04 11:36:34] : ANT 5 receives [SGN 7]. 
)[2014-Mar-04 11:36:34] : COL 3 receives [MSN 8]. 
)[2014-Mar-04 11:36:34] : [SGN 2] gets relayed to REL 1. 
)[2014-Mar-04 11:36:34] : REL 1 has LOS to [ANT 1, REL 2, REL 4, COL 1, COL 2, COL 3]
[2014-Mar-04 11:36:34] : REL 1 has no LOS to target ANT 3.. REL 1 forwards [SGN 2] to REL 4. 
[2014-Mar-04 11:36:34] : [SGN 10] gets relayed to REL 2. 
)[2014-Mar-04 11:36:34] : REL 2 has LOS to [ANT 2, ANT 3, REL 1, REL 3, COL 4, COL 5, COL 6]
[2014-Mar-04 11:36:34] : REL 2 has no LOS to target ANT 6.. REL 2 forwards [SGN 10] to REL 3. 
[2014-Mar-04 11:36:34] : [SGN 10] gets relayed to REL 3. 
)[2014-Mar-04 11:36:34] : REL 3 has LOS to [ANT 4, ANT 5, REL 2, REL 4, COL 7, COL 8, COL 9]
[2014-Mar-04 11:36:34] : REL 3 has no LOS to target ANT 6.. REL 3 forwards [SGN 10] to REL 2. 
[2014-Mar-04 11:36:35] : SGN 8 [Target: ANT 4] has been created. 
[2014-Mar-04 11:36:35] : COL 2 receives [MSN 9]. 
)[2014-Mar-04 11:36:35] : [SGN 10] gets relayed to REL 1. 
)[2014-Mar-04 11:36:35] : REL 1 has LOS to [ANT 1, REL 2, REL 4, COL 1, COL 2, COL 3]
[2014-Mar-04 11:36:35] : REL 1 has no LOS to target ANT 6.. REL 1 forwards [SGN 10] to REL 4. 
[2014-Mar-04 11:36:35] : [SGN 2] gets relayed to REL 4. 
)[2014-Mar-04 11:36:35] : REL 4 has LOS to [ANT 6, REL 3, REL 1, COL 10, COL 11, COL 12]
[2014-Mar-04 11:36:35] : REL 4 has no LOS to target ANT 3.. REL 4 forwards [SGN 2] to REL 1. 
[2014-Mar-04 11:36:35] : [SGN 10] gets relayed to REL 2. 
)[2014-Mar-04 11:36:35] : REL 2 has LOS to [ANT 2, ANT 3, REL 1, REL 3, COL 4, COL 5, COL 6]
[2014-Mar-04 11:36:36] : REL 2 has no LOS to target ANT 6.. REL 2 forwards [SGN 10] to REL 1. 
[2014-Mar-04 11:36:36] : SGN 9 [Target: ANT 4] has been created. 
[2014-Mar-04 11:36:36] : COL 3 receives [MSN 6]. 
)[2014-Mar-04 11:36:36] : [SGN 10] gets relayed to REL 1. 
)[2014-Mar-04 11:36:36] : REL 1 has LOS to [ANT 1, REL 2, REL 4, COL 1, COL 2, COL 3]
[2014-Mar-04 11:36:36] : REL 1 has no LOS to target ANT 6.. REL 1 forwards [SGN 10] to REL 4. 
[2014-Mar-04 11:36:37] : [SGN 10] gets relayed to REL 4. 
)[2014-Mar-04 11:36:37] : REL 4 has LOS to [ANT 6, REL 3, REL 1, COL 10, COL 11, COL 12]
[2014-Mar-04 11:36:37] : REL 4 has LOS to target ANT 6.. REL 4 forwards [SGN 10] to ANT 6. 
[2014-Mar-04 11:36:37] : SGN 6 [Target: ANT 5] has been created. 
[2014-Mar-04 11:36:37] : COL 3 has LOS to [ANT 2, REL 1]
[2014-Mar-04 11:36:37] : COL 3 has no LOS to target ANT 4.. COL 3 forwards [SGN 8] to REL 1. 
[2014-Mar-04 11:36:37] : COL 2 has LOS to [ANT 1, REL 1]
[2014-Mar-04 11:36:37] : COL 2 has no LOS to target ANT 4.. COL 2 forwards [SGN 9] to REL 1. 
[2014-Mar-04 11:36:37] : [SGN 10] gets relayed to REL 1. 
)[2014-Mar-04 11:36:38] : ANT 6 receives [SGN 10]. 
)[2014-Mar-04 11:36:38] : REL 1 has LOS to [ANT 1, REL 2, REL 4, COL 1, COL 2, COL 3]
[2014-Mar-04 11:36:38] : REL 1 has no LOS to target ANT 6.. REL 1 forwards [SGN 10] to REL 2. 
[2014-Mar-04 11:36:38] : [SGN 10] gets relayed to REL 2. 
)[2014-Mar-04 11:36:38] : REL 2 has LOS to [ANT 2, ANT 3, REL 1, REL 3, COL 4, COL 5, COL 6]
[2014-Mar-04 11:36:38] : REL 2 has no LOS to target ANT 6.. REL 2 forwards [SGN 10] to REL 1. 
[2014-Mar-04 11:36:38] : COL 3 has LOS to [ANT 2, REL 1]
[2014-Mar-04 11:36:38] : COL 3 has no LOS to target ANT 4.. COL 3 forwards [SGN 8] to REL 1. 
[2014-Mar-04 11:36:38] : COL 2 has LOS to [ANT 1, REL 1]
[2014-Mar-04 11:36:38] : COL 2 has no LOS to target ANT 4.. COL 2 forwards [SGN 9] to REL 1. 
[2014-Mar-04 11:36:39] : [SGN 10] gets relayed to REL 1. 
)[2014-Mar-04 11:36:39] : REL 1 has LOS to [ANT 1, REL 2, REL 4, COL 1, COL 2, COL 3]
[2014-Mar-04 11:36:39] : REL 1 has no LOS to target ANT 6.. REL 1 forwards [SGN 10] to REL 4. 
[2014-Mar-04 11:36:39] : [SGN 10] gets relayed to REL 4. 
)[2014-Mar-04 11:36:39] : REL 4 has LOS to [ANT 6, REL 3, REL 1, COL 10, COL 11, COL 12]
[2014-Mar-04 11:36:39] : REL 4 has LOS to target ANT 6.. REL 4 forwards [SGN 10] to ANT 6. 
[2014-Mar-04 11:36:39] : ANT 6 receives [SGN 10]. 
)[2014-Mar-04 11:36:39] : COL 3 has LOS to [ANT 2, REL 1]
[2014-Mar-04 11:36:39] : COL 3 has no LOS to target ANT 4.. COL 3 forwards [SGN 8] to REL 1. 
[2014-Mar-04 11:36:39] : COL 2 has LOS to [ANT 1, REL 1]
[2014-Mar-04 11:36:39] : COL 2 has no LOS to target ANT 4.. COL 2 forwards [SGN 9] to REL 1. 
[2014-Mar-04 11:36:40] : [SGN 2] gets relayed to REL 1. 
)[2014-Mar-04 11:36:40] : ANT 6 receives [SGN 10]. 
)[2014-Mar-04 11:36:40] : REL 1 has LOS to [ANT 1, REL 2, REL 4, COL 1, COL 2, COL 3]
[2014-Mar-04 11:36:40] : REL 1 has no LOS to target ANT 3.. [2014-Mar-04 11:36:40] : ANT 6 receives [SGN 10]. 
)REL 1 forwards [SGN 2] to REL 4. 
[2014-Mar-04 11:36:40] : COL 3 has LOS to [ANT 2, REL 1]
[2014-Mar-04 11:36:40] : COL 3 has no LOS to target ANT 4.. COL 3 forwards [SGN 8] to REL 1. 
[2014-Mar-04 11:36:40] : COL 2 has LOS to [ANT 1, REL 1]
[2014-Mar-04 11:36:40] : COL 2 has no LOS to target ANT 4.. COL 2 forwards [SGN 9] to REL 1. 
[2014-Mar-04 11:36:41] : [SGN 8] gets relayed to REL 1. 
)[2014-Mar-04 11:36:41] : REL 1 has LOS to [ANT 1, REL 2, REL 4, COL 1, COL 2, COL 3]
[2014-Mar-04 11:36:41] : REL 1 has no LOS to target ANT 4.. REL 1 forwards [SGN 8] to REL 2. 
[2014-Mar-04 11:36:41] : [SGN 2] gets relayed to REL 4. 
)[2014-Mar-04 11:36:41] : REL 4 has LOS to [ANT 6, REL 3, REL 1, COL 10, COL 11, COL 12]
[2014-Mar-04 11:36:41] : REL 4 has no LOS to target ANT 3.. REL 4 forwards [SGN 2] to REL 1. 
[2014-Mar-04 11:36:41] : [SGN 8] gets relayed to REL 2. 
)[2014-Mar-04 11:36:41] : REL 2 has LOS to [ANT 2, ANT 3, REL 1, REL 3, COL 4, COL 5, COL 6]
[2014-Mar-04 11:36:41] : REL 2 has no LOS to target ANT 4.. REL 2 forwards [SGN 8] to REL 3. 
[2014-Mar-04 11:36:41] : COL 3 has LOS to [[2014-Mar-04 11:36:41] : [SGN 8] gets relayed to REL 3. 
)ANT 2, REL 1]
[2014-Mar-04 11:36:41] : COL 3 has no LOS to target ANT 4.. COL 3 forwards [SGN 8] to REL 1. 
[2014-Mar-04 11:36:41] : REL 3 has LOS to [ANT 4, ANT 5, REL 2, REL 4, COL 7, COL 8, COL 9]
[2014-Mar-04 11:36:41] : REL 3 has LOS to target ANT 4.. REL 3 forwards [SGN 8] to ANT 4. 
[2014-Mar-04 11:36:41] : COL 2 has LOS to [ANT 1, REL 1]
[2014-Mar-04 11:36:41] : COL 2 has no LOS to target ANT 4.. COL 2 forwards [SGN 9] to REL 1. 
[2014-Mar-04 11:36:42] : [SGN 9] gets relayed to REL 1. 
)[2014-Mar-04 11:36:42] : ANT 4 receives [SGN 8]. 
)[2014-Mar-04 11:36:42] : REL 1 has LOS to [ANT 1, REL 2, REL 4, COL 1, COL 2, COL 3]
[2014-Mar-04 11:36:42] : REL 1 has no LOS to target ANT 4.. REL 1 forwards [SGN 9] to REL 4. 
[2014-Mar-04 11:36:42] : [SGN 9] gets relayed to REL 4. 
)[2014-Mar-04 11:36:42] : REL 4 has LOS to [ANT 6, REL 3, REL 1, COL 10, COL 11, COL 12]
[2014-Mar-04 11:36:42] : REL 4 has no LOS to target ANT 4.. [2014-Mar-04 11:36:42] : ANT 4 receives [SGN 8]. 
)REL 4 forwards [SGN 9] to REL 3. 
[2014-Mar-04 11:36:42] : ANT 4 receives [SGN 8]. 
)[2014-Mar-04 11:36:42] : COL 3 has LOS to [ANT 2, REL 1]
[2014-Mar-04 11:36:42] : COL 3 has no LOS to target ANT 5.. [2014-Mar-04 11:36:42] : ANT 4 receives [SGN 8]. 
)COL 3 forwards [SGN 6] to REL 1. 
[2014-Mar-04 11:36:43] : [SGN 9] gets relayed to REL 3. 
)[2014-Mar-04 11:36:43] : REL 3 has LOS to [ANT 4, ANT 5, REL 2, REL 4, COL 7, COL 8, COL 9]
[2014-Mar-04 11:36:43] : REL 3 has LOS to target ANT 4.. REL 3 forwards [SGN 9] to ANT 4. 
[2014-Mar-04 11:36:43] : [SGN 8] gets relayed to REL 1. 
)[2014-Mar-04 11:36:43] : ANT 4 receives [SGN 9]. 
)[2014-Mar-04 11:36:43] : REL 1 has LOS to [ANT 1, REL 2, REL 4, COL 1, COL 2, COL 3]
[2014-Mar-04 11:36:43] : REL 1 has no LOS to target ANT 4.. REL 1 forwards [SGN 8] to REL 4. 
[2014-Mar-04 11:36:43] : ANT 4 receives [SGN 9]. 
)[2014-Mar-04 11:36:43] : [SGN 9] gets relayed to REL 4. 
)[2014-Mar-04 11:36:43] : REL 4 has LOS to [ANT 6, REL 3, REL 1, COL 10, COL 11, COL 12]
[2014-Mar-04 11:36:43] : REL 4 has no LOS to target ANT 4.. REL 4 forwards [SGN 9] to REL 3. 
[2014-Mar-04 11:36:44] : COL 3 has LOS to [ANT 2, REL 1]
[2014-Mar-04 11:36:44] : COL 3 has no LOS to target ANT 5.. COL 3 forwards [SGN 6] to REL 1. 
[2014-Mar-04 11:36:44] : [SGN 9] gets relayed to REL 3. 
)[2014-Mar-04 11:36:44] : REL 3 has LOS to [ANT 4, ANT 5, REL 2, REL 4, COL 7, COL 8, COL 9]
[2014-Mar-04 11:36:44] : REL 3 has LOS to target ANT 4.. REL 3 forwards [SGN 9] to ANT 4. 
[2014-Mar-04 11:36:44] : [SGN 9] gets relayed to REL 1. 
)[2014-Mar-04 11:36:44] : REL 1 has LOS to [ANT 1, REL 2, REL 4, COL 1, COL 2, COL 3]
[2014-Mar-04 11:36:44] : REL 1 has no LOS to target ANT 4.. REL 1 forwards [SGN 9] to REL 2. 
[2014-Mar-04 11:36:44] : [SGN 9] gets relayed to REL 2. 
)[2014-Mar-04 11:36:44] : REL 2 has LOS to [ANT 2, ANT 3, REL 1, REL 3, COL 4, COL 5, COL 6]
[2014-Mar-04 11:36:44] : REL 2 has no LOS to target ANT 4.. REL 2 forwards [SGN 9] to REL 3. 
[2014-Mar-04 11:36:44] : [SGN 8] gets relayed to REL 4. 
)[2014-Mar-04 11:36:44] : REL 4 has LOS to [ANT 6, REL 3, REL 1, COL 10, COL 11, COL 12]
[2014-Mar-04 11:36:44] : REL 4 has no LOS to target ANT 4.. REL 4 forwards [SGN 8] to REL 1. 
[2014-Mar-04 11:36:45] : COL 3 has LOS to [ANT 2, REL 1]
[2014-Mar-04 11:36:45] : COL 3 has no LOS to target ANT 5.. COL 3 forwards [SGN 6] to REL 1. 
[2014-Mar-04 11:36:45] : [SGN 9] gets relayed to REL 3. 
)[2014-Mar-04 11:36:45] : REL 3 has LOS to [ANT 4, ANT 5, REL 2, REL 4, COL 7, COL 8, COL 9]
[2014-Mar-04 11:36:45] : REL 3 has LOS to target ANT 4.. REL 3 forwards [SGN 9] to ANT 4. 
[2014-Mar-04 11:36:45] : ANT 4 receives [SGN 9]. 
)[2014-Mar-04 11:36:45] : [SGN 2] gets relayed to REL 1. 
)[2014-Mar-04 11:36:45] : REL 1 has LOS to [ANT 1, REL 2, REL 4, COL 1, COL 2, COL 3]
[2014-Mar-04 11:36:45] : REL 1 has no LOS to target ANT 3.. REL 1 forwards [SGN 2] to REL 4. 
[2014-Mar-04 11:36:45] : ANT 4 receives [SGN 9]. 
)[2014-Mar-04 11:36:46] : COL 3 has LOS to [ANT 2, REL 1]
[2014-Mar-04 11:36:46] : COL 3 has no LOS to target ANT 5.. COL 3 forwards [SGN 6] to REL 1. 
[2014-Mar-04 11:36:46] : ANT 4 receives [SGN 9]. 
)[2014-Mar-04 11:36:46] : [SGN 6] gets relayed to REL 1. 
)[2014-Mar-04 11:36:46] : REL 1 has LOS to [ANT 1, REL 2, REL 4, COL 1, COL 2, COL 3]
[2014-Mar-04 11:36:46] : REL 1 has no LOS to target ANT 5.. REL 1 forwards [SGN 6] to REL 4. 
[2014-Mar-04 11:36:46] : [SGN 2] gets relayed to REL 4. 
)[2014-Mar-04 11:36:46] : REL 4 has LOS to [ANT 6, REL 3, REL 1, COL 10, COL 11, COL 12]
[2014-Mar-04 11:36:46] : REL 4 has no LOS to target ANT 3.. REL 4 forwards [SGN 2] to REL 3. 
[2014-Mar-04 11:36:47] : [SGN 6] gets relayed to REL 1. 
)[2014-Mar-04 11:36:47] : REL 1 has LOS to [ANT 1, REL 2, REL 4, COL 1, COL 2, COL 3]
[2014-Mar-04 11:36:47] : REL 1 has no LOS to target ANT 5.. REL 1 forwards [SGN 6] to REL 4. 
[2014-Mar-04 11:36:47] : [SGN 6] gets relayed to REL 4. 
)[2014-Mar-04 11:36:47] : REL 4 has LOS to [ANT 6, REL 3, REL 1, COL 10, COL 11, COL 12]
[2014-Mar-04 11:36:47] : REL 4 has no LOS to target ANT 5.. REL 4 forwards [SGN 6] to REL 3. 
[2014-Mar-04 11:36:47] : [SGN 2] gets relayed to REL 3. 
)[2014-Mar-04 11:36:47] : REL 3 has LOS to [ANT 4, ANT 5, REL 2, REL 4, COL 7, COL 8, COL 9]
[2014-Mar-04 11:36:47] : REL 3 has no LOS to target ANT 3.. REL 3 forwards [SGN 2] to REL 4. 
[2014-Mar-04 11:36:48] : [SGN 8] gets relayed to REL 1. 
)[2014-Mar-04 11:36:48] : REL 1 has LOS to [ANT 1, REL 2, REL 4, COL 1, COL 2, COL 3]
[2014-Mar-04 11:36:48] : REL 1 has no LOS to target ANT 4.. REL 1 forwards [SGN 8] to REL 2. 
[2014-Mar-04 11:36:48] : [SGN 6] gets relayed to REL 4. 
)[2014-Mar-04 11:36:48] : REL 4 has LOS to [ANT 6, REL 3, REL 1, COL 10, COL 11, COL 12]
[2014-Mar-04 11:36:48] : REL 4 has no LOS to target ANT 5.. REL 4 forwards [SGN 6] to REL 1. 
[2014-Mar-04 11:36:49] : [SGN 8] gets relayed to REL 2. 
)[2014-Mar-04 11:36:49] : REL 2 has LOS to [ANT 2, ANT 3, REL 1, REL 3, COL 4, COL 5, COL 6]
[2014-Mar-04 11:36:49] : REL 2 has no LOS to target ANT 4.. REL 2 forwards [SGN 8] to REL 1. 
[2014-Mar-04 11:36:49] : [SGN 6] gets relayed to REL 1. 
)[2014-Mar-04 11:36:49] : REL 1 has LOS to [ANT 1, REL 2, REL 4, COL 1, COL 2, COL 3]
[2014-Mar-04 11:36:49] : REL 1 has no LOS to target ANT 5.. REL 1 forwards [SGN 6] to REL 4. 
[2014-Mar-04 11:36:49] : [SGN 6] gets relayed to REL 4. 
)[2014-Mar-04 11:36:49] : REL 4 has LOS to [ANT 6, REL 3, REL 1, COL 10, COL 11, COL 12]
[2014-Mar-04 11:36:49] : REL 4 has no LOS to target ANT 5.. REL 4 forwards [SGN 6] to REL 1. 
[2014-Mar-04 11:36:50] : [SGN 6] gets relayed to REL 1. 
)[2014-Mar-04 11:36:50] : REL 1 has LOS to [ANT 1, REL 2, REL 4, COL 1, COL 2, COL 3]
[2014-Mar-04 11:36:50] : REL 1 has no LOS to target ANT 5.. REL 1 forwards [SGN 6] to REL 2. 
[2014-Mar-04 11:36:50] : [SGN 6] gets relayed to REL 2. 
)[2014-Mar-04 11:36:50] : REL 2 has LOS to [ANT 2, ANT 3, REL 1, REL 3, COL 4, COL 5, COL 6]
[2014-Mar-04 11:36:50] : REL 2 has no LOS to target ANT 5.. REL 2 forwards [SGN 6] to REL 3. 
[2014-Mar-04 11:36:50] : [SGN 2] gets relayed to REL 4. 
)[2014-Mar-04 11:36:50] : REL 4 has LOS to [ANT 6, REL 3, REL 1, COL 10, COL 11, COL 12]
[2014-Mar-04 11:36:50] : REL 4 has no LOS to target ANT 3.. REL 4 forwards [SGN 2] to REL 3. 
[2014-Mar-04 11:36:50] : [SGN 6] gets relayed to REL 3. 
)[2014-Mar-04 11:36:50] : REL 3 has LOS to [ANT 4, ANT 5, REL 2, REL 4, COL 7, COL 8, COL 9]
[2014-Mar-04 11:36:50] : REL 3 has LOS to target ANT 5.. REL 3 forwards [SGN 6] to ANT 5. 
[2014-Mar-04 11:36:51] : ANT 5 receives [SGN 6]. 
)[2014-Mar-04 11:36:51] : [SGN 8] gets relayed to REL 1. 
)[2014-Mar-04 11:36:51] : REL 1 has LOS to [ANT 1, REL 2, REL 4, COL 1, COL 2, COL 3]
[2014-Mar-04 11:36:51] : REL 1 has no LOS to target ANT 4.. [2014-Mar-04 11:36:51] : ANT 5 receives [SGN 6]. 
)REL 1 forwards [SGN 8] to REL 2. 
[2014-Mar-04 11:36:51] : [SGN 6] gets relayed to REL 2. 
)[2014-Mar-04 11:36:51] : REL 2 has LOS to [ANT 2, ANT 3, REL 1, REL 3, COL 4, COL 5, COL 6]
[2014-Mar-04 11:36:51] : REL 2 has no LOS to target ANT 5.. REL 2 forwards [SGN 6] to REL 1. 
[2014-Mar-04 11:36:51] : [SGN 2] gets relayed to REL 3. 
)[2014-Mar-04 11:36:51] : REL 3 has LOS to [ANT 4, ANT 5, REL 2, REL 4, COL 7, COL 8, COL 9]
[2014-Mar-04 11:36:51] : REL 3 has no LOS to target ANT 3.. REL 3 forwards [SGN 2] to REL 4. 
[2014-Mar-04 11:36:52] : [SGN 6] gets relayed to REL 1. 
)[2014-Mar-04 11:36:52] : REL 1 has LOS to [ANT 1, REL 2, REL 4, COL 1, COL 2, COL 3]
[2014-Mar-04 11:36:52] : REL 1 has no LOS to target ANT 5.. REL 1 forwards [SGN 6] to REL 4. 
[2014-Mar-04 11:36:52] : [SGN 6] gets relayed to REL 4. 
)[2014-Mar-04 11:36:52] : REL 4 has LOS to [ANT 6, REL 3, REL 1, COL 10, COL 11, COL 12]
[2014-Mar-04 11:36:52] : REL 4 has no LOS to target ANT 5.. REL 4 forwards [SGN 6] to REL 1. 
[2014-Mar-04 11:36:52] : [SGN 8] gets relayed to REL 2. 
)[2014-Mar-04 11:36:52] : REL 2 has LOS to [ANT 2, ANT 3, REL 1, REL 3, COL 4, COL 5, COL 6]
[2014-Mar-04 11:36:52] : REL 2 has no LOS to target ANT 4.. REL 2 forwards [SGN 8] to REL 3. 
[2014-Mar-04 11:36:53] : [SGN 6] gets relayed to REL 1. 
)[2014-Mar-04 11:36:53] : REL 1 has LOS to [ANT 1, REL 2, REL 4, COL 1, COL 2, COL 3]
[2014-Mar-04 11:36:53] : REL 1 has no LOS to target ANT 5.. REL 1 forwards [SGN 6] to REL 4. 
[2014-Mar-04 11:36:53] : [SGN 2] gets relayed to REL 4. 
)[2014-Mar-04 11:36:53] : REL 4 has LOS to [ANT 6, REL 3, REL 1, COL 10, COL 11, COL 12]
[2014-Mar-04 11:36:53] : REL 4 has no LOS to target ANT 3.. REL 4 forwards [SGN 2] to REL 3. 
[2014-Mar-04 11:36:53] : [SGN 8] gets relayed to REL 3. 
)[2014-Mar-04 11:36:53] : REL 3 has LOS to [ANT 4, ANT 5, REL 2, REL 4, COL 7, COL 8, COL 9]
[2014-Mar-04 11:36:53] : REL 3 has LOS to target ANT 4.. REL 3 forwards [SGN 8] to ANT 4. 
[2014-Mar-04 11:36:54] : [SGN 6] gets relayed to REL 4. 
)[2014-Mar-04 11:36:54] : REL 4 has LOS to [ANT 6, REL 3, REL 1, COL 10, COL 11, COL 12]
[2014-Mar-04 11:36:54] : REL 4 has no LOS to target ANT 5.. REL 4 forwards [SGN 6] to REL 1. 
[2014-Mar-04 11:36:54] : ANT 4 receives [SGN 8]. 
)[2014-Mar-04 11:36:54] : [SGN 6] gets relayed to REL 1. 
)[2014-Mar-04 11:36:54] : REL 1 has LOS to [ANT 1, REL 2, REL 4, COL 1, COL 2, COL 3]
[2014-Mar-04 11:36:54] : REL 1 has no LOS to target ANT 5.. REL 1 forwards [SGN 6] to REL 4. 
[2014-Mar-04 11:36:54] : [SGN 2] gets relayed to REL 3. 
)[2014-Mar-04 11:36:54] : REL 3 has LOS to [ANT 4, ANT 5, REL 2, REL 4, COL 7, COL 8, COL 9]
[2014-Mar-04 11:36:54] : REL 3 has no LOS to target ANT 3.. REL 3 forwards [SGN 2] to REL 4. 
[2014-Mar-04 11:36:55] : [SGN 6] gets relayed to REL 4. 
)[2014-Mar-04 11:36:55] : REL 4 has LOS to [ANT 6, REL 3, REL 1, COL 10, COL 11, COL 12]
[2014-Mar-04 11:36:55] : REL 4 has no LOS to target ANT 5.. REL 4 forwards [SGN 6] to REL 3. 
[2014-Mar-04 11:36:55] : [SGN 6] gets relayed to REL 3. 
)[2014-Mar-04 11:36:55] : REL 3 has LOS to [ANT 4, ANT 5, REL 2, REL 4, COL 7, COL 8, COL 9]
[2014-Mar-04 11:36:55] : REL 3 has LOS to target ANT 5.. REL 3 forwards [SGN 6] to ANT 5. 
[2014-Mar-04 11:36:56] : [SGN 2] gets relayed to REL 4. 
)[2014-Mar-04 11:36:56] : ANT 5 receives [SGN 6]. 
)[2014-Mar-04 11:36:56] : REL 4 has LOS to [ANT 6, REL 3, REL 1, COL 10, COL 11, COL 12]
[2014-Mar-04 11:36:56] : REL 4 has no LOS to target ANT 3.. REL 4 forwards [SGN 2] to REL 1. 
[2014-Mar-04 11:36:56] : ANT 5 receives [SGN 6]. 
)[2014-Mar-04 11:36:57] : [SGN 2] gets relayed to REL 1. 
)[2014-Mar-04 11:36:57] : REL 1 has LOS to [ANT 1, REL 2, REL 4, COL 1, COL 2, COL 3]
[2014-Mar-04 11:36:57] : REL 1 has no LOS to target ANT 3.. REL 1 forwards [SGN 2] to REL 4. 
[2014-Mar-04 11:36:58] : [SGN 2] gets relayed to REL 4. 
)[2014-Mar-04 11:36:58] : REL 4 has LOS to [ANT 6, REL 3, REL 1, COL 10, COL 11, COL 12]
[2014-Mar-04 11:36:58] : REL 4 has no LOS to target ANT 3.. REL 4 forwards [SGN 2] to REL 1. 
[2014-Mar-04 11:36:59] : [SGN 2] gets relayed to REL 1. 
)[2014-Mar-04 11:36:59] : REL 1 has LOS to [ANT 1, REL 2, REL 4, COL 1, COL 2, COL 3]
[2014-Mar-04 11:36:59] : REL 1 has no LOS to target ANT 3.. REL 1 forwards [SGN 2] to REL 4. 
[2014-Mar-04 11:37:00] : [SGN 2] gets relayed to REL 4. 
)[2014-Mar-04 11:37:00] : REL 4 has LOS to [ANT 6, REL 3, REL 1, COL 10, COL 11, COL 12]
[2014-Mar-04 11:37:00] : REL 4 has no LOS to target ANT 3.. REL 4 forwards [SGN 2] to REL 1. 
[2014-Mar-04 11:37:01] : [SGN 2] gets relayed to REL 1. 
)[2014-Mar-04 11:37:01] : REL 1 has LOS to [ANT 1, REL 2, REL 4, COL 1, COL 2, COL 3]
[2014-Mar-04 11:37:01] : REL 1 has no LOS to target ANT 3.. REL 1 forwards [SGN 2] to REL 4. 
[2014-Mar-04 11:37:02] : [SGN 2] gets relayed to REL 4. 
)[2014-Mar-04 11:37:02] : REL 4 has LOS to [ANT 6, REL 3, REL 1, COL 10, COL 11, COL 12]
[2014-Mar-04 11:37:02] : REL 4 has no LOS to target ANT 3.. REL 4 forwards [SGN 2] to REL 3. 
[2014-Mar-04 11:37:03] : [SGN 2] gets relayed to REL 3. 
)[2014-Mar-04 11:37:03] : REL 3 has LOS to [ANT 4, ANT 5, REL 2, REL 4, COL 7, COL 8, COL 9]
[2014-Mar-04 11:37:03] : REL 3 has no LOS to target ANT 3.. REL 3 forwards [SGN 2] to REL 2. 
[2014-Mar-04 11:37:05] : [SGN 2] gets relayed to REL 2. 
)[2014-Mar-04 11:37:05] : REL 2 has LOS to [ANT 2, ANT 3, REL 1, REL 3, COL 4, COL 5, COL 6]
[2014-Mar-04 11:37:05] : REL 2 has LOS to target ANT 3.. REL 2 forwards [SGN 2] to ANT 3. 
[2014-Mar-04 11:37:06] : ANT 3 receives [SGN 2]. 
)