[2014-Mar-04 08:45:36] : Preparing Dynamic Window Table.. DONE! 

[2014-Mar-04 08:45:36] : COM 1 has started.. 
[2014-Mar-04 08:45:36] : COM 2 has started.. 
[2014-Mar-04 08:45:36] : ANT 2 has started.. 
[2014-Mar-04 08:45:36] : ANT 4 has started.. 
[2014-Mar-04 08:45:36] : REL 2 has started.. 
[2014-Mar-04 08:45:36] : COL 2 has started.. 
[2014-Mar-04 08:45:36] : COL 9 has started.. 
[2014-Mar-04 08:45:36] : COL 5 has started.. 
[2014-Mar-04 08:45:36] : COL 10 has started.. 
[2014-Mar-04 08:45:36] : COL 11 has started.. 
[2014-Mar-04 08:45:36] : COL 8 has started.. 
[2014-Mar-04 08:45:36] : COL 7 has started.. 
[2014-Mar-04 08:45:36] : COL 6 has started.. 
[2014-Mar-04 08:45:36] : COL 4 has started.. 
[2014-Mar-04 08:45:36] : COL 3 has started.. 
[2014-Mar-04 08:45:36] : COL 1 has started.. 
[2014-Mar-04 08:45:36] : REL 4 has started.. 
[2014-Mar-04 08:45:36] : REL 3 has started.. 
[2014-Mar-04 08:45:36] : REL 1 has started.. 
[2014-Mar-04 08:45:36] : ANT 6 has started.. 
[2014-Mar-04 08:45:36] : ANT 5 has started.. 
[2014-Mar-04 08:45:36] : ANT 3 has started.. 
[2014-Mar-04 08:45:36] : ANT 1 has started.. 
[2014-Mar-04 08:45:36] : COM 3 has started.. 
[2014-Mar-04 08:45:36] : COL 12 has started.. 
[2014-Mar-04 08:45:37] : MPL has started.. 
[2014-Mar-04 08:45:37] : New Mission arrived.. MSN 1 [Target: COL 2, Duration: 4500] has been created. 
[2014-Mar-04 08:45:37] : MPL sends [MSN 1] to COM 1.
[2014-Mar-04 08:45:37] : New Mission arrived.. MSN 2 [Target: COL 3, Duration: 6700] has been created. 
[2014-Mar-04 08:45:37] : MPL sends [MSN 2] to COM 2.
[2014-Mar-04 08:45:38] : COM 1 receives [MSN 1] from MPL. 
)[2014-Mar-04 08:45:38] : COM 1 forwards [MSN 1] to ANT 4. 
[2014-Mar-04 08:45:38] : COM 2 receives [MSN 2] from MPL. 
)[2014-Mar-04 08:45:38] : COM 2 forwards [MSN 2] to ANT 4. 
[2014-Mar-04 08:45:39] : ANT 4 receives [MSN 1] from COM 1. 
)[2014-Mar-04 08:45:39] : ANT 4 has LOS to [REL 3, COL 7, COL 8]
[2014-Mar-04 08:45:39] : ANT 4 has no LOS to target COL 2.. ANT 4 forwards [MSN 1] to REL 3. 
[2014-Mar-04 08:45:40] : [MSN 1] gets relayed to REL 3. 
)[2014-Mar-04 08:45:40] : ANT 4 receives [MSN 2] from COM 2. 
)[2014-Mar-04 08:45:40] : REL 3 has LOS to [ANT 4, ANT 5, REL 2, REL 4, COL 7, COL 8, COL 9]
[2014-Mar-04 08:45:40] : REL 3 has no LOS to target COL 2.. REL 3 forwards [MSN 1] to REL 4. 
[2014-Mar-04 08:45:40] : ANT 4 has LOS to [REL 3, COL 7, COL 8]
[2014-Mar-04 08:45:40] : ANT 4 has no LOS to target COL 3.. ANT 4 forwards [MSN 2] to REL 3. 
[2014-Mar-04 08:45:41] : [MSN 1] gets relayed to REL 4. 
)[2014-Mar-04 08:45:41] : REL 4 has LOS to [ANT 6, REL 3, REL 1, COL 10, COL 11, COL 12]
[2014-Mar-04 08:45:41] : REL 4 has no LOS to target COL 2.. REL 4 forwards [MSN 1] to REL 1. 
[2014-Mar-04 08:45:41] : [MSN 2] gets relayed to REL 3. 
)[2014-Mar-04 08:45:41] : REL 3 has LOS to [ANT 4, ANT 5, REL 2, REL 4, COL 7, COL 8, COL 9]
[2014-Mar-04 08:45:41] : REL 3 has no LOS to target COL 3.. REL 3 forwards [MSN 2] to REL 4. 
[2014-Mar-04 08:45:42] : New Mission arrived.. MSN 3 [Target: COL 2, Duration: 4000] has been created. 
[2014-Mar-04 08:45:42] : MPL sends [MSN 3] to COM 3.
[2014-Mar-04 08:45:42] : [MSN 1] gets relayed to REL 1. 
)[2014-Mar-04 08:45:42] : REL 1 has LOS to [ANT 1, REL 2, REL 4, COL 1, COL 2, COL 3]
[2014-Mar-04 08:45:42] : REL 1 has LOS to target COL 2.. REL 1 forwards [MSN 1] to COL 2. 
[2014-Mar-04 08:45:42] : [MSN 2] gets relayed to REL 4. 
)[2014-Mar-04 08:45:42] : REL 4 has LOS to [ANT 6, REL 3, REL 1, COL 10, COL 11, COL 12]
[2014-Mar-04 08:45:42] : REL 4 has no LOS to target COL 3.. REL 4 forwards [MSN 2] to REL 1. 
[2014-Mar-04 08:45:43] : COM 3 receives [MSN 3] from MPL. 
)[2014-Mar-04 08:45:43] : COM 3 forwards [MSN 3] to ANT 6. 
[2014-Mar-04 08:45:43] : COL 2 receives [MSN 1]. 
)[2014-Mar-04 08:45:43] : [MSN 2] gets relayed to REL 1. 
)[2014-Mar-04 08:45:43] : REL 1 has LOS to [ANT 1, REL 2, REL 4, COL 1, COL 2, COL 3]
[2014-Mar-04 08:45:43] : REL 1 has LOS to target COL 3.. REL 1 forwards [MSN 2] to COL 3. 
[2014-Mar-04 08:45:44] : ANT 6 receives [MSN 3] from COM 3. 
)[2014-Mar-04 08:45:44] : ANT 6 has LOS to [REL 4, COL 11, COL 12]
[2014-Mar-04 08:45:44] : ANT 6 has no LOS to target COL 2.. ANT 6 forwards [MSN 3] to REL 4. 
[2014-Mar-04 08:45:44] : New Mission arrived.. MSN 4 [Target: COL 3, Duration: 5100] has been created. 
[2014-Mar-04 08:45:44] : MPL sends [MSN 4] to COM 1.
[2014-Mar-04 08:45:44] : COL 3 receives [MSN 2]. 
)[2014-Mar-04 08:45:45] : [MSN 3] gets relayed to REL 4. 
)[2014-Mar-04 08:45:45] : REL 4 has LOS to [ANT 6, REL 3, REL 1, COL 10, COL 11, COL 12]
[2014-Mar-04 08:45:45] : REL 4 has no LOS to target COL 2.. REL 4 forwards [MSN 3] to REL 3. 
[2014-Mar-04 08:45:45] : COM 1 receives [MSN 4] from MPL. 
)[2014-Mar-04 08:45:45] : COM 1 forwards [MSN 4] to ANT 5. 
[2014-Mar-04 08:45:46] : New Mission arrived.. MSN 5 [Target: COL 2, Duration: 4900] has been created. 
[2014-Mar-04 08:45:46] : MPL sends [MSN 5] to COM 2.
[2014-Mar-04 08:45:46] : [MSN 3] gets relayed to REL 3. 
)[2014-Mar-04 08:45:46] : REL 3 has LOS to [ANT 4, ANT 5, REL 2, REL 4, COL 7, COL 8, COL 9]
[2014-Mar-04 08:45:46] : REL 3 has no LOS to target COL 2.. REL 3 forwards [MSN 3] to REL 2. 
[2014-Mar-04 08:45:46] : ANT 5 receives [MSN 4] from COM 1. 
)[2014-Mar-04 08:45:46] : ANT 5 has LOS to [REL 3, COL 9, COL 10]
[2014-Mar-04 08:45:46] : ANT 5 has no LOS to target COL 3.. ANT 5 forwards [MSN 4] to REL 3. 
[2014-Mar-04 08:45:47] : COM 2 receives [MSN 5] from MPL. 
)[2014-Mar-04 08:45:47] : COM 2 forwards [MSN 5] to ANT 5. 
[2014-Mar-04 08:45:47] : [MSN 3] gets relayed to REL 2. 
)[2014-Mar-04 08:45:47] : REL 2 has LOS to [ANT 2, ANT 3, REL 1, REL 3, COL 4, COL 5, COL 6]
[2014-Mar-04 08:45:47] : REL 2 has no LOS to target COL 2.. REL 2 forwards [MSN 3] to REL 3. 
[2014-Mar-04 08:45:47] : [MSN 4] gets relayed to REL 3. 
)[2014-Mar-04 08:45:47] : REL 3 has LOS to [ANT 4, ANT 5, REL 2, REL 4, COL 7, COL 8, COL 9]
[2014-Mar-04 08:45:47] : REL 3 has no LOS to target COL 3.. REL 3 forwards [MSN 4] to REL 2. 
[2014-Mar-04 08:45:48] : ANT 5 receives [MSN 5] from COM 2. 
)[2014-Mar-04 08:45:48] : ANT 5 has LOS to [REL 3, COL 9, COL 10]
[2014-Mar-04 08:45:48] : ANT 5 has no LOS to target COL 2.. ANT 5 forwards [MSN 5] to REL 3. 
[2014-Mar-04 08:45:48] : [MSN 3] gets relayed to REL 3. 
)[2014-Mar-04 08:45:48] : REL 3 has LOS to [ANT 4, ANT 5, REL 2, REL 4, COL 7, COL 8, COL 9]
[2014-Mar-04 08:45:48] : REL 3 has no LOS to target COL 2.. REL 3 forwards [MSN 3] to REL 4. 
[2014-Mar-04 08:45:48] : [MSN 4] gets relayed to REL 2. 
)[2014-Mar-04 08:45:48] : REL 2 has LOS to [ANT 2, ANT 3, REL 1, REL 3, COL 4, COL 5, COL 6]
[2014-Mar-04 08:45:48] : REL 2 has no LOS to target COL 3.. REL 2 forwards [MSN 4] to REL 3. 
[2014-Mar-04 08:45:49] : New Mission arrived.. MSN 6 [Target: COL 3, Duration: 3300] has been created. 
[2014-Mar-04 08:45:49] : MPL sends [MSN 6] to COM 3.
[2014-Mar-04 08:45:49] : [MSN 3] gets relayed to REL 4. 
)[2014-Mar-04 08:45:49] : REL 4 has LOS to [ANT 6, REL 3, REL 1, COL 10, COL 11, COL 12]
[2014-Mar-04 08:45:49] : REL 4 has no LOS to target COL 2.. REL 4 forwards [MSN 3] to REL 3. 
[2014-Mar-04 08:45:49] : [MSN 5] gets relayed to REL 3. 
)[2014-Mar-04 08:45:49] : REL 3 has LOS to [ANT 4, ANT 5, REL 2, REL 4, COL 7, COL 8, COL 9]
[2014-Mar-04 08:45:49] : REL 3 has no LOS to target COL 2.. REL 3 forwards [MSN 5] to REL 2. 
[2014-Mar-04 08:45:50] : COM 3 receives [MSN 6] from MPL. 
)[2014-Mar-04 08:45:50] : COM 3 forwards [MSN 6] to ANT 1. 
[2014-Mar-04 08:45:50] : [MSN 5] gets relayed to REL 2. 
)[2014-Mar-04 08:45:50] : REL 2 has LOS to [ANT 2, ANT 3, REL 1, REL 3, COL 4, COL 5, COL 6]
[2014-Mar-04 08:45:50] : REL 2 has no LOS to target COL 2.. REL 2 forwards [MSN 5] to REL 1. 
[2014-Mar-04 08:45:50] : [MSN 4] gets relayed to REL 3. 
)[2014-Mar-04 08:45:50] : REL 3 has LOS to [ANT 4, ANT 5, REL 2, REL 4, COL 7, COL 8, COL 9]
[2014-Mar-04 08:45:50] : REL 3 has no LOS to target COL 3.. REL 3 forwards [MSN 4] to REL 2. 
[2014-Mar-04 08:45:51] : New Mission arrived.. MSN 7 [Target: COL 2, Duration: 4000] has been created. 
[2014-Mar-04 08:45:51] : MPL sends [MSN 7] to COM 1.
[2014-Mar-04 08:45:51] : ANT 1 receives [MSN 6] from COM 3. 
)[2014-Mar-04 08:45:51] : ANT 1 has LOS to [REL 1, COL 1, COL 2]
[2014-Mar-04 08:45:51] : ANT 1 has no LOS to target COL 3.. ANT 1 forwards [MSN 6] to REL 1. 
[2014-Mar-04 08:45:51] : [MSN 5] gets relayed to REL 1. 
)[2014-Mar-04 08:45:51] : REL 1 has LOS to [ANT 1, REL 2, REL 4, COL 1, COL 2, COL 3]
[2014-Mar-04 08:45:51] : REL 1 has LOS to target COL 2.. REL 1 forwards [MSN 5] to COL 2. 
[2014-Mar-04 08:45:51] : [MSN 3] gets relayed to REL 3. 
)[2014-Mar-04 08:45:51] : REL 3 has LOS to [ANT 4, ANT 5, REL 2, REL 4, COL 7, COL 8, COL 9]
[2014-Mar-04 08:45:51] : REL 3 has no LOS to target COL 2.. REL 3 forwards [MSN 3] to REL 2. 
[2014-Mar-04 08:45:51] : [MSN 4] gets relayed to REL 2. 
)[2014-Mar-04 08:45:51] : REL 2 has LOS to [ANT 2, ANT 3, REL 1, REL 3, COL 4, COL 5, COL 6]
[2014-Mar-04 08:45:51] : REL 2 has no LOS to target COL 3.. REL 2 forwards [MSN 4] to REL 1. 
[2014-Mar-04 08:45:52] : COM 1 receives [MSN 7] from MPL. 
)[2014-Mar-04 08:45:52] : COM 1 forwards [MSN 7] to ANT 6. 
[2014-Mar-04 08:45:52] : COL 2 receives [MSN 5]. 
)[2014-Mar-04 08:45:52] : [MSN 6] gets relayed to REL 1. 
)[2014-Mar-04 08:45:52] : REL 1 has LOS to [ANT 1, REL 2, REL 4, COL 1, COL 2, COL 3]
[2014-Mar-04 08:45:52] : REL 1 has LOS to target COL 3.. REL 1 forwards [MSN 6] to COL 3. 
[2014-Mar-04 08:45:52] : [MSN 3] gets relayed to REL 2. 
)[2014-Mar-04 08:45:52] : REL 2 has LOS to [ANT 2, ANT 3, REL 1, REL 3, COL 4, COL 5, COL 6]
[2014-Mar-04 08:45:52] : REL 2 has no LOS to target COL 2.. REL 2 forwards [MSN 3] to REL 3. 
[2014-Mar-04 08:45:52] : New Mission arrived.. MSN 8 [Target: COL 3, Duration: 5000] has been created. 
[2014-Mar-04 08:45:52] : MPL sends [MSN 8] to COM 2.
[2014-Mar-04 08:45:53] : ANT 6 receives [MSN 7] from COM 1. 
)[2014-Mar-04 08:45:53] : ANT 6 has LOS to [REL 4, COL 11, COL 12]
[2014-Mar-04 08:45:53] : ANT 6 has no LOS to target COL 2.. ANT 6 forwards [MSN 7] to REL 4. 
[2014-Mar-04 08:45:53] : COL 3 receives [MSN 6]. 
)[2014-Mar-04 08:45:53] : [MSN 4] gets relayed to REL 1. 
)[2014-Mar-04 08:45:53] : REL 1 has LOS to [ANT 1, REL 2, REL 4, COL 1, COL 2, COL 3]
[2014-Mar-04 08:45:53] : REL 1 has LOS to target COL 3.. REL 1 forwards [MSN 4] to COL 3. 
[2014-Mar-04 08:45:53] : [MSN 3] gets relayed to REL 3. 
)[2014-Mar-04 08:45:53] : REL 3 has LOS to [ANT 4, ANT 5, REL 2, REL 4, COL 7, COL 8, COL 9]
[2014-Mar-04 08:45:53] : REL 3 has no LOS to target COL 2.. REL 3 forwards [MSN 3] to REL 2. 
[2014-Mar-04 08:45:53] : COM 2 receives [MSN 8] from MPL. 
)[2014-Mar-04 08:45:53] : COM 2 forwards [MSN 8] to ANT 3. 
[2014-Mar-04 08:45:54] : [MSN 7] gets relayed to REL 4. 
)[2014-Mar-04 08:45:54] : REL 4 has LOS to [ANT 6, REL 3, REL 1, COL 10, COL 11, COL 12]
[2014-Mar-04 08:45:54] : REL 4 has no LOS to target COL 2.. REL 4 forwards [MSN 7] to REL 1. 
[2014-Mar-04 08:45:54] : [MSN 3] gets relayed to REL 2. 
)[2014-Mar-04 08:45:54] : REL 2 has LOS to [ANT 2, ANT 3, REL 1, REL 3, COL 4, COL 5, COL 6]
[2014-Mar-04 08:45:54] : REL 2 has no LOS to target COL 2.. REL 2 forwards [MSN 3] to REL 1. 
[2014-Mar-04 08:45:54] : ANT 3 receives [MSN 8] from COM 2. 
)[2014-Mar-04 08:45:54] : ANT 3 has LOS to [REL 2, COL 5, COL 6]
[2014-Mar-04 08:45:54] : ANT 3 has no LOS to target COL 3.. ANT 3 forwards [MSN 8] to REL 2. 
[2014-Mar-04 08:45:55] : New Mission arrived.. MSN 9 [Target: COL 2, Duration: 4300] has been created. 
[2014-Mar-04 08:45:55] : MPL sends [MSN 9] to COM 3.
[2014-Mar-04 08:45:55] : [MSN 7] gets relayed to REL 1. 
)[2014-Mar-04 08:45:55] : REL 1 has LOS to [ANT 1, REL 2, REL 4, COL 1, COL 2, COL 3]
[2014-Mar-04 08:45:55] : REL 1 has LOS to target COL 2.. REL 1 forwards [MSN 7] to COL 2. 
[2014-Mar-04 08:45:55] : COL 3 receives [MSN 4]. 
)[2014-Mar-04 08:45:55] : [MSN 8] gets relayed to REL 2. 
)[2014-Mar-04 08:45:55] : REL 2 has LOS to [ANT 2, ANT 3, REL 1, REL 3, COL 4, COL 5, COL 6]
[2014-Mar-04 08:45:55] : REL 2 has no LOS to target COL 3.. REL 2 forwards [MSN 8] to REL 1. 
[2014-Mar-04 08:45:56] : COM 3 receives [MSN 9] from MPL. 
)[2014-Mar-04 08:45:56] : COM 3 forwards [MSN 9] to ANT 5. 
[2014-Mar-04 08:45:56] : [MSN 3] gets relayed to REL 1. 
)[2014-Mar-04 08:45:56] : REL 1 has LOS to [ANT 1, REL 2, REL 4, COL 1, COL 2, COL 3]
[2014-Mar-04 08:45:56] : REL 1 has LOS to target COL 2.. REL 1 forwards [MSN 3] to COL 2. 
[2014-Mar-04 08:45:56] : COL 2 receives [MSN 7]. 
)[2014-Mar-04 08:45:57] : ANT 5 receives [MSN 9] from COM 3. 
)[2014-Mar-04 08:45:57] : ANT 5 has LOS to [REL 3, COL 9, COL 10]
[2014-Mar-04 08:45:57] : ANT 5 has no LOS to target COL 2.. ANT 5 forwards [MSN 9] to REL 3. 
[2014-Mar-04 08:45:57] : [MSN 8] gets relayed to REL 1. 
)[2014-Mar-04 08:45:57] : REL 1 has LOS to [ANT 1, REL 2, REL 4, COL 1, COL 2, COL 3]
[2014-Mar-04 08:45:57] : REL 1 has LOS to target COL 3.. REL 1 forwards [MSN 8] to COL 3. 
[2014-Mar-04 08:45:57] : New Mission arrived.. MSN 10 [Target: COL 3, Duration: 3900] has been created. 
[2014-Mar-04 08:45:57] : MPL sends [MSN 10] to COM 1.

[2014-Mar-04 08:45:57] : MPL is done loading missions. 

[2014-Mar-04 08:45:57] : COM 3 is done forwarding missions. 

[2014-Mar-04 08:45:57] : COM 2 is done forwarding missions. 

[2014-Mar-04 08:45:58] : [MSN 9] gets relayed to REL 3. 
)[2014-Mar-04 08:45:58] : REL 3 has LOS to [ANT 4, ANT 5, REL 2, REL 4, COL 7, COL 8, COL 9]
[2014-Mar-04 08:45:58] : REL 3 has no LOS to target COL 2.. REL 3 forwards [MSN 9] to REL 2. 
[2014-Mar-04 08:45:58] : COL 3 receives [MSN 8]. 
)[2014-Mar-04 08:45:58] : COM 1 receives [MSN 10] from MPL. 
)[2014-Mar-04 08:45:58] : COM 1 forwards [MSN 10] to ANT 5. 
[2014-Mar-04 08:45:58] : COM 1 is done forwarding missions. 

[2014-Mar-04 08:45:59] : [MSN 9] gets relayed to REL 2. 
)[2014-Mar-04 08:45:59] : REL 2 has LOS to [ANT 2, ANT 3, REL 1, REL 3, COL 4, COL 5, COL 6]
[2014-Mar-04 08:45:59] : REL 2 has no LOS to target COL 2.. REL 2 forwards [MSN 9] to REL 1. 
[2014-Mar-04 08:45:59] : COL 2 receives [MSN 3]. 
)[2014-Mar-04 08:45:59] : ANT 5 receives [MSN 10] from COM 1. 
)[2014-Mar-04 08:45:59] : ANT 5 has LOS to [REL 3, COL 9, COL 10]
[2014-Mar-04 08:45:59] : ANT 5 has no LOS to target COL 3.. ANT 5 forwards [MSN 10] to REL 3. 
[2014-Mar-04 08:46:00] : [MSN 9] gets relayed to REL 1. 
)[2014-Mar-04 08:46:00] : REL 1 has LOS to [ANT 1, REL 2, REL 4, COL 1, COL 2, COL 3]
[2014-Mar-04 08:46:00] : REL 1 has LOS to target COL 2.. REL 1 forwards [MSN 9] to COL 2. 
[2014-Mar-04 08:46:00] : [MSN 10] gets relayed to REL 3. 
)[2014-Mar-04 08:46:00] : REL 3 has LOS to [ANT 4, ANT 5, REL 2, REL 4, COL 7, COL 8, COL 9]
[2014-Mar-04 08:46:00] : REL 3 has no LOS to target COL 3.. REL 3 forwards [MSN 10] to REL 4. 
[2014-Mar-04 08:46:01] : COL 2 receives [MSN 9]. 
)[2014-Mar-04 08:46:01] : [MSN 10] gets relayed to REL 4. 
)[2014-Mar-04 08:46:01] : REL 4 has LOS to [ANT 6, REL 3, REL 1, COL 10, COL 11, COL 12]
[2014-Mar-04 08:46:01] : REL 4 has no LOS to target COL 3.. REL 4 forwards [MSN 10] to REL 3. 
[2014-Mar-04 08:46:02] : [MSN 10] gets relayed to REL 3. 
)[2014-Mar-04 08:46:02] : REL 3 has LOS to [ANT 4, ANT 5, REL 2, REL 4, COL 7, COL 8, COL 9]
[2014-Mar-04 08:46:02] : REL 3 has no LOS to target COL 3.. REL 3 forwards [MSN 10] to REL 4. 
[2014-Mar-04 08:46:04] : [MSN 10] gets relayed to REL 4. 
)[2014-Mar-04 08:46:04] : REL 4 has LOS to [ANT 6, REL 3, REL 1, COL 10, COL 11, COL 12]
[2014-Mar-04 08:46:04] : REL 4 has no LOS to target COL 3.. REL 4 forwards [MSN 10] to REL 3. 
[2014-Mar-04 08:46:05] : [MSN 10] gets relayed to REL 3. 
)[2014-Mar-04 08:46:05] : REL 3 has LOS to [ANT 4, ANT 5, REL 2, REL 4, COL 7, COL 8, COL 9]
[2014-Mar-04 08:46:05] : REL 3 has no LOS to target COL 3.. REL 3 forwards [MSN 10] to REL 4. 
[2014-Mar-04 08:46:06] : [MSN 10] gets relayed to REL 4. 
)[2014-Mar-04 08:46:06] : REL 4 has LOS to [ANT 6, REL 3, REL 1, COL 10, COL 11, COL 12]
[2014-Mar-04 08:46:06] : REL 4 has no LOS to target COL 3.. REL 4 forwards [MSN 10] to REL 3. 
[2014-Mar-04 08:46:07] : [MSN 10] gets relayed to REL 3. 
)[2014-Mar-04 08:46:07] : REL 3 has LOS to [ANT 4, ANT 5, REL 2, REL 4, COL 7, COL 8, COL 9]
[2014-Mar-04 08:46:07] : REL 3 has no LOS to target COL 3.. REL 3 forwards [MSN 10] to REL 4. 
[2014-Mar-04 08:46:08] : [MSN 10] ge