[2014-Mar-14 11:33:21] : New Mission arrived.. MSN 12 [Target: COL 12] has been created. 
[2014-Mar-14 11:33:21] : MPL sends [MSN 12] to COM 3.
[2014-Mar-14 11:33:22] : COM 3 receives [MSN 12] from MPL. 
[2014-Mar-14 11:33:22] : COM 3 forwards [MSN 12] to ANT 1. 
[2014-Mar-14 11:33:23] : [MSN 12] gets relayed to ANT 1. 
[2014-Mar-14 11:33:23] : ANT 1 has LOS to [REL 1, REL 2, COL 1, COL 2]
[2014-Mar-14 11:33:23] : ANT 1 : Target[COL 12] 
[2014-Mar-14 11:33:23] :   Distance from REL 1 -- 4 
[2014-Mar-14 11:33:23] :   Distance from REL 2 -- 3 
[2014-Mar-14 11:33:23] : ANT 1 has no LOS to target COL 12.. ANT 1 forwards [MSN 12] to REL 2. 
[2014-Mar-14 11:33:27] : [MSN 12] gets relayed to REL 2. 
[2014-Mar-14 11:33:27] : REL 2 has LOS to [ANT 1, ANT 2, ANT 3, ANT 4, REL 1, REL 3, COL 6, COL 7, COL 8]
[2014-Mar-14 11:33:27] : REL 2 : Target[COL 12] 
[2014-Mar-14 11:33:27] :   Distance from REL 1 -- 4 
[2014-Mar-14 11:33:27] :   Distance from REL 3 -- 4 
[2014-Mar-14 11:33:27] : REL 2 has no LOS to target COL 12.. REL 2 forwards [MSN 12] to REL 1. 
[2014-Mar-14 11:33:28] : [MSN 12] gets relayed to REL 1. 
[2014-Mar-14 11:33:28] : REL 1 has LOS to [ANT 1, ANT 2, REL 2, REL 4, COL 3, COL 4, COL 5]
[2014-Mar-14 11:33:28] : REL 1 : Target[COL 12] 
[2014-Mar-14 11:33:28] :   Distance from REL 2 -- 3 
[2014-Mar-14 11:33:28] :   Distance from REL 4 -- 1 
[2014-Mar-14 11:33:28] : REL 1 has no LOS to target COL 12.. REL 1 forwards [MSN 12] to REL 4. 
[2014-Mar-14 11:33:29] : [MSN 12] gets relayed to REL 4. 
[2014-Mar-14 11:33:29] : REL 4 has LOS to [ANT 5, ANT 6, REL 3, REL 1, COL 1, COL 2, COL 12]
[2014-Mar-14 11:33:29] : REL 4 has LOS to target COL 12.. REL 4 forwards [MSN 12] to COL 12. 
[2014-Mar-14 11:33:31] : COL 12 receives [MSN 12]. 
[2014-Mar-14 11:33:32] : SGN 12 [Target: ANT 1, Duration: 4900] has been created. 
[2014-Mar-14 11:33:32] : COL 12 has LOS to [ANT 1, REL 4]
[2014-Mar-14 11:33:32] : COL 12 has LOS to target ANT 1.. COL 12 forwards [SGN 12] to ANT 1. 
[2014-Mar-14 11:33:34] : COL 12 has LOS to [ANT 1, REL 4]
[2014-Mar-14 11:33:34] : COL 12 has LOS to target ANT 1.. COL 12 forwards [SGN 12] to ANT 1. 
[2014-Mar-14 11:33:34] : ANT 1 receives [SGN 12]. 
[2014-Mar-14 11:33:35] : ANT 1 receives [SGN 12]. 
[2014-Mar-14 11:33:35] : COL 12 has LOS to [ANT 1, REL 4]
[2014-Mar-14 11:33:35] : COL 12 has LOS to target ANT 1.. COL 12 forwards [SGN 12] to ANT 1. 
[2014-Mar-14 11:33:36] : ANT 1 receives [SGN 12]. 
[2014-Mar-14 11:33:37] : COL 12 has LOS to [ANT 1, REL 4]
[2014-Mar-14 11:33:37] : COL 12 has LOS to target ANT 1.. COL 12 forwards [SGN 12] to ANT 1. 
[2014-Mar-14 11:33:38] : ANT 1 receives [SGN 12]. 
[2014-Mar-14 11:33:38] : COL 12 has LOS to [ANT 1, REL 4]
[2014-Mar-14 11:33:38] : COL 12 has LOS to target ANT 1.. COL 12 forwards [SGN 12] to ANT 1. 
[2014-Mar-14 11:33:39] : ANT 1 receives [SGN 12]. 
