[2014-Mar-14 11:33:26] : New Mission arrived.. MSN 14 [Target: COL 2] has been created. 
[2014-Mar-14 11:33:26] : MPL sends [MSN 14] to COM 2.
[2014-Mar-14 11:33:27] : COM 2 receives [MSN 14] from MPL. 
[2014-Mar-14 11:33:27] : COM 2 forwards [MSN 14] to ANT 2. 
[2014-Mar-14 11:33:28] : [MSN 14] gets relayed to ANT 2. 
[2014-Mar-14 11:33:28] : ANT 2 has LOS to [REL 1, REL 2, COL 1, COL 2]
[2014-Mar-14 11:33:28] : ANT 2 has LOS to target COL 2.. ANT 2 forwards [MSN 14] to COL 2. 
[2014-Mar-14 11:33:29] : COL 2 receives [MSN 14]. 
[2014-Mar-14 11:33:30] : SGN 14 [Target: ANT 2, Duration: 3800] has been created. 
[2014-Mar-14 11:33:30] : COL 2 has LOS to [ANT 2, REL 4]
[2014-Mar-14 11:33:30] : COL 2 has LOS to target ANT 2.. COL 2 forwards [SGN 14] to ANT 2. 
[2014-Mar-14 11:33:31] : ANT 2 receives [SGN 14]. 
[2014-Mar-14 11:33:31] : COL 2 has LOS to [ANT 2, REL 4]
[2014-Mar-14 11:33:31] : COL 2 has LOS to target ANT 2.. COL 2 forwards [SGN 14] to ANT 2. 
[2014-Mar-14 11:33:32] : ANT 2 receives [SGN 14]. 
[2014-Mar-14 11:33:32] : COL 2 has LOS to [ANT 2, REL 4]
[2014-Mar-14 11:33:32] : COL 2 has LOS to target ANT 2.. COL 2 forwards [SGN 14] to ANT 2. 
[2014-Mar-14 11:33:33] : ANT 2 receives [SGN 14]. 
[2014-Mar-14 11:33:34] : COL 2 has LOS to [ANT 2, REL 4]
[2014-Mar-14 11:33:34] : COL 2 has LOS to target ANT 2.. COL 2 forwards [SGN 14] to ANT 2. 
[2014-Mar-14 11:33:35] : ANT 2 receives [SGN 14]. 
