[2014-Mar-14 11:33:15] : New Mission arrived.. MSN 9 [Target: COL 9] has been created. 
[2014-Mar-14 11:33:15] : MPL sends [MSN 9] to COM 3.
[2014-Mar-14 11:33:16] : COM 3 receives [MSN 9] from MPL. 
[2014-Mar-14 11:33:16] : COM 3 forwards [MSN 9] to ANT 2. 
[2014-Mar-14 11:33:17] : [MSN 9] gets relayed to ANT 2. 
[2014-Mar-14 11:33:17] : ANT 2 has LOS to [REL 1, REL 2, COL 3, COL 4]
[2014-Mar-14 11:33:17] : ANT 2 : Target[COL 9] 
[2014-Mar-14 11:33:17] :   Distance from REL 1 -- 3 
[2014-Mar-14 11:33:17] :   Distance from REL 2 -- 4 
[2014-Mar-14 11:33:17] : ANT 2 has no LOS to target COL 9.. ANT 2 forwards [MSN 9] to REL 1. 
[2014-Mar-14 11:33:18] : [MSN 9] gets relayed to REL 1. 
[2014-Mar-14 11:33:18] : REL 1 has LOS to [ANT 1, ANT 2, REL 2, REL 4, COL 1, COL 2, COL 3]
[2014-Mar-14 11:33:18] : REL 1 : Target[COL 9] 
[2014-Mar-14 11:33:18] :   Distance from REL 2 -- 4 
[2014-Mar-14 11:33:18] :   Distance from REL 4 -- 2 
[2014-Mar-14 11:33:18] : REL 1 has no LOS to target COL 9.. REL 1 forwards [MSN 9] to REL 4. 
[2014-Mar-14 11:33:19] : [MSN 9] gets relayed to REL 4. 
[2014-Mar-14 11:33:19] : REL 4 has LOS to [ANT 5, ANT 6, REL 3, REL 1, COL 10, COL 11, COL 12]
[2014-Mar-14 11:33:19] : REL 4 : Target[COL 9] 
[2014-Mar-14 11:33:19] :   Distance from REL 3 -- 1 
[2014-Mar-14 11:33:19] :   Distance from REL 1 -- 3 
[2014-Mar-14 11:33:19] : REL 4 has no LOS to target COL 9.. REL 4 forwards [MSN 9] to REL 3. 
[2014-Mar-14 11:33:20] : [MSN 9] gets relayed to REL 3. 
[2014-Mar-14 11:33:20] : REL 3 has LOS to [ANT 3, ANT 4, ANT 5, ANT 6, REL 2, REL 4, COL 7, COL 8, COL 9]
[2014-Mar-14 11:33:20] : REL 3 has LOS to target COL 9.. REL 3 forwards [MSN 9] to COL 9. 
[2014-Mar-14 11:33:21] : COL 9 receives [MSN 9]. 
[2014-Mar-14 11:33:22] : SGN 9 [Target: ANT 2, Duration: 4300] has been created. 
[2014-Mar-14 11:33:22] : COL 9 has LOS to [ANT 5, REL 3]
[2014-Mar-14 11:33:22] : COL 9 : Target[ANT 2] 
[2014-Mar-14 11:33:22] :   Distance from REL 3 -- 2 
[2014-Mar-14 11:33:22] : COL 9 has no LOS to target ANT 2.. COL 9 forwards [SGN 9] to REL 3. 
[2014-Mar-14 11:33:23] : COL 9 has LOS to [ANT 5, REL 3]
[2014-Mar-14 11:33:23] : COL 9 : Target[ANT 2] 
[2014-Mar-14 11:33:23] :   Distance from REL 3 -- 2 
[2014-Mar-14 11:33:23] : COL 9 has no LOS to target ANT 2.. COL 9 forwards [SGN 9] to REL 3. 
[2014-Mar-14 11:33:24] : COL 9 has LOS to [ANT 5, REL 3]
[2014-Mar-14 11:33:24] : COL 9 : Target[ANT 2] 
[2014-Mar-14 11:33:24] :   Distance from REL 3 -- 2 
[2014-Mar-14 11:33:24] : COL 9 has no LOS to target ANT 2.. COL 9 forwards [SGN 9] to REL 3. 
[2014-Mar-14 11:33:24] : [SGN 9] gets relayed to REL 3. 
[2014-Mar-14 11:33:24] : REL 3 has LOS to [ANT 3, ANT 4, ANT 5, ANT 6, REL 2, REL 4, COL 7, COL 8, COL 9]
[2014-Mar-14 11:33:24] : REL 3 : Target[ANT 2] 
[2014-Mar-14 11:33:24] :   Distance from REL 2 -- 1 
[2014-Mar-14 11:33:24] :   Distance from REL 4 -- 3 
[2014-Mar-14 11:33:24] : REL 3 has no LOS to target ANT 2.. REL 3 forwards [SGN 9] to REL 2. 
[2014-Mar-14 11:33:25] : COL 9 has LOS to [ANT 5, REL 3]
[2014-Mar-14 11:33:25] : COL 9 : Target[ANT 2] 
[2014-Mar-14 11:33:25] :   Distance from REL 3 -- 2 
[2014-Mar-14 11:33:25] : COL 9 has no LOS to target ANT 2.. COL 9 forwards [SGN 9] to REL 3. 
[2014-Mar-14 11:33:25] : [SGN 9] gets relayed to REL 3. 
[2014-Mar-14 11:33:25] : REL 3 has LOS to [ANT 3, ANT 4, ANT 5, ANT 6, REL 2, REL 4, COL 7, COL 8, COL 9]
[2014-Mar-14 11:33:25] : REL 3 : Target[ANT 2] 
[2014-Mar-14 11:33:25] :   Distance from REL 2 -- 1 
[2014-Mar-14 11:33:25] :   Distance from REL 4 -- 3 
[2014-Mar-14 11:33:25] : REL 3 has no LOS to target ANT 2.. REL 3 forwards [SGN 9] to REL 2. 
[2014-Mar-14 11:33:26] : COL 9 has LOS to [ANT 6, REL 3]
[2014-Mar-14 11:33:26] : COL 9 : Target[ANT 2] 
[2014-Mar-14 11:33:26] :   Distance from REL 3 -- 2 
[2014-Mar-14 11:33:27] : COL 9 has no LOS to target ANT 2.. COL 9 forwards [SGN 9] to REL 3. 
[2014-Mar-14 11:33:27] : [SGN 9] gets relayed to REL 3. 
[2014-Mar-14 11:33:27] : REL 3 has LOS to [ANT 3, ANT 4, ANT 5, ANT 6, REL 2, REL 4, COL 9, COL 10, COL 11]
[2014-Mar-14 11:33:27] : REL 3 : Target[ANT 2] 
[2014-Mar-14 11:33:27] :   Distance from REL 2 -- 1 
[2014-Mar-14 11:33:27] :   Distance from REL 4 -- 3 
[2014-Mar-14 11:33:27] : REL 3 has no LOS to target ANT 2.. REL 3 forwards [SGN 9] to REL 2. 
[2014-Mar-14 11:33:28] : [SGN 9] gets relayed to REL 2. 
[2014-Mar-14 11:33:28] : REL 2 has LOS to [ANT 1, ANT 2, ANT 3, ANT 4, REL 1, REL 3, COL 6, COL 7, COL 8]
[2014-Mar-14 11:33:28] : REL 2 has LOS to target ANT 2.. REL 2 forwards [SGN 9] to ANT 2. 
[2014-Mar-14 11:33:28] : [SGN 9] gets relayed to REL 3. 
[2014-Mar-14 11:33:28] : ANT 2 receives [SGN 9]. 
[2014-Mar-14 11:33:28] : REL 3 has LOS to [ANT 3, ANT 4, ANT 5, ANT 6, REL 2, REL 4, COL 9, COL 10, COL 11]
[2014-Mar-14 11:33:28] : REL 3 : Target[ANT 2] 
[2014-Mar-14 11:33:29] :   Distance from REL 2 -- 1 
[2014-Mar-14 11:33:29] :   Distance from REL 4 -- 3 
[2014-Mar-14 11:33:29] : REL 3 has no LOS to target ANT 2.. REL 3 forwards [SGN 9] to REL 2. 
[2014-Mar-14 11:33:29] : [SGN 9] gets relayed to REL 2. 
[2014-Mar-14 11:33:29] : REL 2 has LOS to [ANT 1, ANT 2, ANT 3, ANT 4, REL 1, REL 3, COL 6, COL 7, COL 8]
[2014-Mar-14 11:33:29] : REL 2 has LOS to target ANT 2.. REL 2 forwards [SGN 9] to ANT 2. 
[2014-Mar-14 11:33:30] : [SGN 9] gets relayed to REL 3. 
[2014-Mar-14 11:33:30] : REL 3 has LOS to [ANT 3, ANT 4, ANT 5, ANT 6, REL 2, REL 4, COL 9, COL 10, COL 11]
[2014-Mar-14 11:33:30] : REL 3 : Target[ANT 2] 
[2014-Mar-14 11:33:30] :   Distance from REL 2 -- 1 
[2014-Mar-14 11:33:30] :   Distance from REL 4 -- 3 
[2014-Mar-14 11:33:30] : REL 3 has no LOS to target ANT 2.. REL 3 forwards [SGN 9] to REL 2. 
[2014-Mar-14 11:33:30] : [SGN 9] gets relayed to REL 2. 
[2014-Mar-14 11:33:30] : REL 2 has LOS to [ANT 1, ANT 2, ANT 3, ANT 4, REL 1, REL 3, COL 6, COL 7, COL 8]
[2014-Mar-14 11:33:30] : REL 2 has LOS to target ANT 2.. REL 2 forwards [SGN 9] to ANT 2. 
[2014-Mar-14 11:33:31] : [SGN 9] gets relayed to REL 3. 
[2014-Mar-14 11:33:31] : ANT 2 receives [SGN 9]. 
[2014-Mar-14 11:33:31] : REL 3 has LOS to [ANT 3, ANT 4, ANT 5, ANT 6, REL 2, REL 4, COL 9, COL 10, COL 11]
[2014-Mar-14 11:33:31] : REL 3 : Target[ANT 2] 
[2014-Mar-14 11:33:31] :   Distance from REL 2 -- 1 
[2014-Mar-14 11:33:31] : ANT 2 receives [SGN 9]. 
[2014-Mar-14 11:33:31] :   Distance from REL 4 -- 3 
[2014-Mar-14 11:33:31] : REL 3 has no LOS to target ANT 2.. REL 3 forwards [SGN 9] to REL 2. 
[2014-Mar-14 11:33:31] : [SGN 9] gets relayed to REL 2. 
[2014-Mar-14 11:33:31] : REL 2 has LOS to [ANT 1, ANT 2, ANT 3, ANT 4, REL 1, REL 3, COL 6, COL 7, COL 8]
[2014-Mar-14 11:33:31] : REL 2 has LOS to target ANT 2.. REL 2 forwards [SGN 9] to ANT 2. 
[2014-Mar-14 11:33:32] : ANT 2 receives [SGN 9]. 
[2014-Mar-14 11:33:32] : ANT 2 receives [SGN 9]. 
